%YAML 1.1
%TAG !u! tag:unity3d.com,2011:
--- !u!21 &2100000
Material:
  serializedVersion: 6
  m_ObjectHideFlags: 0
  m_CorrespondingSourceObject: {fileID: 0}
  m_PrefabInstance: {fileID: 0}
  m_PrefabAsset: {fileID: 0}
  m_Name: MobileDiffuseColor_StoneGrad 1
  m_Shader: {fileID: 4800000, guid: 1040c664c228384488aaf807bec903a4, type: 3}
  m_ShaderKeywords: 
  m_LightmapFlags: 4
  m_EnableInstancingVariants: 0
  m_DoubleSidedGI: 0
  m_CustomRenderQueue: -1
  stringTagMap: {}
  disabledShaderPasses: []
  m_SavedProperties:
    serializedVersion: 3
    m_TexEnvs:
    - _TextureSample0:
        m_Texture: {fileID: 2800000, guid: 1d5c3d2cbc9feb0408fe84cb6b965bce, type: 3}
        m_Scale: {x: 1, y: 1}
        m_Offset: {x: 0, y: 0}
    - _texcoord:
        m_Texture: {fileID: 0}
        m_Scale: {x: 1, y: 1}
        m_Offset: {x: 0, y: 0}
    m_Floats:
    - _BotMid: -0.5
    - _Height: -1.79
    - _TopMid: -1.4
    - __dirty: 1
    m_Colors:
    - _BotColor: {r: 0.5849056, g: 0.5849056, b: 0.5849056, a: 1}
    - _Color0: {r: 0.735849, g: 0.42570102, b: 0.107600555, a: 1}
    - _MidColor: {r: 0.6415094, g: 0.6415094, b: 0.6415094, a: 1}
    - _TopColor: {r: 0.5943396, g: 0.5943396, b: 0.5943396, a: 1}
