%YAML 1.1
%TAG !u! tag:unity3d.com,2011:
--- !u!21 &2100000
Material:
  serializedVersion: 6
  m_ObjectHideFlags: 0
  m_CorrespondingSourceObject: {fileID: 0}
  m_PrefabInstance: {fileID: 0}
  m_PrefabAsset: {fileID: 0}
  m_Name: MobileDiffuseColor_BrownGrad 2
  m_Shader: {fileID: 4800000, guid: 5e34960f0ba10bf4a958dea9ffd0779d, type: 3}
  m_ShaderKeywords: 
  m_LightmapFlags: 4
  m_EnableInstancingVariants: 0
  m_DoubleSidedGI: 0
  m_CustomRenderQueue: -1
  stringTagMap: {}
  disabledShaderPasses: []
  m_SavedProperties:
    serializedVersion: 3
    m_TexEnvs:
    - _TextureSample0:
        m_Texture: {fileID: 2800000, guid: 1d5c3d2cbc9feb0408fe84cb6b965bce, type: 3}
        m_Scale: {x: 1, y: 1}
        m_Offset: {x: 0, y: 0}
    - _texcoord:
        m_Texture: {fileID: 0}
        m_Scale: {x: 1, y: 1}
        m_Offset: {x: 0, y: 0}
    m_Floats:
    - _BotMid: -0.5
    - _Height: -2
    - _Scale: 0.2
    - _TopMid: -1
    - __dirty: 1
    m_Colors:
    - _BotColor: {r: 0.7830189, g: 0.3999837, b: 0, a: 1}
    - _CentreColor: {r: 1, g: 0.50980395, b: 0, a: 1}
    - _Color0: {r: 0.735849, g: 0.42570102, b: 0.107600555, a: 1}
    - _EdgeColor: {r: 0.6784314, g: 0.34901962, b: 0, a: 1}
    - _MidColor: {r: 1, g: 0.51082253, b: 0, a: 1}
    - _TopColor: {r: 0.6792453, g: 0.34804305, b: 0, a: 1}
