%YAML 1.1
%TAG !u! tag:unity3d.com,2011:
--- !u!1 &5688711971314562152
GameObject:
  m_ObjectHideFlags: 0
  m_CorrespondingSourceObject: {fileID: 0}
  m_PrefabInstance: {fileID: 0}
  m_PrefabAsset: {fileID: 0}
  serializedVersion: 6
  m_Component:
  - component: {fileID: 2819293220722549898}
  - component: {fileID: 7354606617358824286}
  m_Layer: 0
  m_Name: TG_GameSet_0
  m_TagString: Untagged
  m_Icon: {fileID: 0}
  m_NavMeshLayer: 0
  m_StaticEditorFlags: 0
  m_IsActive: 1
--- !u!4 &2819293220722549898
Transform:
  m_ObjectHideFlags: 0
  m_CorrespondingSourceObject: {fileID: 0}
  m_PrefabInstance: {fileID: 0}
  m_PrefabAsset: {fileID: 0}
  m_GameObject: {fileID: 5688711971314562152}
  m_LocalRotation: {x: 0, y: 0, z: 0, w: 1}
  m_LocalPosition: {x: 0, y: 0, z: 0}
  m_LocalScale: {x: 1, y: 1, z: 1}
  m_Children: []
  m_Father: {fileID: 0}
  m_RootOrder: 0
  m_LocalEulerAnglesHint: {x: 0, y: 0, z: 0}
--- !u!114 &7354606617358824286
MonoBehaviour:
  m_ObjectHideFlags: 0
  m_CorrespondingSourceObject: {fileID: 0}
  m_PrefabInstance: {fileID: 0}
  m_PrefabAsset: {fileID: 0}
  m_GameObject: {fileID: 5688711971314562152}
  m_Enabled: 1
  m_EditorHideFlags: 0
  m_Script: {fileID: 11500000, guid: 63413c692e759414eb697f8f1e47096a, type: 3}
  m_Name: 
  m_EditorClassIdentifier: 
  description: Start. No input, just click next tile...
  gameStyle: 2
  setTiles:
  - {x: 13, y: 13}
  - {x: 4, y: 4}
  - {x: 0, y: 0}
  - {x: 1, y: 1}
  - {x: 7, y: 7}
  startTiles: 0d000000
  startIsNumerical: 01
  startValues: 02000000
  goalTiles: 07000000
  goalValues: 04000000
  goalsLock: 00
  goalKeyTiles: []
  lockedTiles: 0400000000000000
  lockedTValues: 0000000002000000
  lockedTTypes: 0600000005000000
  lockedOperatorTypes: 0000000004000000
  forbiddenNumbers: 
  forbiddenOperators: 
  enemies: 
  maximumMoves: 0
  targetMoves: {x: 3, y: 2, z: 1}
