%YAML 1.1
%TAG !u! tag:unity3d.com,2011:
--- !u!1 &3158788539400282498
GameObject:
  m_ObjectHideFlags: 0
  m_CorrespondingSourceObject: {fileID: 0}
  m_PrefabInstance: {fileID: 0}
  m_PrefabAsset: {fileID: 0}
  serializedVersion: 6
  m_Component:
  - component: {fileID: 4060737433913786431}
  - component: {fileID: 7742873963299062085}
  m_Layer: 0
  m_Name: ShooterGameSet_Hard_5
  m_TagString: Untagged
  m_Icon: {fileID: 0}
  m_NavMeshLayer: 0
  m_StaticEditorFlags: 0
  m_IsActive: 1
--- !u!4 &4060737433913786431
Transform:
  m_ObjectHideFlags: 0
  m_CorrespondingSourceObject: {fileID: 0}
  m_PrefabInstance: {fileID: 0}
  m_PrefabAsset: {fileID: 0}
  m_GameObject: {fileID: 3158788539400282498}
  m_LocalRotation: {x: 0, y: 0, z: 0, w: 1}
  m_LocalPosition: {x: 0, y: 0, z: 0}
  m_LocalScale: {x: 1, y: 1, z: 1}
  m_Children: []
  m_Father: {fileID: 0}
  m_RootOrder: 0
  m_LocalEulerAnglesHint: {x: 0, y: 0, z: 0}
--- !u!114 &7742873963299062085
MonoBehaviour:
  m_ObjectHideFlags: 0
  m_CorrespondingSourceObject: {fileID: 0}
  m_PrefabInstance: {fileID: 0}
  m_PrefabAsset: {fileID: 0}
  m_GameObject: {fileID: 3158788539400282498}
  m_Enabled: 1
  m_EditorHideFlags: 0
  m_Script: {fileID: 11500000, guid: 07ec244de3861a7429e6069649d217ba, type: 3}
  m_Name: 
  m_EditorClassIdentifier: 
  SetDescription: Subtract two, numbers 0-20
  targetPrefab: {fileID: 5037767404113794547, guid: 4ef5cf9943221294a9286bcb427fb19f,
    type: 3}
  hitPrefab: {fileID: 3125719053869832488, guid: f04133ce3247cb145ab00fc1e8751c2a,
    type: 3}
  correctHitPrefab: {fileID: 3125719053869832488, guid: e0d14081dce7c6848a2411cb89d81315,
    type: 3}
  wrongHitPrefab: {fileID: 3125719053869832488, guid: 3d2c12621b5c8b94cab42a940b25d445,
    type: 3}
  bonusHitPrefab: {fileID: 3125719053869832488, guid: e7be51e1025930840bc180e139620aae,
    type: 3}
  operationType: 5
  spawnerPattern: 0
  spawnerCount: 6
  spawnerRadius: 7
  questionText: 
  correctMin: 0
  correctMax: 20
  alternativeMin: 0
  alternativeMax: 20
  rightWrongRatio: 0.3
  numberOfCorrects: 8
  roundTime: 120
  responseTime: 0
  targetBirthInterval: 5.88
  randomRate: 1.77
  wrongHitPenalty: -2
  bonusChance: 0.05
  bonusTimeRange: {x: 5, y: 10}
  spawnersRotation: {x: 0, y: 1, z: 0}
  spawnersRotMult: 10
  targetsRotation: {x: 0, y: 0, z: 0}
  targetsRotMult: 0
  rewards: {x: 10, y: 7, z: 5}
