# ProBuilder 4.0.5
# https://unity3d.com/unity/features/worldbuilding/probuilder
# 25.09.2020 10.05.15

mtllib ./Bridge_2X1_Subdivided.mtl
o Bridge_2X1_Subdivided

g Bridge_2X1_mesh
v -0.5 0.045 0.5
v -0.5 -0.005 0.5
v -0.5 -0.005 -0.5
v -0.5 0.045 -0.5
v 1.5 0.045 -0.5
v 1.5 -0.005 -0.5
v 1.5 -0.005 0.5
v 1.5 0.045 0.5
v 0.5 -0.005 0.5
v 0.5 0.045 0.5
v 0.5 -0.005 -0.5
v 0.5 0.045 -0.5

vt 0.9999999 0.05354636
vt 1 0
vt 0 0
vt -5.960464E-08 0.05354636
vt 0.5 0
vt 0.4999999 0.05354636
vt 2.980232E-08 1
vt 1 1

vn -1 0 0
vn 1 0 0
vn 0 0 1
vn 0 0 -1
vn 0 1 0
vn 0 -1 0

g Bridge_2X1_mesh
usemtl MDC_MGItem_Initial
f 4/4/1 3/3/1 2/2/1 1/1/1
f 8/4/2 7/3/2 6/2/2 5/1/2
f 8/1/3 10/6/3 9/5/3 7/2/3
f 10/6/3 1/4/3 2/3/3 9/5/3
f 3/2/4 4/1/4 12/6/4 11/5/4
f 11/5/4 12/6/4 5/4/4 6/3/4
f 10/8/5 8/7/5 5/3/5 12/2/5
f 1/8/5 10/7/5 12/3/5 4/2/5
f 6/2/6 7/8/6 9/7/6 11/3/6
f 11/3/6 9/2/6 2/8/6 3/7/6

