# ProBuilder 4.0.5
# https://unity3d.com/unity/features/worldbuilding/probuilder
# 25.09.2020 10.06.10

mtllib ./Bridge_3X1_Subdivided.mtl
o Bridge_3X1_Subdivided

g Bridge_3X1_mesh
v -1.5 0.045 0.5
v -1.5 -0.005 0.5
v -1.5 -0.005 -0.5
v -1.5 0.045 -0.5
v 1.5 0.045 -0.5
v 1.5 -0.005 -0.5
v 1.5 -0.005 0.5
v 1.5 0.045 0.5
v 0.4999999 0.045 -0.5
v 0.4999999 0.045 0.5
v 0.4999999 -0.005 -0.5
v 0.4999999 -0.005 0.5
v -0.5 -0.005 0.5
v -0.5 0.045 0.5
v -0.5 0.045 -0.5
v -0.5 -0.005 -0.5

vt 0.9999999 0.05354636
vt 1 0
vt 0 0
vt -5.960464E-08 0.05354636
vt 0 1
vt 1 1
vt 0.6666666 0.05354636
vt 0.6666666 0
vt 0.3333333 0
vt 0.3333333 0.05354636
vt 0.9999999 1
vt 0.9999999 0

vn -1 0 0
vn 1 0 0
vn 0 1 0
vn 0 0 -1
vn 0 -1 0
vn 0 0 1

g Bridge_3X1_mesh
usemtl MDC_MGItem_GreenSelect
f 4/4/1 3/3/1 2/2/1 1/1/1
f 8/4/2 7/3/2 6/2/2 5/1/2
f 10/6/3 8/5/3 5/3/3 9/2/3
f 11/3/4 9/4/4 5/4/4 6/3/4
f 6/2/5 7/6/5 12/5/5 11/3/5
f 8/1/6 10/7/6 12/8/6 7/2/6
f 10/7/6 14/10/6 13/9/6 12/8/6
f 14/10/6 1/4/6 2/3/6 13/9/6
f 1/6/3 14/5/3 15/3/3 4/2/3
f 14/6/3 10/5/3 9/3/3 15/2/3
f 16/2/5 13/6/5 2/5/5 3/3/5
f 11/12/5 12/11/5 13/5/5 16/3/5
f 16/3/4 15/4/4 9/4/4 11/3/4
f 3/2/4 4/1/4 15/4/4 16/3/4

