# This file uses centimeters as units for non-parametric coordinates.

mtllib Box_2_1_2.mtl
g default
v 0.500003 0.000000 1.499999
v -1.499997 0.000000 1.499999
v 0.500003 1.000000 1.499999
v -1.499997 1.000000 1.499999
v -1.499997 0.000000 -0.500001
v -1.499997 1.000000 -0.500001
v 0.500003 0.000000 -0.500001
v 0.500003 1.000000 -0.500001
vt 1.000003 0.500000
vt -0.999997 0.500000
vt -0.999997 -0.500000
vt 1.000003 -0.500000
vt 0.999999 0.500000
vt -1.000001 0.500000
vt -1.000001 -0.500000
vt 0.999999 -0.500000
vt -1.000003 -1.000001
vt 0.999997 -1.000001
vt 0.999997 0.999999
vt -1.000003 0.999999
vt 1.000003 0.999999
vt -0.999997 0.999999
vt -0.999997 -1.000001
vt 1.000003 -1.000001
vt 0.999999 0.500000
vt -1.000001 0.500000
vt -1.000001 -0.500000
vt 0.999999 -0.500000
vt 1.000003 0.500000
vt -0.999997 0.500000
vt -0.999997 -0.500000
vt 1.000003 -0.500000
vn 0.000000 0.000000 1.000000
vn 0.000000 0.000000 1.000000
vn 0.000000 0.000000 1.000000
vn 0.000000 0.000000 1.000000
vn -1.000000 0.000000 0.000000
vn -1.000000 0.000000 0.000000
vn -1.000000 0.000000 0.000000
vn -1.000000 0.000000 0.000000
vn 0.000000 0.000000 -1.000000
vn 0.000000 0.000000 -1.000000
vn 0.000000 0.000000 -1.000000
vn 0.000000 0.000000 -1.000000
vn 1.000000 0.000000 0.000000
vn 1.000000 0.000000 0.000000
vn 1.000000 0.000000 0.000000
vn 1.000000 0.000000 0.000000
vn 0.000000 1.000000 0.000000
vn 0.000000 1.000000 0.000000
vn 0.000000 1.000000 0.000000
vn 0.000000 1.000000 0.000000
vn 0.000000 -1.000000 0.000000
vn 0.000000 -1.000000 0.000000
vn 0.000000 -1.000000 0.000000
vn 0.000000 -1.000000 0.000000
s off
g Box_2_1_2
usemtl Cube212:MDC_MGItem_Blue
f 3/1/1 4/2/2 2/3/3 1/4/4
f 4/5/5 6/6/6 5/7/7 2/8/8
f 6/17/9 8/18/10 7/19/11 5/20/12
f 8/21/13 3/22/14 1/23/15 7/24/16
f 8/9/17 6/10/18 4/11/19 3/12/20
f 1/13/21 2/14/22 5/15/23 7/16/24
