# This file uses centimeters as units for non-parametric coordinates.

mtllib Stairs.mtl
g default
v -0.500000 0.000000 -0.500000
v 0.500000 0.000000 -0.500000
v -0.500000 0.125000 -0.500000
v 0.500000 0.125000 -0.500000
v -0.500000 0.125000 -0.250000
v 0.500000 0.125000 -0.250000
v -0.500000 0.250000 -0.250000
v 0.500000 0.250000 -0.250000
v -0.500000 0.250000 0.000000
v 0.500000 0.250000 0.000000
v -0.500000 0.375000 0.000000
v 0.500000 0.375000 0.000000
v -0.500000 0.375000 0.250000
v 0.500000 0.375000 0.250000
v -0.500000 0.500000 0.250000
v 0.500000 0.500000 0.250000
v -0.500000 0.500000 0.500000
v 0.500000 0.500000 0.500000
v -0.500000 0.625000 0.500000
v 0.500000 0.625000 0.500000
v -0.500000 0.625000 0.750000
v 0.500000 0.625000 0.750000
v -0.500000 0.750000 0.750000
v 0.500000 0.750000 0.750000
v -0.500000 0.750000 1.000000
v 0.500000 0.750000 1.000000
v -0.500000 0.875000 1.000000
v 0.500000 0.875000 1.000000
v -0.500000 0.875000 1.250000
v 0.500000 0.875000 1.250000
v -0.500000 1.000000 1.250000
v 0.500000 1.000000 1.250000
v -0.500000 1.000000 1.500000
v 0.500000 1.000000 1.500000
v 0.500000 0.000000 -0.250000
v 0.500000 0.000000 0.000000
v 0.500000 0.000000 0.250000
v 0.500000 0.000000 0.500000
v 0.500000 0.000000 0.750000
v 0.500000 0.000000 1.000000
v 0.500000 0.000000 1.250000
v 0.500000 0.000000 1.500000
v -0.500000 0.000000 -0.250000
v -0.500000 0.000000 0.000000
v -0.500000 0.000000 0.250000
v -0.500000 0.000000 0.500000
v -0.500000 0.000000 0.750000
v -0.500000 0.000000 1.000000
v -0.500000 0.000000 1.250000
v -0.500000 0.000000 1.500000
vt 0.750000 -0.375000
vt 0.750000 -0.250000
vt 0.500000 -0.250000
vt 0.500000 -0.125000
vt 0.250000 -0.125000
vt 0.250000 0.000000
vt 0.000000 0.000000
vt 0.000000 0.125000
vt -0.250000 0.125000
vt -0.250000 0.250000
vt -0.500000 0.250000
vt -0.500000 0.375000
vt -0.750000 0.375000
vt -0.750000 0.500000
vt -1.000000 0.500000
vt -0.500000 -0.250000
vt -0.750000 -0.250000
vt -0.750000 -0.375000
vt -0.250000 -0.125000
vt -0.500000 -0.125000
vt -0.250000 0.000000
vt 0.250000 0.125000
vt 0.500000 0.250000
vt 0.250000 0.250000
vt 0.750000 0.375000
vt 0.500000 0.375000
vt 1.000000 0.500000
vt 0.750000 0.500000
vt -0.500000 -0.375000
vt -0.500000 -0.500000
vt 0.500000 -0.500000
vt 0.500000 -0.375000
vt -0.500000 -0.750000
vt -0.500000 -1.000000
vt 0.500000 -1.000000
vt 0.500000 -0.750000
vt -0.500000 0.000000
vt 0.500000 0.000000
vt -0.500000 0.125000
vt 0.500000 0.125000
vt -0.500000 0.500000
vt 0.500000 0.500000
vt -0.500000 0.750000
vt 0.500000 0.750000
vt -0.500000 1.000000
vt 0.500000 1.000000
vt 0.750000 -0.500000
vt 1.000000 -0.500000
vt 1.000000 -0.375000
vt 0.250000 -0.500000
vt 0.000000 -0.500000
vt -0.250000 -0.500000
vt -0.750000 -0.500000
vt -1.000000 -0.500000
vt -1.000000 -0.375000
vt 0.000000 0.000000
vt 0.000000 0.125000
vt 0.000000 0.000000
vt -0.500000 -0.250000
vt -0.500000 -0.375000
vt 0.500000 -0.375000
vt 0.500000 -0.375000
vt 0.500000 -0.250000
vt -0.500000 -0.250000
vt -0.500000 -0.500000
vt -0.500000 -0.750000
vt 0.500000 -0.750000
vt 0.500000 -0.750000
vt 0.500000 -0.500000
vt -0.500000 -0.500000
vt -0.500000 -0.125000
vt -0.500000 -0.250000
vt 0.500000 -0.250000
vt 0.500000 -0.250000
vt 0.500000 -0.125000
vt -0.500000 -0.125000
vt -0.500000 -0.250000
vt -0.500000 -0.500000
vt 0.500000 -0.500000
vt 0.500000 -0.500000
vt 0.500000 -0.250000
vt -0.500000 -0.250000
vt -0.500000 -0.125000
vt 0.500000 -0.125000
vt 0.500000 -0.125000
vt -0.500000 0.000000
vt -0.500000 -0.250000
vt 0.500000 -0.250000
vt 0.500000 -0.250000
vt 0.500000 0.000000
vt -0.500000 0.000000
vt -0.500000 0.000000
vt 0.500000 0.000000
vt 0.500000 0.000000
vt -0.500000 0.250000
vt -0.500000 0.000000
vt 0.500000 0.000000
vt 0.500000 0.000000
vt 0.500000 0.250000
vt -0.500000 0.250000
vt -0.500000 0.250000
vt -0.500000 0.125000
vt 0.500000 0.125000
vt 0.500000 0.125000
vt 0.500000 0.250000
vt -0.500000 0.250000
vt -0.500000 0.250000
vt 0.500000 0.250000
vt 0.500000 0.250000
vt -0.500000 0.500000
vt 0.500000 0.500000
vt 0.500000 0.500000
vt -0.500000 0.500000
vt -0.500000 0.375000
vt 0.500000 0.375000
vt 0.500000 0.375000
vt 0.500000 0.500000
vt -0.500000 0.500000
vt -0.500000 0.750000
vt 0.500000 0.750000
vt 0.500000 0.750000
vt 0.500000 -0.500000
vt 0.500000 -0.500000
vt 0.500000 -0.500000
vt -0.500000 -0.500000
vt -0.500000 -0.500000
vt -0.500000 -0.500000
vt -1.000000 -0.500000
vt -0.750000 -0.500000
vt -0.750000 -0.500000
vt -0.750000 -0.500000
vt -0.500000 -0.500000
vt -0.500000 -0.500000
vt -0.500000 -0.500000
vt -0.250000 -0.500000
vt -0.250000 -0.500000
vt -0.250000 -0.500000
vt 0.000000 -0.500000
vt 0.000000 -0.500000
vt 0.000000 0.000000
vt 0.000000 0.000000
vt 0.000000 -0.500000
vt 0.250000 -0.500000
vt 0.250000 -0.500000
vt 0.000000 0.000000
vt 0.250000 -0.500000
vt 0.500000 -0.500000
vt 0.500000 -0.500000
vt 0.500000 -0.500000
vt 0.750000 -0.500000
vt 0.750000 -0.500000
vt 0.750000 -0.500000
vt 1.000000 -0.500000
vt 1.000000 -0.500000
vt -0.500000 0.500000
vt -0.500000 -0.500000
vt 0.500000 -0.500000
vt 0.500000 -0.500000
vt 0.500000 0.500000
vt -0.500000 0.500000
vt 0.500000 -0.750000
vt -0.500000 -0.750000
vt -0.500000 -1.000000
vt -0.500000 -1.000000
vt 0.500000 -1.000000
vt 0.500000 -0.750000
vt 0.500000 -0.500000
vt -0.500000 -0.500000
vt -0.500000 -0.750000
vt -0.500000 -0.750000
vt 0.500000 -0.750000
vt 0.500000 -0.500000
vt 0.500000 -0.250000
vt -0.500000 -0.250000
vt -0.500000 -0.500000
vt -0.500000 -0.500000
vt 0.500000 -0.500000
vt 0.500000 -0.250000
vt 0.500000 0.000000
vt -0.500000 0.000000
vt -0.500000 -0.250000
vt -0.500000 -0.250000
vt 0.500000 -0.250000
vt 0.500000 0.000000
vt 0.500000 0.250000
vt -0.500000 0.250000
vt -0.500000 0.000000
vt -0.500000 0.000000
vt 0.500000 0.000000
vt 0.500000 0.250000
vt 0.500000 0.500000
vt -0.500000 0.500000
vt -0.500000 0.250000
vt -0.500000 0.250000
vt 0.500000 0.250000
vt 0.500000 0.500000
vt 0.500000 0.750000
vt -0.500000 0.750000
vt -0.500000 0.500000
vt -0.500000 0.500000
vt 0.500000 0.500000
vt 0.500000 0.750000
vt 0.500000 1.000000
vt -0.500000 1.000000
vt -0.500000 0.750000
vt -0.500000 0.750000
vt 0.500000 0.750000
vt 0.500000 1.000000
vn 1.000000 0.000000 0.000000
vn 1.000000 0.000000 0.000000
vn 1.000000 0.000000 0.000000
vn 1.000000 0.000000 0.000000
vn 1.000000 0.000000 0.000000
vn 1.000000 0.000000 0.000000
vn 1.000000 0.000000 0.000000
vn 1.000000 0.000000 0.000000
vn 1.000000 0.000000 0.000000
vn 1.000000 0.000000 0.000000
vn 1.000000 0.000000 0.000000
vn 1.000000 0.000000 0.000000
vn 1.000000 0.000000 0.000000
vn 1.000000 0.000000 0.000000
vn 1.000000 0.000000 0.000000
vn 1.000000 0.000000 0.000000
vn 1.000000 0.000000 0.000000
vn 1.000000 0.000000 0.000000
vn 1.000000 0.000000 0.000000
vn 1.000000 0.000000 0.000000
vn 1.000000 0.000000 0.000000
vn -1.000000 0.000000 0.000000
vn -1.000000 0.000000 0.000000
vn -1.000000 0.000000 0.000000
vn -1.000000 0.000000 0.000000
vn -1.000000 0.000000 0.000000
vn -1.000000 0.000000 0.000000
vn -1.000000 0.000000 0.000000
vn -1.000000 0.000000 0.000000
vn -1.000000 0.000000 0.000000
vn -1.000000 0.000000 0.000000
vn -1.000000 0.000000 0.000000
vn -1.000000 0.000000 0.000000
vn -1.000000 0.000000 0.000000
vn -1.000000 0.000000 0.000000
vn -1.000000 0.000000 0.000000
vn -1.000000 0.000000 0.000000
vn -1.000000 0.000000 0.000000
vn -1.000000 0.000000 0.000000
vn -1.000000 0.000000 0.000000
vn -1.000000 0.000000 0.000000
vn -1.000000 0.000000 0.000000
vn 0.000000 0.000000 -1.000000
vn 0.000000 0.000000 -1.000000
vn 0.000000 0.000000 -1.000000
vn 0.000000 0.000000 -1.000000
vn 0.000000 0.000000 -1.000000
vn 0.000000 0.000000 -1.000000
vn 0.000000 1.000000 0.000000
vn 0.000000 1.000000 0.000000
vn 0.000000 1.000000 0.000000
vn 0.000000 1.000000 0.000000
vn 0.000000 1.000000 0.000000
vn 0.000000 1.000000 0.000000
vn 0.000000 0.000000 -1.000000
vn 0.000000 0.000000 -1.000000
vn 0.000000 0.000000 -1.000000
vn 0.000000 0.000000 -1.000000
vn 0.000000 0.000000 -1.000000
vn 0.000000 0.000000 -1.000000
vn 0.000000 1.000000 0.000000
vn 0.000000 1.000000 0.000000
vn 0.000000 1.000000 0.000000
vn 0.000000 1.000000 0.000000
vn 0.000000 1.000000 0.000000
vn 0.000000 1.000000 0.000000
vn 0.000000 0.000000 -1.000000
vn 0.000000 0.000000 -1.000000
vn 0.000000 0.000000 -1.000000
vn 0.000000 0.000000 -1.000000
vn 0.000000 0.000000 -1.000000
vn 0.000000 0.000000 -1.000000
vn 0.000000 1.000000 0.000000
vn 0.000000 1.000000 0.000000
vn 0.000000 1.000000 0.000000
vn 0.000000 1.000000 0.000000
vn 0.000000 1.000000 0.000000
vn 0.000000 1.000000 0.000000
vn 0.000000 0.000000 -1.000000
vn 0.000000 0.000000 -1.000000
vn 0.000000 0.000000 -1.000000
vn 0.000000 0.000000 -1.000000
vn 0.000000 0.000000 -1.000000
vn 0.000000 0.000000 -1.000000
vn 0.000000 1.000000 0.000000
vn 0.000000 1.000000 0.000000
vn 0.000000 1.000000 0.000000
vn 0.000000 1.000000 0.000000
vn 0.000000 1.000000 0.000000
vn 0.000000 1.000000 0.000000
vn 0.000000 0.000000 -1.000000
vn 0.000000 0.000000 -1.000000
vn 0.000000 0.000000 -1.000000
vn 0.000000 0.000000 -1.000000
vn 0.000000 0.000000 -1.000000
vn 0.000000 0.000000 -1.000000
vn 0.000000 1.000000 0.000000
vn 0.000000 1.000000 0.000000
vn 0.000000 1.000000 0.000000
vn 0.000000 1.000000 0.000000
vn 0.000000 1.000000 0.000000
vn 0.000000 1.000000 0.000000
vn 0.000000 0.000000 -1.000000
vn 0.000000 0.000000 -1.000000
vn 0.000000 0.000000 -1.000000
vn 0.000000 0.000000 -1.000000
vn 0.000000 0.000000 -1.000000
vn 0.000000 0.000000 -1.000000
vn 0.000000 1.000000 0.000000
vn 0.000000 1.000000 0.000000
vn 0.000000 1.000000 0.000000
vn 0.000000 1.000000 0.000000
vn 0.000000 1.000000 0.000000
vn 0.000000 1.000000 0.000000
vn 0.000000 0.000000 -1.000000
vn 0.000000 0.000000 -1.000000
vn 0.000000 0.000000 -1.000000
vn 0.000000 0.000000 -1.000000
vn 0.000000 0.000000 -1.000000
vn 0.000000 0.000000 -1.000000
vn 0.000000 1.000000 0.000000
vn 0.000000 1.000000 0.000000
vn 0.000000 1.000000 0.000000
vn 0.000000 1.000000 0.000000
vn 0.000000 1.000000 0.000000
vn 0.000000 1.000000 0.000000
vn 0.000000 0.000000 -1.000000
vn 0.000000 0.000000 -1.000000
vn 0.000000 0.000000 -1.000000
vn 0.000000 0.000000 -1.000000
vn 0.000000 0.000000 -1.000000
vn 0.000000 0.000000 -1.000000
vn 0.000000 1.000000 0.000000
vn 0.000000 1.000000 0.000000
vn 0.000000 1.000000 0.000000
vn 0.000000 1.000000 0.000000
vn 0.000000 1.000000 0.000000
vn 0.000000 1.000000 0.000000
vn 1.000000 0.000000 0.000000
vn 1.000000 0.000000 0.000000
vn 1.000000 0.000000 0.000000
vn 1.000000 0.000000 0.000000
vn 1.000000 0.000000 0.000000
vn 1.000000 0.000000 0.000000
vn 1.000000 0.000000 0.000000
vn 1.000000 0.000000 0.000000
vn 1.000000 0.000000 0.000000
vn 1.000000 0.000000 0.000000
vn 1.000000 0.000000 0.000000
vn 1.000000 0.000000 0.000000
vn 1.000000 0.000000 0.000000
vn 1.000000 0.000000 0.000000
vn 1.000000 0.000000 0.000000
vn 1.000000 0.000000 0.000000
vn 1.000000 0.000000 0.000000
vn 1.000000 0.000000 0.000000
vn 1.000000 0.000000 0.000000
vn 1.000000 0.000000 0.000000
vn 1.000000 0.000000 0.000000
vn 1.000000 0.000000 0.000000
vn 1.000000 0.000000 0.000000
vn 1.000000 0.000000 0.000000
vn 1.000000 0.000000 0.000000
vn 1.000000 0.000000 0.000000
vn 1.000000 0.000000 0.000000
vn 1.000000 0.000000 0.000000
vn 1.000000 0.000000 0.000000
vn 1.000000 0.000000 0.000000
vn 1.000000 0.000000 0.000000
vn 1.000000 0.000000 0.000000
vn 1.000000 0.000000 0.000000
vn 1.000000 0.000000 0.000000
vn 1.000000 0.000000 0.000000
vn 1.000000 0.000000 0.000000
vn 1.000000 0.000000 0.000000
vn 1.000000 0.000000 0.000000
vn 1.000000 0.000000 0.000000
vn 1.000000 0.000000 0.000000
vn 1.000000 0.000000 0.000000
vn 1.000000 0.000000 0.000000
vn 1.000000 0.000000 0.000000
vn 1.000000 0.000000 0.000000
vn 1.000000 0.000000 0.000000
vn 1.000000 0.000000 0.000000
vn 1.000000 0.000000 0.000000
vn 1.000000 0.000000 0.000000
vn -1.000000 0.000000 0.000000
vn -1.000000 0.000000 0.000000
vn -1.000000 0.000000 0.000000
vn -1.000000 0.000000 0.000000
vn -1.000000 0.000000 0.000000
vn -1.000000 0.000000 0.000000
vn -1.000000 0.000000 0.000000
vn -1.000000 0.000000 0.000000
vn -1.000000 0.000000 0.000000
vn -1.000000 0.000000 0.000000
vn -1.000000 0.000000 0.000000
vn -1.000000 0.000000 0.000000
vn -1.000000 0.000000 0.000000
vn -1.000000 0.000000 0.000000
vn -1.000000 0.000000 0.000000
vn -1.000000 0.000000 0.000000
vn -1.000000 0.000000 0.000000
vn -1.000000 0.000000 0.000000
vn -1.000000 0.000000 0.000000
vn -1.000000 0.000000 0.000000
vn -1.000000 0.000000 0.000000
vn -1.000000 0.000000 0.000000
vn -1.000000 0.000000 0.000000
vn -1.000000 0.000000 0.000000
vn -1.000000 0.000000 0.000000
vn -1.000000 0.000000 0.000000
vn -1.000000 0.000000 0.000000
vn -1.000000 0.000000 0.000000
vn -1.000000 0.000000 0.000000
vn -1.000000 0.000000 0.000000
vn -1.000000 0.000000 0.000000
vn -1.000000 0.000000 0.000000
vn -1.000000 0.000000 0.000000
vn -1.000000 0.000000 0.000000
vn -1.000000 0.000000 0.000000
vn -1.000000 0.000000 0.000000
vn -1.000000 0.000000 0.000000
vn -1.000000 0.000000 0.000000
vn -1.000000 0.000000 0.000000
vn -1.000000 0.000000 0.000000
vn -1.000000 0.000000 0.000000
vn -1.000000 0.000000 0.000000
vn -1.000000 0.000000 0.000000
vn -1.000000 0.000000 0.000000
vn -1.000000 0.000000 0.000000
vn -1.000000 0.000000 0.000000
vn -1.000000 0.000000 0.000000
vn -1.000000 0.000000 0.000000
vn 0.000000 0.000000 1.000000
vn 0.000000 0.000000 1.000000
vn 0.000000 0.000000 1.000000
vn 0.000000 0.000000 1.000000
vn 0.000000 0.000000 1.000000
vn 0.000000 0.000000 1.000000
vn 0.000000 -1.000000 0.000000
vn 0.000000 -1.000000 0.000000
vn 0.000000 -1.000000 0.000000
vn 0.000000 -1.000000 0.000000
vn 0.000000 -1.000000 0.000000
vn 0.000000 -1.000000 0.000000
vn 0.000000 -1.000000 0.000000
vn 0.000000 -1.000000 0.000000
vn 0.000000 -1.000000 0.000000
vn 0.000000 -1.000000 0.000000
vn 0.000000 -1.000000 0.000000
vn 0.000000 -1.000000 0.000000
vn 0.000000 -1.000000 0.000000
vn 0.000000 -1.000000 0.000000
vn 0.000000 -1.000000 0.000000
vn 0.000000 -1.000000 0.000000
vn 0.000000 -1.000000 0.000000
vn 0.000000 -1.000000 0.000000
vn 0.000000 -1.000000 0.000000
vn 0.000000 -1.000000 0.000000
vn 0.000000 -1.000000 0.000000
vn 0.000000 -1.000000 0.000000
vn 0.000000 -1.000000 0.000000
vn 0.000000 -1.000000 0.000000
vn 0.000000 -1.000000 0.000000
vn 0.000000 -1.000000 0.000000
vn 0.000000 -1.000000 0.000000
vn 0.000000 -1.000000 0.000000
vn 0.000000 -1.000000 0.000000
vn 0.000000 -1.000000 0.000000
vn 0.000000 -1.000000 0.000000
vn 0.000000 -1.000000 0.000000
vn 0.000000 -1.000000 0.000000
vn 0.000000 -1.000000 0.000000
vn 0.000000 -1.000000 0.000000
vn 0.000000 -1.000000 0.000000
vn 0.000000 -1.000000 0.000000
vn 0.000000 -1.000000 0.000000
vn 0.000000 -1.000000 0.000000
vn 0.000000 -1.000000 0.000000
vn 0.000000 -1.000000 0.000000
vn 0.000000 -1.000000 0.000000
vn 0.000000 -1.000000 0.000000
vn 0.000000 -1.000000 0.000000
vn 0.000000 -1.000000 0.000000
vn 0.000000 -1.000000 0.000000
vn 0.000000 -1.000000 0.000000
vn 0.000000 -1.000000 0.000000
s off
g Stairs
usemtl StairsFull:ProBuilderDefault
f 6/1/1 8/2/2 10/3/3
f 10/3/4 12/4/5 14/5/6
f 14/5/7 16/6/8 18/7/9
f 18/7/10 20/8/11 22/9/12
f 22/9/13 24/10/14 26/11/15
f 26/11/16 28/12/17 30/13/18
f 30/13/19 32/14/20 34/15/21
f 9/16/22 7/17/23 5/18/24
f 13/19/25 11/20/26 9/16/27
f 17/56/28 15/21/29 13/19/30
f 21/22/31 19/57/32 17/58/33
f 25/23/34 23/24/35 21/22/36
f 29/25/37 27/26/38 25/23/39
f 33/27/40 31/28/41 29/25/42
f 4/29/43 2/30/44 1/31/45
f 1/31/46 3/32/47 4/29/48
f 6/33/49 4/34/50 3/35/51
f 3/35/52 5/36/53 6/33/54
f 8/59/55 6/60/56 5/61/57
f 5/62/58 7/63/59 8/64/60
f 10/65/61 8/66/62 7/67/63
f 7/68/64 9/69/65 10/70/66
f 12/71/67 10/72/68 9/73/69
f 9/74/70 11/75/71 12/76/72
f 14/77/73 12/78/74 11/79/75
f 11/80/76 13/81/77 14/82/78
f 16/37/79 14/83/80 13/84/81
f 13/85/82 15/38/83 16/37/84
f 18/86/85 16/87/86 15/88/87
f 15/89/88 17/90/89 18/91/90
f 20/39/91 18/92/92 17/93/93
f 17/94/94 19/40/95 20/39/96
f 22/95/97 20/96/98 19/97/99
f 19/98/100 21/99/101 22/100/102
f 24/101/103 22/102/104 21/103/105
f 21/104/106 23/105/107 24/106/108
f 26/41/109 24/107/110 23/108/111
f 23/109/112 25/42/113 26/41/114
f 28/12/115 26/11/116 25/23/117
f 25/23/118 27/26/119 28/12/120
f 30/43/121 28/110/122 27/111/123
f 27/112/124 29/44/125 30/43/126
f 32/113/127 30/114/128 29/115/129
f 29/116/130 31/117/131 32/118/132
f 34/45/133 32/119/134 31/120/135
f 31/121/136 33/46/137 34/45/138
f 6/1/139 35/47/140 2/48/141
f 2/48/142 4/49/143 6/1/144
f 10/3/145 36/122/146 35/47/147
f 35/47/148 6/1/149 10/3/150
f 14/5/151 37/50/152 36/123/153
f 36/124/154 10/3/155 14/5/156
f 18/7/157 38/51/158 37/50/159
f 37/50/160 14/5/161 18/7/162
f 22/9/163 39/52/164 38/51/165
f 38/51/166 18/7/167 22/9/168
f 26/11/169 40/125/170 39/52/171
f 39/52/172 22/9/173 26/11/174
f 30/13/175 41/53/176 40/126/177
f 40/127/178 26/11/179 30/13/180
f 34/15/181 42/54/182 41/53/183
f 41/53/184 30/13/185 34/15/186
f 3/55/187 1/128/188 43/129/189
f 43/130/190 5/18/191 3/55/192
f 5/18/193 43/131/194 44/132/195
f 44/133/196 9/16/197 5/18/198
f 9/16/199 44/134/200 45/135/201
f 45/136/202 13/19/203 9/16/204
f 13/19/205 45/137/206 46/138/207
f 46/139/208 17/140/209 13/19/210
f 17/141/211 46/142/212 47/143/213
f 47/144/214 21/22/215 17/145/216
f 21/22/217 47/146/218 48/147/219
f 48/148/220 25/23/221 21/22/222
f 25/23/223 48/149/224 49/150/225
f 49/151/226 29/25/227 25/23/228
f 29/25/229 49/152/230 50/153/231
f 50/154/232 33/27/233 29/25/234
f 33/155/235 50/156/236 42/157/237
f 42/158/238 34/159/239 33/160/240
f 35/161/241 43/162/242 1/163/243
f 1/164/244 2/165/245 35/166/246
f 36/167/247 44/168/248 43/169/249
f 43/170/250 35/171/251 36/172/252
f 37/173/253 45/174/254 44/175/255
f 44/176/256 36/177/257 37/178/258
f 38/179/259 46/180/260 45/181/261
f 45/182/262 37/183/263 38/184/264
f 39/185/265 47/186/266 46/187/267
f 46/188/268 38/189/269 39/190/270
f 40/191/271 48/192/272 47/193/273
f 47/194/274 39/195/275 40/196/276
f 41/197/277 49/198/278 48/199/279
f 48/200/280 40/201/281 41/202/282
f 42/203/283 50/204/284 49/205/285
f 49/206/286 41/207/287 42/208/288
