# This file uses centimeters as units for non-parametric coordinates.

mtllib 12X_Sphere.mtl
g default
v 0.224144 -0.965926 -0.129410
v 0.129410 -0.965926 -0.224144
v 0.000000 -0.965926 -0.258819
v -0.129410 -0.965926 -0.224144
v -0.224144 -0.965926 -0.129410
v -0.258819 -0.965926 0.000000
v -0.224144 -0.965926 0.129410
v -0.129410 -0.965926 0.224144
v 0.000000 -0.965926 0.258819
v 0.129410 -0.965926 0.224144
v 0.224144 -0.965926 0.129410
v 0.258819 -0.965926 0.000000
v 0.433013 -0.866025 -0.250000
v 0.250000 -0.866025 -0.433013
v 0.000000 -0.866025 -0.500000
v -0.250000 -0.866025 -0.433013
v -0.433013 -0.866025 -0.250000
v -0.500000 -0.866025 0.000000
v -0.433013 -0.866025 0.250000
v -0.250000 -0.866025 0.433013
v 0.000000 -0.866025 0.500000
v 0.250000 -0.866025 0.433013
v 0.433013 -0.866025 0.250000
v 0.500000 -0.866025 0.000000
v 0.612372 -0.707107 -0.353553
v 0.353553 -0.707107 -0.612372
v 0.000000 -0.707107 -0.707107
v -0.353553 -0.707107 -0.612372
v -0.612372 -0.707107 -0.353553
v -0.707107 -0.707107 0.000000
v -0.612372 -0.707107 0.353553
v -0.353553 -0.707107 0.612372
v 0.000000 -0.707107 0.707107
v 0.353553 -0.707107 0.612372
v 0.612372 -0.707107 0.353553
v 0.707107 -0.707107 0.000000
v 0.750000 -0.500000 -0.433013
v 0.433013 -0.500000 -0.750000
v 0.000000 -0.500000 -0.866025
v -0.433013 -0.500000 -0.750000
v -0.750000 -0.500000 -0.433013
v -0.866025 -0.500000 0.000000
v -0.750000 -0.500000 0.433013
v -0.433013 -0.500000 0.750000
v 0.000000 -0.500000 0.866025
v 0.433013 -0.500000 0.750000
v 0.750000 -0.500000 0.433013
v 0.866025 -0.500000 0.000000
v 0.836516 -0.258819 -0.482963
v 0.482963 -0.258819 -0.836516
v 0.000000 -0.258819 -0.965926
v -0.482963 -0.258819 -0.836516
v -0.836516 -0.258819 -0.482963
v -0.965926 -0.258819 0.000000
v -0.836516 -0.258819 0.482963
v -0.482963 -0.258819 0.836516
v 0.000000 -0.258819 0.965926
v 0.482963 -0.258819 0.836516
v 0.836516 -0.258819 0.482963
v 0.965926 -0.258819 0.000000
v 0.866025 0.000000 -0.500000
v 0.500000 0.000000 -0.866025
v 0.000000 0.000000 -1.000000
v -0.500000 0.000000 -0.866025
v -0.866025 0.000000 -0.500000
v -1.000000 0.000000 0.000000
v -0.866025 0.000000 0.500000
v -0.500000 0.000000 0.866025
v 0.000000 0.000000 1.000000
v 0.500000 0.000000 0.866025
v 0.866025 0.000000 0.500000
v 1.000000 0.000000 0.000000
v 0.836516 0.258819 -0.482963
v 0.482963 0.258819 -0.836516
v 0.000000 0.258819 -0.965926
v -0.482963 0.258819 -0.836516
v -0.836516 0.258819 -0.482963
v -0.965926 0.258819 0.000000
v -0.836516 0.258819 0.482963
v -0.482963 0.258819 0.836516
v 0.000000 0.258819 0.965926
v 0.482963 0.258819 0.836516
v 0.836516 0.258819 0.482963
v 0.965926 0.258819 0.000000
v 0.750000 0.500000 -0.433013
v 0.433013 0.500000 -0.750000
v 0.000000 0.500000 -0.866025
v -0.433013 0.500000 -0.750000
v -0.750000 0.500000 -0.433013
v -0.866025 0.500000 0.000000
v -0.750000 0.500000 0.433013
v -0.433013 0.500000 0.750000
v 0.000000 0.500000 0.866025
v 0.433013 0.500000 0.750000
v 0.750000 0.500000 0.433013
v 0.866025 0.500000 0.000000
v 0.612372 0.707107 -0.353553
v 0.353553 0.707107 -0.612372
v 0.000000 0.707107 -0.707107
v -0.353553 0.707107 -0.612372
v -0.612372 0.707107 -0.353553
v -0.707107 0.707107 0.000000
v -0.612372 0.707107 0.353553
v -0.353553 0.707107 0.612372
v 0.000000 0.707107 0.707107
v 0.353553 0.707107 0.612372
v 0.612372 0.707107 0.353553
v 0.707107 0.707107 0.000000
v 0.433013 0.866025 -0.250000
v 0.250000 0.866025 -0.433013
v 0.000000 0.866025 -0.500000
v -0.250000 0.866025 -0.433013
v -0.433013 0.866025 -0.250000
v -0.500000 0.866025 0.000000
v -0.433013 0.866025 0.250000
v -0.250000 0.866025 0.433013
v 0.000000 0.866025 0.500000
v 0.250000 0.866025 0.433013
v 0.433013 0.866025 0.250000
v 0.500000 0.866025 0.000000
v 0.224144 0.965926 -0.129410
v 0.129410 0.965926 -0.224144
v 0.000000 0.965926 -0.258819
v -0.129410 0.965926 -0.224144
v -0.224144 0.965926 -0.129410
v -0.258819 0.965926 0.000000
v -0.224144 0.965926 0.129410
v -0.129410 0.965926 0.224144
v 0.000000 0.965926 0.258819
v 0.129410 0.965926 0.224144
v 0.224144 0.965926 0.129410
v 0.258819 0.965926 0.000000
v 0.000000 -1.000000 0.000000
v 0.000000 1.000000 0.000000
vt 0.000000 0.083333
vt 0.083333 0.083333
vt 0.166667 0.083333
vt 0.250000 0.083333
vt 0.333333 0.083333
vt 0.416667 0.083333
vt 0.500000 0.083333
vt 0.583333 0.083333
vt 0.666667 0.083333
vt 0.750000 0.083333
vt 0.833333 0.083333
vt 0.916667 0.083333
vt 1.000000 0.083333
vt 0.000000 0.166667
vt 0.083333 0.166667
vt 0.166667 0.166667
vt 0.250000 0.166667
vt 0.333333 0.166667
vt 0.416667 0.166667
vt 0.500000 0.166667
vt 0.583333 0.166667
vt 0.666667 0.166667
vt 0.750000 0.166667
vt 0.833333 0.166667
vt 0.916667 0.166667
vt 1.000000 0.166667
vt 0.000000 0.250000
vt 0.083333 0.250000
vt 0.166667 0.250000
vt 0.250000 0.250000
vt 0.333333 0.250000
vt 0.416667 0.250000
vt 0.500000 0.250000
vt 0.583333 0.250000
vt 0.666667 0.250000
vt 0.750000 0.250000
vt 0.833333 0.250000
vt 0.916667 0.250000
vt 1.000000 0.250000
vt 0.000000 0.333333
vt 0.083333 0.333333
vt 0.166667 0.333333
vt 0.250000 0.333333
vt 0.333333 0.333333
vt 0.416667 0.333333
vt 0.500000 0.333333
vt 0.583333 0.333333
vt 0.666667 0.333333
vt 0.750000 0.333333
vt 0.833333 0.333333
vt 0.916667 0.333333
vt 1.000000 0.333333
vt 0.000000 0.416667
vt 0.083333 0.416667
vt 0.166667 0.416667
vt 0.250000 0.416667
vt 0.333333 0.416667
vt 0.416667 0.416667
vt 0.500000 0.416667
vt 0.583333 0.416667
vt 0.666667 0.416667
vt 0.750000 0.416667
vt 0.833333 0.416667
vt 0.916667 0.416667
vt 1.000000 0.416667
vt 0.000000 0.500000
vt 0.083333 0.500000
vt 0.166667 0.500000
vt 0.250000 0.500000
vt 0.333333 0.500000
vt 0.416667 0.500000
vt 0.500000 0.500000
vt 0.583333 0.500000
vt 0.666667 0.500000
vt 0.750000 0.500000
vt 0.833333 0.500000
vt 0.916667 0.500000
vt 1.000000 0.500000
vt 0.000000 0.583333
vt 0.083333 0.583333
vt 0.166667 0.583333
vt 0.250000 0.583333
vt 0.333333 0.583333
vt 0.416667 0.583333
vt 0.500000 0.583333
vt 0.583333 0.583333
vt 0.666667 0.583333
vt 0.750000 0.583333
vt 0.833333 0.583333
vt 0.916667 0.583333
vt 1.000000 0.583333
vt 0.000000 0.666667
vt 0.083333 0.666667
vt 0.166667 0.666667
vt 0.250000 0.666667
vt 0.333333 0.666667
vt 0.416667 0.666667
vt 0.500000 0.666667
vt 0.583333 0.666667
vt 0.666667 0.666667
vt 0.750000 0.666667
vt 0.833333 0.666667
vt 0.916667 0.666667
vt 1.000000 0.666667
vt 0.000000 0.750000
vt 0.083333 0.750000
vt 0.166667 0.750000
vt 0.250000 0.750000
vt 0.333333 0.750000
vt 0.416667 0.750000
vt 0.500000 0.750000
vt 0.583333 0.750000
vt 0.666667 0.750000
vt 0.750000 0.750000
vt 0.833333 0.750000
vt 0.916667 0.750000
vt 1.000000 0.750000
vt 0.000000 0.833333
vt 0.083333 0.833333
vt 0.166667 0.833333
vt 0.250000 0.833333
vt 0.333333 0.833333
vt 0.416667 0.833333
vt 0.500000 0.833333
vt 0.583333 0.833333
vt 0.666667 0.833333
vt 0.750000 0.833333
vt 0.833333 0.833333
vt 0.916667 0.833333
vt 1.000000 0.833333
vt 0.000000 0.916667
vt 0.083333 0.916667
vt 0.166667 0.916667
vt 0.250000 0.916667
vt 0.333333 0.916667
vt 0.416667 0.916667
vt 0.500000 0.916667
vt 0.583333 0.916667
vt 0.666667 0.916667
vt 0.750000 0.916667
vt 0.833333 0.916667
vt 0.916667 0.916667
vt 1.000000 0.916667
vt 0.041667 0.000000
vt 0.125000 0.000000
vt 0.208333 0.000000
vt 0.291667 0.000000
vt 0.375000 0.000000
vt 0.458333 0.000000
vt 0.541667 0.000000
vt 0.625000 0.000000
vt 0.708333 0.000000
vt 0.791667 0.000000
vt 0.875000 0.000000
vt 0.958333 0.000000
vt 0.041667 1.000000
vt 0.125000 1.000000
vt 0.208333 1.000000
vt 0.291667 1.000000
vt 0.375000 1.000000
vt 0.458333 1.000000
vt 0.541667 1.000000
vt 0.625000 1.000000
vt 0.708333 1.000000
vt 0.791667 1.000000
vt 0.875000 1.000000
vt 0.958333 1.000000
vn 0.278683 -0.919061 -0.278682
vn 0.278683 -0.919061 -0.278682
vn 0.278683 -0.919060 -0.278682
vn 0.278683 -0.919060 -0.278682
vn 0.102005 -0.919061 -0.380687
vn 0.102005 -0.919061 -0.380687
vn 0.102005 -0.919060 -0.380687
vn 0.102005 -0.919060 -0.380687
vn -0.102005 -0.919061 -0.380687
vn -0.102005 -0.919061 -0.380687
vn -0.102005 -0.919061 -0.380687
vn -0.102005 -0.919061 -0.380687
vn -0.278683 -0.919060 -0.278683
vn -0.278683 -0.919060 -0.278683
vn -0.278682 -0.919060 -0.278683
vn -0.278682 -0.919060 -0.278683
vn -0.380687 -0.919061 -0.102005
vn -0.380687 -0.919061 -0.102005
vn -0.380687 -0.919061 -0.102005
vn -0.380687 -0.919061 -0.102005
vn -0.380687 -0.919061 0.102005
vn -0.380687 -0.919061 0.102005
vn -0.380687 -0.919061 0.102005
vn -0.380687 -0.919061 0.102005
vn -0.278683 -0.919061 0.278682
vn -0.278683 -0.919061 0.278682
vn -0.278683 -0.919060 0.278682
vn -0.278683 -0.919060 0.278682
vn -0.102005 -0.919061 0.380687
vn -0.102005 -0.919061 0.380687
vn -0.102005 -0.919060 0.380687
vn -0.102005 -0.919060 0.380687
vn 0.102005 -0.919061 0.380687
vn 0.102005 -0.919061 0.380687
vn 0.102005 -0.919061 0.380687
vn 0.102005 -0.919061 0.380687
vn 0.278683 -0.919060 0.278683
vn 0.278683 -0.919060 0.278683
vn 0.278682 -0.919060 0.278683
vn 0.278682 -0.919060 0.278683
vn 0.380687 -0.919061 0.102005
vn 0.380687 -0.919061 0.102005
vn 0.380687 -0.919061 0.102005
vn 0.380687 -0.919061 0.102005
vn 0.380687 -0.919061 -0.102005
vn 0.380687 -0.919061 -0.102005
vn 0.380687 -0.919061 -0.102005
vn 0.380687 -0.919061 -0.102005
vn 0.439831 -0.783005 -0.439831
vn 0.439831 -0.783005 -0.439831
vn 0.439831 -0.783005 -0.439831
vn 0.439831 -0.783005 -0.439831
vn 0.160990 -0.783005 -0.600821
vn 0.160990 -0.783005 -0.600821
vn 0.160990 -0.783005 -0.600821
vn 0.160990 -0.783005 -0.600821
vn -0.160990 -0.783005 -0.600821
vn -0.160990 -0.783005 -0.600821
vn -0.160990 -0.783005 -0.600821
vn -0.160990 -0.783005 -0.600821
vn -0.439831 -0.783005 -0.439831
vn -0.439831 -0.783005 -0.439831
vn -0.439831 -0.783005 -0.439831
vn -0.439831 -0.783005 -0.439831
vn -0.600821 -0.783005 -0.160989
vn -0.600821 -0.783005 -0.160989
vn -0.600821 -0.783005 -0.160989
vn -0.600821 -0.783005 -0.160989
vn -0.600821 -0.783005 0.160989
vn -0.600821 -0.783005 0.160989
vn -0.600821 -0.783005 0.160989
vn -0.600821 -0.783005 0.160989
vn -0.439831 -0.783005 0.439831
vn -0.439831 -0.783005 0.439831
vn -0.439831 -0.783005 0.439831
vn -0.439831 -0.783005 0.439831
vn -0.160990 -0.783005 0.600821
vn -0.160990 -0.783005 0.600821
vn -0.160990 -0.783005 0.600821
vn -0.160990 -0.783005 0.600821
vn 0.160990 -0.783005 0.600821
vn 0.160990 -0.783005 0.600821
vn 0.160990 -0.783005 0.600821
vn 0.160990 -0.783005 0.600821
vn 0.439831 -0.783005 0.439831
vn 0.439831 -0.783005 0.439831
vn 0.439831 -0.783005 0.439831
vn 0.439831 -0.783005 0.439831
vn 0.600821 -0.783005 0.160989
vn 0.600821 -0.783005 0.160989
vn 0.600821 -0.783005 0.160989
vn 0.600821 -0.783005 0.160989
vn 0.600821 -0.783005 -0.160989
vn 0.600821 -0.783005 -0.160989
vn 0.600821 -0.783005 -0.160989
vn 0.600821 -0.783005 -0.160989
vn 0.568081 -0.595456 -0.568081
vn 0.568081 -0.595456 -0.568081
vn 0.568081 -0.595456 -0.568081
vn 0.568081 -0.595456 -0.568081
vn 0.207932 -0.595456 -0.776013
vn 0.207932 -0.595456 -0.776013
vn 0.207932 -0.595456 -0.776013
vn 0.207932 -0.595456 -0.776013
vn -0.207932 -0.595456 -0.776013
vn -0.207932 -0.595456 -0.776013
vn -0.207932 -0.595456 -0.776013
vn -0.207932 -0.595456 -0.776013
vn -0.568081 -0.595456 -0.568081
vn -0.568081 -0.595456 -0.568081
vn -0.568081 -0.595456 -0.568081
vn -0.568081 -0.595456 -0.568081
vn -0.776013 -0.595456 -0.207932
vn -0.776013 -0.595456 -0.207932
vn -0.776013 -0.595456 -0.207932
vn -0.776013 -0.595456 -0.207932
vn -0.776013 -0.595456 0.207932
vn -0.776013 -0.595456 0.207932
vn -0.776013 -0.595456 0.207932
vn -0.776013 -0.595456 0.207932
vn -0.568081 -0.595456 0.568081
vn -0.568081 -0.595456 0.568081
vn -0.568081 -0.595456 0.568081
vn -0.568081 -0.595456 0.568081
vn -0.207932 -0.595456 0.776013
vn -0.207932 -0.595456 0.776013
vn -0.207932 -0.595456 0.776013
vn -0.207932 -0.595456 0.776013
vn 0.207932 -0.595456 0.776013
vn 0.207932 -0.595456 0.776013
vn 0.207932 -0.595456 0.776013
vn 0.207932 -0.595456 0.776013
vn 0.568081 -0.595456 0.568081
vn 0.568081 -0.595456 0.568081
vn 0.568081 -0.595456 0.568081
vn 0.568081 -0.595456 0.568081
vn 0.776013 -0.595456 0.207932
vn 0.776013 -0.595456 0.207932
vn 0.776013 -0.595456 0.207932
vn 0.776013 -0.595456 0.207932
vn 0.776013 -0.595456 -0.207932
vn 0.776013 -0.595456 -0.207932
vn 0.776013 -0.595456 -0.207932
vn 0.776013 -0.595456 -0.207932
vn 0.656510 -0.371470 -0.656510
vn 0.656510 -0.371470 -0.656510
vn 0.656510 -0.371470 -0.656510
vn 0.656510 -0.371470 -0.656510
vn 0.240299 -0.371470 -0.896809
vn 0.240299 -0.371470 -0.896809
vn 0.240299 -0.371470 -0.896809
vn 0.240299 -0.371470 -0.896809
vn -0.240299 -0.371470 -0.896809
vn -0.240299 -0.371470 -0.896809
vn -0.240299 -0.371470 -0.896809
vn -0.240299 -0.371470 -0.896809
vn -0.656510 -0.371470 -0.656510
vn -0.656510 -0.371470 -0.656510
vn -0.656510 -0.371470 -0.656510
vn -0.656510 -0.371470 -0.656510
vn -0.896809 -0.371470 -0.240299
vn -0.896809 -0.371470 -0.240299
vn -0.896809 -0.371470 -0.240299
vn -0.896809 -0.371470 -0.240299
vn -0.896809 -0.371470 0.240299
vn -0.896809 -0.371470 0.240299
vn -0.896809 -0.371470 0.240299
vn -0.896809 -0.371470 0.240299
vn -0.656510 -0.371470 0.656510
vn -0.656510 -0.371470 0.656510
vn -0.656510 -0.371470 0.656510
vn -0.656510 -0.371470 0.656510
vn -0.240299 -0.371470 0.896809
vn -0.240299 -0.371470 0.896809
vn -0.240299 -0.371470 0.896809
vn -0.240299 -0.371470 0.896809
vn 0.240299 -0.371470 0.896809
vn 0.240299 -0.371470 0.896809
vn 0.240299 -0.371470 0.896809
vn 0.240299 -0.371470 0.896809
vn 0.656510 -0.371470 0.656510
vn 0.656510 -0.371470 0.656510
vn 0.656510 -0.371470 0.656510
vn 0.656510 -0.371470 0.656510
vn 0.896809 -0.371470 0.240299
vn 0.896809 -0.371470 0.240299
vn 0.896809 -0.371470 0.240299
vn 0.896809 -0.371470 0.240299
vn 0.896809 -0.371470 -0.240299
vn 0.896809 -0.371470 -0.240299
vn 0.896809 -0.371470 -0.240299
vn 0.896809 -0.371470 -0.240299
vn 0.701458 -0.126151 -0.701458
vn 0.701458 -0.126151 -0.701458
vn 0.701458 -0.126151 -0.701458
vn 0.701458 -0.126151 -0.701458
vn 0.256752 -0.126151 -0.958209
vn 0.256752 -0.126151 -0.958209
vn 0.256752 -0.126151 -0.958209
vn 0.256752 -0.126151 -0.958209
vn -0.256752 -0.126151 -0.958209
vn -0.256752 -0.126151 -0.958209
vn -0.256752 -0.126151 -0.958209
vn -0.256752 -0.126151 -0.958209
vn -0.701458 -0.126151 -0.701458
vn -0.701458 -0.126151 -0.701458
vn -0.701458 -0.126151 -0.701458
vn -0.701458 -0.126151 -0.701458
vn -0.958209 -0.126151 -0.256751
vn -0.958209 -0.126151 -0.256751
vn -0.958209 -0.126151 -0.256751
vn -0.958209 -0.126151 -0.256751
vn -0.958209 -0.126151 0.256751
vn -0.958209 -0.126151 0.256751
vn -0.958209 -0.126151 0.256751
vn -0.958209 -0.126151 0.256751
vn -0.701458 -0.126151 0.701458
vn -0.701458 -0.126151 0.701458
vn -0.701458 -0.126151 0.701458
vn -0.701458 -0.126151 0.701458
vn -0.256752 -0.126151 0.958209
vn -0.256752 -0.126151 0.958209
vn -0.256752 -0.126151 0.958209
vn -0.256752 -0.126151 0.958209
vn 0.256752 -0.126151 0.958209
vn 0.256752 -0.126151 0.958209
vn 0.256752 -0.126151 0.958209
vn 0.256752 -0.126151 0.958209
vn 0.701458 -0.126151 0.701458
vn 0.701458 -0.126151 0.701458
vn 0.701458 -0.126151 0.701458
vn 0.701458 -0.126151 0.701458
vn 0.958209 -0.126151 0.256751
vn 0.958209 -0.126151 0.256751
vn 0.958209 -0.126151 0.256751
vn 0.958209 -0.126151 0.256751
vn 0.958209 -0.126151 -0.256751
vn 0.958209 -0.126151 -0.256751
vn 0.958209 -0.126151 -0.256751
vn 0.958209 -0.126151 -0.256751
vn 0.701458 0.126151 -0.701458
vn 0.701458 0.126151 -0.701458
vn 0.701458 0.126151 -0.701458
vn 0.701458 0.126151 -0.701458
vn 0.256752 0.126151 -0.958209
vn 0.256752 0.126151 -0.958209
vn 0.256752 0.126151 -0.958209
vn 0.256752 0.126151 -0.958209
vn -0.256752 0.126151 -0.958209
vn -0.256752 0.126151 -0.958209
vn -0.256752 0.126151 -0.958209
vn -0.256752 0.126151 -0.958209
vn -0.701458 0.126151 -0.701458
vn -0.701458 0.126151 -0.701458
vn -0.701458 0.126151 -0.701458
vn -0.701458 0.126151 -0.701458
vn -0.958209 0.126151 -0.256751
vn -0.958209 0.126151 -0.256751
vn -0.958209 0.126151 -0.256751
vn -0.958209 0.126151 -0.256751
vn -0.958209 0.126151 0.256751
vn -0.958209 0.126151 0.256751
vn -0.958209 0.126151 0.256751
vn -0.958209 0.126151 0.256751
vn -0.701458 0.126151 0.701458
vn -0.701458 0.126151 0.701458
vn -0.701458 0.126151 0.701458
vn -0.701458 0.126151 0.701458
vn -0.256752 0.126151 0.958209
vn -0.256752 0.126151 0.958209
vn -0.256752 0.126151 0.958209
vn -0.256752 0.126151 0.958209
vn 0.256752 0.126151 0.958209
vn 0.256752 0.126151 0.958209
vn 0.256752 0.126151 0.958209
vn 0.256752 0.126151 0.958209
vn 0.701458 0.126151 0.701458
vn 0.701458 0.126151 0.701458
vn 0.701458 0.126151 0.701458
vn 0.701458 0.126151 0.701458
vn 0.958209 0.126151 0.256751
vn 0.958209 0.126151 0.256751
vn 0.958209 0.126151 0.256751
vn 0.958209 0.126151 0.256751
vn 0.958209 0.126151 -0.256751
vn 0.958209 0.126151 -0.256751
vn 0.958209 0.126151 -0.256751
vn 0.958209 0.126151 -0.256751
vn 0.656510 0.371470 -0.656510
vn 0.656510 0.371470 -0.656510
vn 0.656510 0.371470 -0.656510
vn 0.656510 0.371470 -0.656510
vn 0.240299 0.371470 -0.896809
vn 0.240299 0.371470 -0.896809
vn 0.240299 0.371470 -0.896809
vn 0.240299 0.371470 -0.896809
vn -0.240299 0.371470 -0.896809
vn -0.240299 0.371470 -0.896809
vn -0.240299 0.371470 -0.896809
vn -0.240299 0.371470 -0.896809
vn -0.656510 0.371470 -0.656510
vn -0.656510 0.371470 -0.656510
vn -0.656510 0.371470 -0.656510
vn -0.656510 0.371470 -0.656510
vn -0.896809 0.371470 -0.240299
vn -0.896809 0.371470 -0.240299
vn -0.896809 0.371470 -0.240299
vn -0.896809 0.371470 -0.240299
vn -0.896809 0.371470 0.240299
vn -0.896809 0.371470 0.240299
vn -0.896809 0.371470 0.240299
vn -0.896809 0.371470 0.240299
vn -0.656510 0.371470 0.656510
vn -0.656510 0.371470 0.656510
vn -0.656510 0.371470 0.656510
vn -0.656510 0.371470 0.656510
vn -0.240299 0.371470 0.896809
vn -0.240299 0.371470 0.896809
vn -0.240299 0.371470 0.896809
vn -0.240299 0.371470 0.896809
vn 0.240299 0.371470 0.896809
vn 0.240299 0.371470 0.896809
vn 0.240299 0.371470 0.896809
vn 0.240299 0.371470 0.896809
vn 0.656510 0.371470 0.656510
vn 0.656510 0.371470 0.656510
vn 0.656510 0.371470 0.656510
vn 0.656510 0.371470 0.656510
vn 0.896809 0.371470 0.240299
vn 0.896809 0.371470 0.240299
vn 0.896809 0.371470 0.240299
vn 0.896809 0.371470 0.240299
vn 0.896809 0.371470 -0.240299
vn 0.896809 0.371470 -0.240299
vn 0.896809 0.371470 -0.240299
vn 0.896809 0.371470 -0.240299
vn 0.568081 0.595456 -0.568081
vn 0.568081 0.595456 -0.568081
vn 0.568081 0.595456 -0.568081
vn 0.568081 0.595456 -0.568081
vn 0.207932 0.595456 -0.776013
vn 0.207932 0.595456 -0.776013
vn 0.207932 0.595456 -0.776013
vn 0.207932 0.595456 -0.776013
vn -0.207932 0.595456 -0.776013
vn -0.207932 0.595456 -0.776013
vn -0.207932 0.595456 -0.776013
vn -0.207932 0.595456 -0.776013
vn -0.568081 0.595456 -0.568081
vn -0.568081 0.595456 -0.568081
vn -0.568081 0.595456 -0.568081
vn -0.568081 0.595456 -0.568081
vn -0.776013 0.595456 -0.207932
vn -0.776013 0.595456 -0.207932
vn -0.776013 0.595456 -0.207932
vn -0.776013 0.595456 -0.207932
vn -0.776013 0.595456 0.207932
vn -0.776013 0.595456 0.207932
vn -0.776013 0.595456 0.207932
vn -0.776013 0.595456 0.207932
vn -0.568081 0.595456 0.568081
vn -0.568081 0.595456 0.568081
vn -0.568081 0.595456 0.568081
vn -0.568081 0.595456 0.568081
vn -0.207932 0.595456 0.776013
vn -0.207932 0.595456 0.776013
vn -0.207932 0.595456 0.776013
vn -0.207932 0.595456 0.776013
vn 0.207932 0.595456 0.776013
vn 0.207932 0.595456 0.776013
vn 0.207932 0.595456 0.776013
vn 0.207932 0.595456 0.776013
vn 0.568081 0.595456 0.568081
vn 0.568081 0.595456 0.568081
vn 0.568081 0.595456 0.568081
vn 0.568081 0.595456 0.568081
vn 0.776013 0.595456 0.207932
vn 0.776013 0.595456 0.207932
vn 0.776013 0.595456 0.207932
vn 0.776013 0.595456 0.207932
vn 0.776013 0.595456 -0.207932
vn 0.776013 0.595456 -0.207932
vn 0.776013 0.595456 -0.207932
vn 0.776013 0.595456 -0.207932
vn 0.439831 0.783005 -0.439831
vn 0.439831 0.783005 -0.439831
vn 0.439831 0.783005 -0.439831
vn 0.439831 0.783005 -0.439831
vn 0.160990 0.783005 -0.600821
vn 0.160990 0.783005 -0.600821
vn 0.160990 0.783005 -0.600821
vn 0.160990 0.783005 -0.600821
vn -0.160990 0.783005 -0.600821
vn -0.160990 0.783005 -0.600821
vn -0.160990 0.783005 -0.600821
vn -0.160990 0.783005 -0.600821
vn -0.439831 0.783005 -0.439831
vn -0.439831 0.783005 -0.439831
vn -0.439831 0.783005 -0.439831
vn -0.439831 0.783005 -0.439831
vn -0.600821 0.783005 -0.160989
vn -0.600821 0.783005 -0.160989
vn -0.600821 0.783005 -0.160989
vn -0.600821 0.783005 -0.160989
vn -0.600821 0.783005 0.160990
vn -0.600821 0.783005 0.160990
vn -0.600821 0.783005 0.160990
vn -0.600821 0.783005 0.160990
vn -0.439831 0.783005 0.439831
vn -0.439831 0.783005 0.439831
vn -0.439831 0.783005 0.439831
vn -0.439831 0.783005 0.439831
vn -0.160990 0.783005 0.600821
vn -0.160990 0.783005 0.600821
vn -0.160990 0.783005 0.600821
vn -0.160990 0.783005 0.600821
vn 0.160990 0.783005 0.600821
vn 0.160990 0.783005 0.600821
vn 0.160990 0.783005 0.600821
vn 0.160990 0.783005 0.600821
vn 0.439831 0.783005 0.439831
vn 0.439831 0.783005 0.439831
vn 0.439831 0.783005 0.439831
vn 0.439831 0.783005 0.439831
vn 0.600821 0.783005 0.160989
vn 0.600821 0.783005 0.160989
vn 0.600821 0.783005 0.160989
vn 0.600821 0.783005 0.160989
vn 0.600821 0.783005 -0.160990
vn 0.600821 0.783005 -0.160990
vn 0.600821 0.783005 -0.160990
vn 0.600821 0.783005 -0.160990
vn 0.278682 0.919060 -0.278683
vn 0.278682 0.919060 -0.278683
vn 0.278683 0.919061 -0.278683
vn 0.278683 0.919061 -0.278683
vn 0.102005 0.919061 -0.380687
vn 0.102005 0.919061 -0.380687
vn 0.102005 0.919060 -0.380687
vn 0.102005 0.919060 -0.380687
vn -0.102005 0.919061 -0.380687
vn -0.102005 0.919061 -0.380687
vn -0.102005 0.919060 -0.380687
vn -0.102005 0.919060 -0.380687
vn -0.278683 0.919061 -0.278682
vn -0.278683 0.919061 -0.278682
vn -0.278683 0.919061 -0.278683
vn -0.278683 0.919061 -0.278683
vn -0.380687 0.919061 -0.102005
vn -0.380687 0.919061 -0.102005
vn -0.380687 0.919061 -0.102005
vn -0.380687 0.919061 -0.102005
vn -0.380687 0.919061 0.102005
vn -0.380687 0.919061 0.102005
vn -0.380687 0.919061 0.102005
vn -0.380687 0.919061 0.102005
vn -0.278682 0.919060 0.278683
vn -0.278682 0.919060 0.278683
vn -0.278683 0.919061 0.278683
vn -0.278683 0.919061 0.278683
vn -0.102005 0.919061 0.380687
vn -0.102005 0.919061 0.380687
vn -0.102005 0.919060 0.380687
vn -0.102005 0.919060 0.380687
vn 0.102005 0.919061 0.380687
vn 0.102005 0.919061 0.380687
vn 0.102005 0.919060 0.380687
vn 0.102005 0.919060 0.380687
vn 0.278683 0.919061 0.278682
vn 0.278683 0.919061 0.278682
vn 0.278683 0.919061 0.278683
vn 0.278683 0.919061 0.278683
vn 0.380687 0.919061 0.102005
vn 0.380687 0.919061 0.102005
vn 0.380687 0.919061 0.102005
vn 0.380687 0.919061 0.102005
vn 0.380687 0.919061 -0.102005
vn 0.380687 0.919061 -0.102005
vn 0.380687 0.919061 -0.102005
vn 0.380687 0.919061 -0.102005
vn 0.095493 -0.990839 -0.095493
vn 0.095493 -0.990839 -0.095493
vn 0.095493 -0.990839 -0.095493
vn 0.034953 -0.990839 -0.130446
vn 0.034953 -0.990839 -0.130446
vn 0.034953 -0.990839 -0.130446
vn -0.034953 -0.990839 -0.130446
vn -0.034953 -0.990839 -0.130446
vn -0.034953 -0.990839 -0.130446
vn -0.095493 -0.990839 -0.095493
vn -0.095493 -0.990839 -0.095493
vn -0.095493 -0.990839 -0.095493
vn -0.130446 -0.990839 -0.034953
vn -0.130446 -0.990839 -0.034953
vn -0.130446 -0.990839 -0.034953
vn -0.130446 -0.990839 0.034953
vn -0.130446 -0.990839 0.034953
vn -0.130446 -0.990839 0.034953
vn -0.095493 -0.990839 0.095493
vn -0.095493 -0.990839 0.095493
vn -0.095493 -0.990839 0.095493
vn -0.034953 -0.990839 0.130446
vn -0.034953 -0.990839 0.130446
vn -0.034953 -0.990839 0.130446
vn 0.034953 -0.990839 0.130446
vn 0.034953 -0.990839 0.130446
vn 0.034953 -0.990839 0.130446
vn 0.095493 -0.990839 0.095493
vn 0.095493 -0.990839 0.095493
vn 0.095493 -0.990839 0.095493
vn 0.130446 -0.990839 0.034953
vn 0.130446 -0.990839 0.034953
vn 0.130446 -0.990839 0.034953
vn 0.130446 -0.990839 -0.034953
vn 0.130446 -0.990839 -0.034953
vn 0.130446 -0.990839 -0.034953
vn 0.095493 0.990839 -0.095493
vn 0.095493 0.990839 -0.095493
vn 0.095493 0.990839 -0.095493
vn 0.034953 0.990839 -0.130446
vn 0.034953 0.990839 -0.130446
vn 0.034953 0.990839 -0.130446
vn -0.034953 0.990839 -0.130446
vn -0.034953 0.990839 -0.130446
vn -0.034953 0.990839 -0.130446
vn -0.095493 0.990839 -0.095493
vn -0.095493 0.990839 -0.095493
vn -0.095493 0.990839 -0.095493
vn -0.130446 0.990839 -0.034953
vn -0.130446 0.990839 -0.034953
vn -0.130446 0.990839 -0.034953
vn -0.130446 0.990839 0.034953
vn -0.130446 0.990839 0.034953
vn -0.130446 0.990839 0.034953
vn -0.095493 0.990839 0.095493
vn -0.095493 0.990839 0.095493
vn -0.095493 0.990839 0.095493
vn -0.034953 0.990839 0.130446
vn -0.034953 0.990839 0.130446
vn -0.034953 0.990839 0.130446
vn 0.034953 0.990839 0.130446
vn 0.034953 0.990839 0.130446
vn 0.034953 0.990839 0.130446
vn 0.095493 0.990839 0.095493
vn 0.095493 0.990839 0.095493
vn 0.095493 0.990839 0.095493
vn 0.130446 0.990839 0.034953
vn 0.130446 0.990839 0.034953
vn 0.130446 0.990839 0.034953
vn 0.130446 0.990839 -0.034953
vn 0.130446 0.990839 -0.034953
vn 0.130446 0.990839 -0.034953
s off
g X12_Sphere
usemtl initialShadingGroup
f 1/1/1 2/2/2 14/15/3 13/14/4
f 2/2/5 3/3/6 15/16/7 14/15/8
f 3/3/9 4/4/10 16/17/11 15/16/12
f 4/4/13 5/5/14 17/18/15 16/17/16
f 5/5/17 6/6/18 18/19/19 17/18/20
f 6/6/21 7/7/22 19/20/23 18/19/24
f 7/7/25 8/8/26 20/21/27 19/20/28
f 8/8/29 9/9/30 21/22/31 20/21/32
f 9/9/33 10/10/34 22/23/35 21/22/36
f 10/10/37 11/11/38 23/24/39 22/23/40
f 11/11/41 12/12/42 24/25/43 23/24/44
f 12/12/45 1/13/46 13/26/47 24/25/48
f 13/14/49 14/15/50 26/28/51 25/27/52
f 14/15/53 15/16/54 27/29/55 26/28/56
f 15/16/57 16/17/58 28/30/59 27/29/60
f 16/17/61 17/18/62 29/31/63 28/30/64
f 17/18/65 18/19/66 30/32/67 29/31/68
f 18/19/69 19/20/70 31/33/71 30/32/72
f 19/20/73 20/21/74 32/34/75 31/33/76
f 20/21/77 21/22/78 33/35/79 32/34/80
f 21/22/81 22/23/82 34/36/83 33/35/84
f 22/23/85 23/24/86 35/37/87 34/36/88
f 23/24/89 24/25/90 36/38/91 35/37/92
f 24/25/93 13/26/94 25/39/95 36/38/96
f 25/27/97 26/28/98 38/41/99 37/40/100
f 26/28/101 27/29/102 39/42/103 38/41/104
f 27/29/105 28/30/106 40/43/107 39/42/108
f 28/30/109 29/31/110 41/44/111 40/43/112
f 29/31/113 30/32/114 42/45/115 41/44/116
f 30/32/117 31/33/118 43/46/119 42/45/120
f 31/33/121 32/34/122 44/47/123 43/46/124
f 32/34/125 33/35/126 45/48/127 44/47/128
f 33/35/129 34/36/130 46/49/131 45/48/132
f 34/36/133 35/37/134 47/50/135 46/49/136
f 35/37/137 36/38/138 48/51/139 47/50/140
f 36/38/141 25/39/142 37/52/143 48/51/144
f 37/40/145 38/41/146 50/54/147 49/53/148
f 38/41/149 39/42/150 51/55/151 50/54/152
f 39/42/153 40/43/154 52/56/155 51/55/156
f 40/43/157 41/44/158 53/57/159 52/56/160
f 41/44/161 42/45/162 54/58/163 53/57/164
f 42/45/165 43/46/166 55/59/167 54/58/168
f 43/46/169 44/47/170 56/60/171 55/59/172
f 44/47/173 45/48/174 57/61/175 56/60/176
f 45/48/177 46/49/178 58/62/179 57/61/180
f 46/49/181 47/50/182 59/63/183 58/62/184
f 47/50/185 48/51/186 60/64/187 59/63/188
f 48/51/189 37/52/190 49/65/191 60/64/192
f 49/53/193 50/54/194 62/67/195 61/66/196
f 50/54/197 51/55/198 63/68/199 62/67/200
f 51/55/201 52/56/202 64/69/203 63/68/204
f 52/56/205 53/57/206 65/70/207 64/69/208
f 53/57/209 54/58/210 66/71/211 65/70/212
f 54/58/213 55/59/214 67/72/215 66/71/216
f 55/59/217 56/60/218 68/73/219 67/72/220
f 56/60/221 57/61/222 69/74/223 68/73/224
f 57/61/225 58/62/226 70/75/227 69/74/228
f 58/62/229 59/63/230 71/76/231 70/75/232
f 59/63/233 60/64/234 72/77/235 71/76/236
f 60/64/237 49/65/238 61/78/239 72/77/240
f 61/66/241 62/67/242 74/80/243 73/79/244
f 62/67/245 63/68/246 75/81/247 74/80/248
f 63/68/249 64/69/250 76/82/251 75/81/252
f 64/69/253 65/70/254 77/83/255 76/82/256
f 65/70/257 66/71/258 78/84/259 77/83/260
f 66/71/261 67/72/262 79/85/263 78/84/264
f 67/72/265 68/73/266 80/86/267 79/85/268
f 68/73/269 69/74/270 81/87/271 80/86/272
f 69/74/273 70/75/274 82/88/275 81/87/276
f 70/75/277 71/76/278 83/89/279 82/88/280
f 71/76/281 72/77/282 84/90/283 83/89/284
f 72/77/285 61/78/286 73/91/287 84/90/288
f 73/79/289 74/80/290 86/93/291 85/92/292
f 74/80/293 75/81/294 87/94/295 86/93/296
f 75/81/297 76/82/298 88/95/299 87/94/300
f 76/82/301 77/83/302 89/96/303 88/95/304
f 77/83/305 78/84/306 90/97/307 89/96/308
f 78/84/309 79/85/310 91/98/311 90/97/312
f 79/85/313 80/86/314 92/99/315 91/98/316
f 80/86/317 81/87/318 93/100/319 92/99/320
f 81/87/321 82/88/322 94/101/323 93/100/324
f 82/88/325 83/89/326 95/102/327 94/101/328
f 83/89/329 84/90/330 96/103/331 95/102/332
f 84/90/333 73/91/334 85/104/335 96/103/336
f 85/92/337 86/93/338 98/106/339 97/105/340
f 86/93/341 87/94/342 99/107/343 98/106/344
f 87/94/345 88/95/346 100/108/347 99/107/348
f 88/95/349 89/96/350 101/109/351 100/108/352
f 89/96/353 90/97/354 102/110/355 101/109/356
f 90/97/357 91/98/358 103/111/359 102/110/360
f 91/98/361 92/99/362 104/112/363 103/111/364
f 92/99/365 93/100/366 105/113/367 104/112/368
f 93/100/369 94/101/370 106/114/371 105/113/372
f 94/101/373 95/102/374 107/115/375 106/114/376
f 95/102/377 96/103/378 108/116/379 107/115/380
f 96/103/381 85/104/382 97/117/383 108/116/384
f 97/105/385 98/106/386 110/119/387 109/118/388
f 98/106/389 99/107/390 111/120/391 110/119/392
f 99/107/393 100/108/394 112/121/395 111/120/396
f 100/108/397 101/109/398 113/122/399 112/121/400
f 101/109/401 102/110/402 114/123/403 113/122/404
f 102/110/405 103/111/406 115/124/407 114/123/408
f 103/111/409 104/112/410 116/125/411 115/124/412
f 104/112/413 105/113/414 117/126/415 116/125/416
f 105/113/417 106/114/418 118/127/419 117/126/420
f 106/114/421 107/115/422 119/128/423 118/127/424
f 107/115/425 108/116/426 120/129/427 119/128/428
f 108/116/429 97/117/430 109/130/431 120/129/432
f 109/118/433 110/119/434 122/132/435 121/131/436
f 110/119/437 111/120/438 123/133/439 122/132/440
f 111/120/441 112/121/442 124/134/443 123/133/444
f 112/121/445 113/122/446 125/135/447 124/134/448
f 113/122/449 114/123/450 126/136/451 125/135/452
f 114/123/453 115/124/454 127/137/455 126/136/456
f 115/124/457 116/125/458 128/138/459 127/137/460
f 116/125/461 117/126/462 129/139/463 128/138/464
f 117/126/465 118/127/466 130/140/467 129/139/468
f 118/127/469 119/128/470 131/141/471 130/140/472
f 119/128/473 120/129/474 132/142/475 131/141/476
f 120/129/477 109/130/478 121/143/479 132/142/480
f 2/2/481 1/1/482 133/144/483
f 3/3/484 2/2/485 133/145/486
f 4/4/487 3/3/488 133/146/489
f 5/5/490 4/4/491 133/147/492
f 6/6/493 5/5/494 133/148/495
f 7/7/496 6/6/497 133/149/498
f 8/8/499 7/7/500 133/150/501
f 9/9/502 8/8/503 133/151/504
f 10/10/505 9/9/506 133/152/507
f 11/11/508 10/10/509 133/153/510
f 12/12/511 11/11/512 133/154/513
f 1/13/514 12/12/515 133/155/516
f 121/131/517 122/132/518 134/156/519
f 122/132/520 123/133/521 134/157/522
f 123/133/523 124/134/524 134/158/525
f 124/134/526 125/135/527 134/159/528
f 125/135/529 126/136/530 134/160/531
f 126/136/532 127/137/533 134/161/534
f 127/137/535 128/138/536 134/162/537
f 128/138/538 129/139/539 134/163/540
f 129/139/541 130/140/542 134/164/543
f 130/140/544 131/141/545 134/165/546
f 131/141/547 132/142/548 134/166/549
f 132/142/550 121/143/551 134/167/552
