# This file uses centimeters as units for non-parametric coordinates.

mtllib Sphere_reversedNormals.mtl
g default
v 0.148778 -0.987688 -0.048341
v 0.126558 -0.987688 -0.091950
v 0.091950 -0.987688 -0.126558
v 0.048341 -0.987688 -0.148778
v 0.000000 -0.987688 -0.156435
v -0.048341 -0.987688 -0.148778
v -0.091950 -0.987688 -0.126558
v -0.126558 -0.987688 -0.091950
v -0.148778 -0.987688 -0.048341
v -0.156435 -0.987688 0.000000
v -0.148778 -0.987688 0.048341
v -0.126558 -0.987688 0.091950
v -0.091950 -0.987688 0.126558
v -0.048341 -0.987688 0.148778
v -0.000000 -0.987688 0.156434
v 0.048341 -0.987688 0.148778
v 0.091950 -0.987688 0.126558
v 0.126558 -0.987688 0.091950
v 0.148778 -0.987688 0.048341
v 0.156434 -0.987688 0.000000
v 0.293893 -0.951057 -0.095492
v 0.250000 -0.951057 -0.181636
v 0.181636 -0.951057 -0.250000
v 0.095492 -0.951057 -0.293893
v 0.000000 -0.951057 -0.309017
v -0.095492 -0.951057 -0.293893
v -0.181636 -0.951057 -0.250000
v -0.250000 -0.951057 -0.181636
v -0.293893 -0.951057 -0.095492
v -0.309017 -0.951057 0.000000
v -0.293893 -0.951057 0.095492
v -0.250000 -0.951057 0.181636
v -0.181636 -0.951057 0.250000
v -0.095492 -0.951057 0.293893
v -0.000000 -0.951057 0.309017
v 0.095491 -0.951057 0.293893
v 0.181636 -0.951057 0.250000
v 0.250000 -0.951057 0.181636
v 0.293893 -0.951057 0.095492
v 0.309017 -0.951057 0.000000
v 0.431771 -0.891007 -0.140291
v 0.367286 -0.891007 -0.266849
v 0.266849 -0.891007 -0.367286
v 0.140291 -0.891007 -0.431771
v 0.000000 -0.891007 -0.453991
v -0.140291 -0.891007 -0.431771
v -0.266849 -0.891007 -0.367286
v -0.367286 -0.891007 -0.266849
v -0.431771 -0.891007 -0.140291
v -0.453991 -0.891007 0.000000
v -0.431771 -0.891007 0.140291
v -0.367286 -0.891007 0.266849
v -0.266849 -0.891007 0.367286
v -0.140291 -0.891007 0.431771
v -0.000000 -0.891007 0.453991
v 0.140291 -0.891007 0.431771
v 0.266849 -0.891007 0.367286
v 0.367286 -0.891007 0.266849
v 0.431771 -0.891007 0.140291
v 0.453991 -0.891007 0.000000
v 0.559017 -0.809017 -0.181636
v 0.475529 -0.809017 -0.345492
v 0.345492 -0.809017 -0.475529
v 0.181636 -0.809017 -0.559017
v 0.000000 -0.809017 -0.587786
v -0.181636 -0.809017 -0.559017
v -0.345492 -0.809017 -0.475528
v -0.475528 -0.809017 -0.345492
v -0.559017 -0.809017 -0.181636
v -0.587785 -0.809017 0.000000
v -0.559017 -0.809017 0.181636
v -0.475528 -0.809017 0.345492
v -0.345492 -0.809017 0.475528
v -0.181636 -0.809017 0.559017
v -0.000000 -0.809017 0.587785
v 0.181636 -0.809017 0.559017
v 0.345491 -0.809017 0.475528
v 0.475528 -0.809017 0.345492
v 0.559017 -0.809017 0.181636
v 0.587785 -0.809017 0.000000
v 0.672499 -0.707107 -0.218508
v 0.572062 -0.707107 -0.415627
v 0.415627 -0.707107 -0.572062
v 0.218508 -0.707107 -0.672499
v 0.000000 -0.707107 -0.707107
v -0.218508 -0.707107 -0.672499
v -0.415627 -0.707107 -0.572062
v -0.572062 -0.707107 -0.415627
v -0.672499 -0.707107 -0.218508
v -0.707107 -0.707107 0.000000
v -0.672499 -0.707107 0.218508
v -0.572062 -0.707107 0.415627
v -0.415627 -0.707107 0.572061
v -0.218508 -0.707107 0.672499
v -0.000000 -0.707107 0.707107
v 0.218508 -0.707107 0.672499
v 0.415627 -0.707107 0.572061
v 0.572061 -0.707107 0.415627
v 0.672499 -0.707107 0.218508
v 0.707107 -0.707107 0.000000
v 0.769421 -0.587785 -0.250000
v 0.654509 -0.587785 -0.475529
v 0.475529 -0.587785 -0.654509
v 0.250000 -0.587785 -0.769421
v 0.000000 -0.587785 -0.809017
v -0.250000 -0.587785 -0.769421
v -0.475528 -0.587785 -0.654509
v -0.654509 -0.587785 -0.475528
v -0.769421 -0.587785 -0.250000
v -0.809017 -0.587785 0.000000
v -0.769421 -0.587785 0.250000
v -0.654509 -0.587785 0.475528
v -0.475528 -0.587785 0.654509
v -0.250000 -0.587785 0.769421
v -0.000000 -0.587785 0.809017
v 0.250000 -0.587785 0.769421
v 0.475528 -0.587785 0.654509
v 0.654509 -0.587785 0.475528
v 0.769421 -0.587785 0.250000
v 0.809017 -0.587785 0.000000
v 0.847398 -0.453991 -0.275336
v 0.720840 -0.453991 -0.523721
v 0.523721 -0.453991 -0.720840
v 0.275336 -0.453991 -0.847398
v 0.000000 -0.453991 -0.891007
v -0.275336 -0.453991 -0.847398
v -0.523721 -0.453991 -0.720840
v -0.720840 -0.453991 -0.523721
v -0.847398 -0.453991 -0.275336
v -0.891007 -0.453991 0.000000
v -0.847398 -0.453991 0.275336
v -0.720840 -0.453991 0.523721
v -0.523721 -0.453991 0.720840
v -0.275336 -0.453991 0.847398
v -0.000000 -0.453991 0.891007
v 0.275336 -0.453991 0.847398
v 0.523721 -0.453991 0.720840
v 0.720839 -0.453991 0.523721
v 0.847398 -0.453991 0.275336
v 0.891007 -0.453991 0.000000
v 0.904509 -0.309017 -0.293893
v 0.769421 -0.309017 -0.559017
v 0.559017 -0.309017 -0.769421
v 0.293893 -0.309017 -0.904509
v 0.000000 -0.309017 -0.951057
v -0.293893 -0.309017 -0.904509
v -0.559017 -0.309017 -0.769421
v -0.769421 -0.309017 -0.559017
v -0.904509 -0.309017 -0.293893
v -0.951057 -0.309017 0.000000
v -0.904509 -0.309017 0.293893
v -0.769421 -0.309017 0.559017
v -0.559017 -0.309017 0.769421
v -0.293893 -0.309017 0.904509
v -0.000000 -0.309017 0.951057
v 0.293893 -0.309017 0.904509
v 0.559017 -0.309017 0.769421
v 0.769421 -0.309017 0.559017
v 0.904509 -0.309017 0.293893
v 0.951057 -0.309017 0.000000
v 0.939348 -0.156434 -0.305213
v 0.799057 -0.156434 -0.580549
v 0.580549 -0.156434 -0.799057
v 0.305213 -0.156434 -0.939348
v 0.000000 -0.156434 -0.987689
v -0.305213 -0.156434 -0.939348
v -0.580549 -0.156434 -0.799057
v -0.799057 -0.156434 -0.580549
v -0.939348 -0.156434 -0.305213
v -0.987689 -0.156434 0.000000
v -0.939348 -0.156434 0.305213
v -0.799057 -0.156434 0.580549
v -0.580549 -0.156434 0.799057
v -0.305213 -0.156434 0.939348
v -0.000000 -0.156434 0.987688
v 0.305212 -0.156434 0.939348
v 0.580549 -0.156434 0.799057
v 0.799057 -0.156434 0.580549
v 0.939348 -0.156434 0.305212
v 0.987688 -0.156434 0.000000
v 0.951057 0.000000 -0.309017
v 0.809018 0.000000 -0.587786
v 0.587786 0.000000 -0.809017
v 0.309017 0.000000 -0.951057
v 0.000000 0.000000 -1.000000
v -0.309017 0.000000 -0.951057
v -0.587785 0.000000 -0.809017
v -0.809017 0.000000 -0.587785
v -0.951057 0.000000 -0.309017
v -1.000000 0.000000 0.000000
v -0.951057 0.000000 0.309017
v -0.809017 0.000000 0.587785
v -0.587785 0.000000 0.809017
v -0.309017 0.000000 0.951057
v -0.000000 0.000000 1.000000
v 0.309017 0.000000 0.951057
v 0.587785 0.000000 0.809017
v 0.809017 0.000000 0.587785
v 0.951057 0.000000 0.309017
v 1.000000 0.000000 0.000000
v 0.939348 0.156434 -0.305213
v 0.799057 0.156434 -0.580549
v 0.580549 0.156434 -0.799057
v 0.305213 0.156434 -0.939348
v 0.000000 0.156434 -0.987689
v -0.305213 0.156434 -0.939348
v -0.580549 0.156434 -0.799057
v -0.799057 0.156434 -0.580549
v -0.939348 0.156434 -0.305213
v -0.987689 0.156434 0.000000
v -0.939348 0.156434 0.305213
v -0.799057 0.156434 0.580549
v -0.580549 0.156434 0.799057
v -0.305213 0.156434 0.939348
v -0.000000 0.156434 0.987688
v 0.305212 0.156434 0.939348
v 0.580549 0.156434 0.799057
v 0.799057 0.156434 0.580549
v 0.939348 0.156434 0.305212
v 0.987688 0.156434 0.000000
v 0.904509 0.309017 -0.293893
v 0.769421 0.309017 -0.559017
v 0.559017 0.309017 -0.769421
v 0.293893 0.309017 -0.904509
v 0.000000 0.309017 -0.951057
v -0.293893 0.309017 -0.904509
v -0.559017 0.309017 -0.769421
v -0.769421 0.309017 -0.559017
v -0.904509 0.309017 -0.293893
v -0.951057 0.309017 0.000000
v -0.904509 0.309017 0.293893
v -0.769421 0.309017 0.559017
v -0.559017 0.309017 0.769421
v -0.293893 0.309017 0.904509
v -0.000000 0.309017 0.951057
v 0.293893 0.309017 0.904509
v 0.559017 0.309017 0.769421
v 0.769421 0.309017 0.559017
v 0.904509 0.309017 0.293893
v 0.951057 0.309017 0.000000
v 0.847398 0.453991 -0.275336
v 0.720840 0.453991 -0.523721
v 0.523721 0.453991 -0.720840
v 0.275336 0.453991 -0.847398
v 0.000000 0.453991 -0.891007
v -0.275336 0.453991 -0.847398
v -0.523721 0.453991 -0.720840
v -0.720840 0.453991 -0.523721
v -0.847398 0.453991 -0.275336
v -0.891007 0.453991 0.000000
v -0.847398 0.453991 0.275336
v -0.720840 0.453991 0.523721
v -0.523721 0.453991 0.720840
v -0.275336 0.453991 0.847398
v -0.000000 0.453991 0.891007
v 0.275336 0.453991 0.847398
v 0.523721 0.453991 0.720840
v 0.720839 0.453991 0.523721
v 0.847398 0.453991 0.275336
v 0.891007 0.453991 0.000000
v 0.769421 0.587785 -0.250000
v 0.654509 0.587785 -0.475529
v 0.475529 0.587785 -0.654509
v 0.250000 0.587785 -0.769421
v 0.000000 0.587785 -0.809017
v -0.250000 0.587785 -0.769421
v -0.475528 0.587785 -0.654509
v -0.654509 0.587785 -0.475528
v -0.769421 0.587785 -0.250000
v -0.809017 0.587785 0.000000
v -0.769421 0.587785 0.250000
v -0.654509 0.587785 0.475528
v -0.475528 0.587785 0.654509
v -0.250000 0.587785 0.769421
v -0.000000 0.587785 0.809017
v 0.250000 0.587785 0.769421
v 0.475528 0.587785 0.654509
v 0.654509 0.587785 0.475528
v 0.769421 0.587785 0.250000
v 0.809017 0.587785 0.000000
v 0.672499 0.707107 -0.218508
v 0.572062 0.707107 -0.415627
v 0.415627 0.707107 -0.572062
v 0.218508 0.707107 -0.672499
v 0.000000 0.707107 -0.707107
v -0.218508 0.707107 -0.672499
v -0.415627 0.707107 -0.572062
v -0.572062 0.707107 -0.415627
v -0.672499 0.707107 -0.218508
v -0.707107 0.707107 0.000000
v -0.672499 0.707107 0.218508
v -0.572062 0.707107 0.415627
v -0.415627 0.707107 0.572061
v -0.218508 0.707107 0.672499
v -0.000000 0.707107 0.707107
v 0.218508 0.707107 0.672499
v 0.415627 0.707107 0.572061
v 0.572061 0.707107 0.415627
v 0.672499 0.707107 0.218508
v 0.707107 0.707107 0.000000
v 0.559017 0.809017 -0.181636
v 0.475529 0.809017 -0.345492
v 0.345492 0.809017 -0.475529
v 0.181636 0.809017 -0.559017
v 0.000000 0.809017 -0.587786
v -0.181636 0.809017 -0.559017
v -0.345492 0.809017 -0.475528
v -0.475528 0.809017 -0.345492
v -0.559017 0.809017 -0.181636
v -0.587785 0.809017 0.000000
v -0.559017 0.809017 0.181636
v -0.475528 0.809017 0.345492
v -0.345492 0.809017 0.475528
v -0.181636 0.809017 0.559017
v -0.000000 0.809017 0.587785
v 0.181636 0.809017 0.559017
v 0.345491 0.809017 0.475528
v 0.475528 0.809017 0.345492
v 0.559017 0.809017 0.181636
v 0.587785 0.809017 0.000000
v 0.431771 0.891007 -0.140291
v 0.367286 0.891007 -0.266849
v 0.266849 0.891007 -0.367286
v 0.140291 0.891007 -0.431771
v 0.000000 0.891007 -0.453991
v -0.140291 0.891007 -0.431771
v -0.266849 0.891007 -0.367286
v -0.367286 0.891007 -0.266849
v -0.431771 0.891007 -0.140291
v -0.453991 0.891007 0.000000
v -0.431771 0.891007 0.140291
v -0.367286 0.891007 0.266849
v -0.266849 0.891007 0.367286
v -0.140291 0.891007 0.431771
v -0.000000 0.891007 0.453991
v 0.140291 0.891007 0.431771
v 0.266849 0.891007 0.367286
v 0.367286 0.891007 0.266849
v 0.431771 0.891007 0.140291
v 0.453991 0.891007 0.000000
v 0.293893 0.951057 -0.095492
v 0.250000 0.951057 -0.181636
v 0.181636 0.951057 -0.250000
v 0.095492 0.951057 -0.293893
v 0.000000 0.951057 -0.309017
v -0.095492 0.951057 -0.293893
v -0.181636 0.951057 -0.250000
v -0.250000 0.951057 -0.181636
v -0.293893 0.951057 -0.095492
v -0.309017 0.951057 0.000000
v -0.293893 0.951057 0.095492
v -0.250000 0.951057 0.181636
v -0.181636 0.951057 0.250000
v -0.095492 0.951057 0.293893
v -0.000000 0.951057 0.309017
v 0.095491 0.951057 0.293893
v 0.181636 0.951057 0.250000
v 0.250000 0.951057 0.181636
v 0.293893 0.951057 0.095492
v 0.309017 0.951057 0.000000
v 0.148778 0.987688 -0.048341
v 0.126558 0.987688 -0.091950
v 0.091950 0.987688 -0.126558
v 0.048341 0.987688 -0.148778
v 0.000000 0.987688 -0.156435
v -0.048341 0.987688 -0.148778
v -0.091950 0.987688 -0.126558
v -0.126558 0.987688 -0.091950
v -0.148778 0.987688 -0.048341
v -0.156435 0.987688 0.000000
v -0.148778 0.987688 0.048341
v -0.126558 0.987688 0.091950
v -0.091950 0.987688 0.126558
v -0.048341 0.987688 0.148778
v -0.000000 0.987688 0.156434
v 0.048341 0.987688 0.148778
v 0.091950 0.987688 0.126558
v 0.126558 0.987688 0.091950
v 0.148778 0.987688 0.048341
v 0.156434 0.987688 0.000000
v 0.000000 -1.000000 0.000000
v 0.000000 1.000000 0.000000
vt 0.000000 0.050000
vt 0.050000 0.050000
vt 0.100000 0.050000
vt 0.150000 0.050000
vt 0.200000 0.050000
vt 0.250000 0.050000
vt 0.300000 0.050000
vt 0.350000 0.050000
vt 0.400000 0.050000
vt 0.450000 0.050000
vt 0.500000 0.050000
vt 0.550000 0.050000
vt 0.600000 0.050000
vt 0.650000 0.050000
vt 0.700000 0.050000
vt 0.750000 0.050000
vt 0.800000 0.050000
vt 0.850000 0.050000
vt 0.900000 0.050000
vt 0.950000 0.050000
vt 1.000000 0.050000
vt 0.000000 0.100000
vt 0.050000 0.100000
vt 0.100000 0.100000
vt 0.150000 0.100000
vt 0.200000 0.100000
vt 0.250000 0.100000
vt 0.300000 0.100000
vt 0.350000 0.100000
vt 0.400000 0.100000
vt 0.450000 0.100000
vt 0.500000 0.100000
vt 0.550000 0.100000
vt 0.600000 0.100000
vt 0.650000 0.100000
vt 0.700000 0.100000
vt 0.750000 0.100000
vt 0.800000 0.100000
vt 0.850000 0.100000
vt 0.900000 0.100000
vt 0.950000 0.100000
vt 1.000000 0.100000
vt 0.000000 0.150000
vt 0.050000 0.150000
vt 0.100000 0.150000
vt 0.150000 0.150000
vt 0.200000 0.150000
vt 0.250000 0.150000
vt 0.300000 0.150000
vt 0.350000 0.150000
vt 0.400000 0.150000
vt 0.450000 0.150000
vt 0.500000 0.150000
vt 0.550000 0.150000
vt 0.600000 0.150000
vt 0.650000 0.150000
vt 0.700000 0.150000
vt 0.750000 0.150000
vt 0.800000 0.150000
vt 0.850000 0.150000
vt 0.900000 0.150000
vt 0.950000 0.150000
vt 1.000000 0.150000
vt 0.000000 0.200000
vt 0.050000 0.200000
vt 0.100000 0.200000
vt 0.150000 0.200000
vt 0.200000 0.200000
vt 0.250000 0.200000
vt 0.300000 0.200000
vt 0.350000 0.200000
vt 0.400000 0.200000
vt 0.450000 0.200000
vt 0.500000 0.200000
vt 0.550000 0.200000
vt 0.600000 0.200000
vt 0.650000 0.200000
vt 0.700000 0.200000
vt 0.750000 0.200000
vt 0.800000 0.200000
vt 0.850000 0.200000
vt 0.900000 0.200000
vt 0.950000 0.200000
vt 1.000000 0.200000
vt 0.000000 0.250000
vt 0.050000 0.250000
vt 0.100000 0.250000
vt 0.150000 0.250000
vt 0.200000 0.250000
vt 0.250000 0.250000
vt 0.300000 0.250000
vt 0.350000 0.250000
vt 0.400000 0.250000
vt 0.450000 0.250000
vt 0.500000 0.250000
vt 0.550000 0.250000
vt 0.600000 0.250000
vt 0.650000 0.250000
vt 0.700000 0.250000
vt 0.750000 0.250000
vt 0.800000 0.250000
vt 0.850000 0.250000
vt 0.900000 0.250000
vt 0.950000 0.250000
vt 1.000000 0.250000
vt 0.000000 0.300000
vt 0.050000 0.300000
vt 0.100000 0.300000
vt 0.150000 0.300000
vt 0.200000 0.300000
vt 0.250000 0.300000
vt 0.300000 0.300000
vt 0.350000 0.300000
vt 0.400000 0.300000
vt 0.450000 0.300000
vt 0.500000 0.300000
vt 0.550000 0.300000
vt 0.600000 0.300000
vt 0.650000 0.300000
vt 0.700000 0.300000
vt 0.750000 0.300000
vt 0.800000 0.300000
vt 0.850000 0.300000
vt 0.900000 0.300000
vt 0.950000 0.300000
vt 1.000000 0.300000
vt 0.000000 0.350000
vt 0.050000 0.350000
vt 0.100000 0.350000
vt 0.150000 0.350000
vt 0.200000 0.350000
vt 0.250000 0.350000
vt 0.300000 0.350000
vt 0.350000 0.350000
vt 0.400000 0.350000
vt 0.450000 0.350000
vt 0.500000 0.350000
vt 0.550000 0.350000
vt 0.600000 0.350000
vt 0.650000 0.350000
vt 0.700000 0.350000
vt 0.750000 0.350000
vt 0.800000 0.350000
vt 0.850000 0.350000
vt 0.900000 0.350000
vt 0.950000 0.350000
vt 1.000000 0.350000
vt 0.000000 0.400000
vt 0.050000 0.400000
vt 0.100000 0.400000
vt 0.150000 0.400000
vt 0.200000 0.400000
vt 0.250000 0.400000
vt 0.300000 0.400000
vt 0.350000 0.400000
vt 0.400000 0.400000
vt 0.450000 0.400000
vt 0.500000 0.400000
vt 0.550000 0.400000
vt 0.600000 0.400000
vt 0.650000 0.400000
vt 0.700000 0.400000
vt 0.750000 0.400000
vt 0.800000 0.400000
vt 0.850000 0.400000
vt 0.900000 0.400000
vt 0.950000 0.400000
vt 1.000000 0.400000
vt 0.000000 0.450000
vt 0.050000 0.450000
vt 0.100000 0.450000
vt 0.150000 0.450000
vt 0.200000 0.450000
vt 0.250000 0.450000
vt 0.300000 0.450000
vt 0.350000 0.450000
vt 0.400000 0.450000
vt 0.450000 0.450000
vt 0.500000 0.450000
vt 0.550000 0.450000
vt 0.600000 0.450000
vt 0.650000 0.450000
vt 0.700000 0.450000
vt 0.750000 0.450000
vt 0.800000 0.450000
vt 0.850000 0.450000
vt 0.900000 0.450000
vt 0.950000 0.450000
vt 1.000000 0.450000
vt 0.000000 0.500000
vt 0.050000 0.500000
vt 0.100000 0.500000
vt 0.150000 0.500000
vt 0.200000 0.500000
vt 0.250000 0.500000
vt 0.300000 0.500000
vt 0.350000 0.500000
vt 0.400000 0.500000
vt 0.450000 0.500000
vt 0.500000 0.500000
vt 0.550000 0.500000
vt 0.600000 0.500000
vt 0.650000 0.500000
vt 0.700000 0.500000
vt 0.750000 0.500000
vt 0.800000 0.500000
vt 0.850000 0.500000
vt 0.900000 0.500000
vt 0.950000 0.500000
vt 1.000000 0.500000
vt 0.000000 0.550000
vt 0.050000 0.550000
vt 0.100000 0.550000
vt 0.150000 0.550000
vt 0.200000 0.550000
vt 0.250000 0.550000
vt 0.300000 0.550000
vt 0.350000 0.550000
vt 0.400000 0.550000
vt 0.450000 0.550000
vt 0.500000 0.550000
vt 0.550000 0.550000
vt 0.600000 0.550000
vt 0.650000 0.550000
vt 0.700000 0.550000
vt 0.750000 0.550000
vt 0.800000 0.550000
vt 0.850000 0.550000
vt 0.900000 0.550000
vt 0.950000 0.550000
vt 1.000000 0.550000
vt 0.000000 0.600000
vt 0.050000 0.600000
vt 0.100000 0.600000
vt 0.150000 0.600000
vt 0.200000 0.600000
vt 0.250000 0.600000
vt 0.300000 0.600000
vt 0.350000 0.600000
vt 0.400000 0.600000
vt 0.450000 0.600000
vt 0.500000 0.600000
vt 0.550000 0.600000
vt 0.600000 0.600000
vt 0.650000 0.600000
vt 0.700000 0.600000
vt 0.750000 0.600000
vt 0.800000 0.600000
vt 0.850000 0.600000
vt 0.900000 0.600000
vt 0.950000 0.600000
vt 1.000000 0.600000
vt 0.000000 0.650000
vt 0.050000 0.650000
vt 0.100000 0.650000
vt 0.150000 0.650000
vt 0.200000 0.650000
vt 0.250000 0.650000
vt 0.300000 0.650000
vt 0.350000 0.650000
vt 0.400000 0.650000
vt 0.450000 0.650000
vt 0.500000 0.650000
vt 0.550000 0.650000
vt 0.600000 0.650000
vt 0.650000 0.650000
vt 0.700000 0.650000
vt 0.750000 0.650000
vt 0.800000 0.650000
vt 0.850000 0.650000
vt 0.900000 0.650000
vt 0.950000 0.650000
vt 1.000000 0.650000
vt 0.000000 0.700000
vt 0.050000 0.700000
vt 0.100000 0.700000
vt 0.150000 0.700000
vt 0.200000 0.700000
vt 0.250000 0.700000
vt 0.300000 0.700000
vt 0.350000 0.700000
vt 0.400000 0.700000
vt 0.450000 0.700000
vt 0.500000 0.700000
vt 0.550000 0.700000
vt 0.600000 0.700000
vt 0.650000 0.700000
vt 0.700000 0.700000
vt 0.750000 0.700000
vt 0.800000 0.700000
vt 0.850000 0.700000
vt 0.900000 0.700000
vt 0.950000 0.700000
vt 1.000000 0.700000
vt 0.000000 0.750000
vt 0.050000 0.750000
vt 0.100000 0.750000
vt 0.150000 0.750000
vt 0.200000 0.750000
vt 0.250000 0.750000
vt 0.300000 0.750000
vt 0.350000 0.750000
vt 0.400000 0.750000
vt 0.450000 0.750000
vt 0.500000 0.750000
vt 0.550000 0.750000
vt 0.600000 0.750000
vt 0.650000 0.750000
vt 0.700000 0.750000
vt 0.750000 0.750000
vt 0.800000 0.750000
vt 0.850000 0.750000
vt 0.900000 0.750000
vt 0.950000 0.750000
vt 1.000000 0.750000
vt 0.000000 0.800000
vt 0.050000 0.800000
vt 0.100000 0.800000
vt 0.150000 0.800000
vt 0.200000 0.800000
vt 0.250000 0.800000
vt 0.300000 0.800000
vt 0.350000 0.800000
vt 0.400000 0.800000
vt 0.450000 0.800000
vt 0.500000 0.800000
vt 0.550000 0.800000
vt 0.600000 0.800000
vt 0.650000 0.800000
vt 0.700000 0.800000
vt 0.750000 0.800000
vt 0.800000 0.800000
vt 0.850000 0.800000
vt 0.900000 0.800000
vt 0.950000 0.800000
vt 1.000000 0.800000
vt 0.000000 0.850000
vt 0.050000 0.850000
vt 0.100000 0.850000
vt 0.150000 0.850000
vt 0.200000 0.850000
vt 0.250000 0.850000
vt 0.300000 0.850000
vt 0.350000 0.850000
vt 0.400000 0.850000
vt 0.450000 0.850000
vt 0.500000 0.850000
vt 0.550000 0.850000
vt 0.600000 0.850000
vt 0.650000 0.850000
vt 0.700000 0.850000
vt 0.750000 0.850000
vt 0.800000 0.850000
vt 0.850000 0.850000
vt 0.900000 0.850000
vt 0.950000 0.850000
vt 1.000000 0.850000
vt 0.000000 0.900000
vt 0.050000 0.900000
vt 0.100000 0.900000
vt 0.150000 0.900000
vt 0.200000 0.900000
vt 0.250000 0.900000
vt 0.300000 0.900000
vt 0.350000 0.900000
vt 0.400000 0.900000
vt 0.450000 0.900000
vt 0.500000 0.900000
vt 0.550000 0.900000
vt 0.600000 0.900000
vt 0.650000 0.900000
vt 0.700000 0.900000
vt 0.750000 0.900000
vt 0.800000 0.900000
vt 0.850000 0.900000
vt 0.900000 0.900000
vt 0.950000 0.900000
vt 1.000000 0.900000
vt 0.000000 0.950000
vt 0.050000 0.950000
vt 0.100000 0.950000
vt 0.150000 0.950000
vt 0.200000 0.950000
vt 0.250000 0.950000
vt 0.300000 0.950000
vt 0.350000 0.950000
vt 0.400000 0.950000
vt 0.450000 0.950000
vt 0.500000 0.950000
vt 0.550000 0.950000
vt 0.600000 0.950000
vt 0.650000 0.950000
vt 0.700000 0.950000
vt 0.750000 0.950000
vt 0.800000 0.950000
vt 0.850000 0.950000
vt 0.900000 0.950000
vt 0.950000 0.950000
vt 1.000000 0.950000
vt 0.025000 0.000000
vt 0.075000 0.000000
vt 0.125000 0.000000
vt 0.175000 0.000000
vt 0.225000 0.000000
vt 0.275000 0.000000
vt 0.325000 0.000000
vt 0.375000 0.000000
vt 0.425000 0.000000
vt 0.475000 0.000000
vt 0.525000 0.000000
vt 0.575000 0.000000
vt 0.625000 0.000000
vt 0.675000 0.000000
vt 0.725000 0.000000
vt 0.775000 0.000000
vt 0.825000 0.000000
vt 0.875000 0.000000
vt 0.925000 0.000000
vt 0.975000 0.000000
vt 0.025000 1.000000
vt 0.075000 1.000000
vt 0.125000 1.000000
vt 0.175000 1.000000
vt 0.225000 1.000000
vt 0.275000 1.000000
vt 0.325000 1.000000
vt 0.375000 1.000000
vt 0.425000 1.000000
vt 0.475000 1.000000
vt 0.525000 1.000000
vt 0.575000 1.000000
vt 0.625000 1.000000
vt 0.675000 1.000000
vt 0.725000 1.000000
vt 0.775000 1.000000
vt 0.825000 1.000000
vt 0.875000 1.000000
vt 0.925000 1.000000
vt 0.975000 1.000000
vn -0.190555 0.979722 0.061915
vn -0.317252 0.942723 0.103081
vn -0.269870 0.942723 0.196072
vn -0.162096 0.979722 0.117769
vn -0.196072 0.942723 0.269870
vn -0.117769 0.979722 0.162095
vn -0.103081 0.942723 0.317251
vn -0.061915 0.979722 0.190555
vn 0.000000 0.942723 0.333578
vn 0.000000 0.979722 0.200361
vn 0.103081 0.942723 0.317251
vn 0.061915 0.979722 0.190555
vn 0.196072 0.942722 0.269870
vn 0.117769 0.979722 0.162095
vn 0.269870 0.942723 0.196072
vn 0.162096 0.979722 0.117769
vn 0.317252 0.942722 0.103082
vn 0.190555 0.979722 0.061915
vn 0.333578 0.942722 0.000000
vn 0.200361 0.979722 0.000000
vn 0.317252 0.942722 -0.103081
vn 0.190555 0.979722 -0.061915
vn 0.269870 0.942723 -0.196072
vn 0.162096 0.979722 -0.117769
vn 0.196072 0.942723 -0.269870
vn 0.117769 0.979722 -0.162095
vn 0.103081 0.942723 -0.317252
vn 0.061915 0.979722 -0.190555
vn -0.000000 0.942723 -0.333578
vn -0.000000 0.979722 -0.200361
vn -0.103081 0.942722 -0.317252
vn -0.061915 0.979722 -0.190555
vn -0.196072 0.942722 -0.269871
vn -0.117769 0.979722 -0.162096
vn -0.269870 0.942722 -0.196073
vn -0.162096 0.979722 -0.117769
vn -0.317252 0.942722 -0.103082
vn -0.190555 0.979722 -0.061915
vn -0.333578 0.942722 -0.000000
vn -0.200361 0.979722 -0.000001
vn -0.447712 0.882266 0.145470
vn -0.380846 0.882266 0.276701
vn -0.276701 0.882266 0.380846
vn -0.145470 0.882266 0.447711
vn 0.000000 0.882266 0.470752
vn 0.145470 0.882266 0.447711
vn 0.276701 0.882266 0.380846
vn 0.380846 0.882266 0.276701
vn 0.447712 0.882266 0.145470
vn 0.470752 0.882266 0.000000
vn 0.447712 0.882266 -0.145470
vn 0.380846 0.882266 -0.276701
vn 0.276701 0.882266 -0.380846
vn 0.145470 0.882266 -0.447712
vn -0.000000 0.882266 -0.470752
vn -0.145470 0.882266 -0.447712
vn -0.276701 0.882266 -0.380846
vn -0.380846 0.882266 -0.276701
vn -0.447712 0.882266 -0.145470
vn -0.470752 0.882266 -0.000001
vn -0.570314 0.800252 0.185306
vn -0.485138 0.800252 0.352474
vn -0.352474 0.800252 0.485138
vn -0.185306 0.800252 0.570314
vn 0.000000 0.800252 0.599664
vn 0.185307 0.800252 0.570314
vn 0.352474 0.800252 0.485138
vn 0.485138 0.800252 0.352473
vn 0.570314 0.800252 0.185306
vn 0.599664 0.800252 0.000000
vn 0.570314 0.800252 -0.185306
vn 0.485138 0.800252 -0.352474
vn 0.352474 0.800252 -0.485138
vn 0.185306 0.800252 -0.570314
vn -0.000000 0.800252 -0.599664
vn -0.185306 0.800252 -0.570315
vn -0.352474 0.800252 -0.485139
vn -0.485139 0.800252 -0.352474
vn -0.570314 0.800252 -0.185306
vn -0.599664 0.800252 -0.000001
vn -0.680318 0.698789 0.221048
vn -0.578712 0.698789 0.420459
vn -0.420459 0.698789 0.578713
vn -0.221049 0.698789 0.680318
vn 0.000000 0.698789 0.715328
vn 0.221049 0.698789 0.680318
vn 0.420460 0.698789 0.578713
vn 0.578713 0.698789 0.420459
vn 0.680318 0.698789 0.221049
vn 0.715328 0.698788 0.000000
vn 0.680318 0.698789 -0.221049
vn 0.578713 0.698788 -0.420460
vn 0.420459 0.698788 -0.578713
vn 0.221049 0.698788 -0.680318
vn -0.000000 0.698789 -0.715328
vn -0.221049 0.698789 -0.680318
vn -0.420460 0.698788 -0.578713
vn -0.578713 0.698788 -0.420459
vn -0.680318 0.698788 -0.221049
vn -0.715328 0.698788 -0.000001
vn -0.774475 0.580401 0.251641
vn -0.658808 0.580401 0.478652
vn -0.478652 0.580401 0.658808
vn -0.251642 0.580401 0.774475
vn 0.000000 0.580401 0.814331
vn 0.251642 0.580401 0.774475
vn 0.478652 0.580401 0.658808
vn 0.658808 0.580401 0.478652
vn 0.774475 0.580401 0.251642
vn 0.814331 0.580401 0.000000
vn 0.774475 0.580401 -0.251642
vn 0.658808 0.580401 -0.478652
vn 0.478652 0.580401 -0.658808
vn 0.251642 0.580401 -0.774475
vn 0.000000 0.580401 -0.814331
vn -0.251642 0.580401 -0.774475
vn -0.478652 0.580401 -0.658808
vn -0.658808 0.580401 -0.478652
vn -0.774475 0.580401 -0.251642
vn -0.814331 0.580400 -0.000001
vn -0.850280 0.447994 0.276272
vn -0.723291 0.447994 0.525502
vn -0.525501 0.447994 0.723291
vn -0.276272 0.447994 0.850279
vn 0.000000 0.447994 0.894037
vn 0.276273 0.447994 0.850279
vn 0.525502 0.447994 0.723291
vn 0.723291 0.447994 0.525501
vn 0.850280 0.447994 0.276272
vn 0.894037 0.447994 -0.000000
vn 0.850280 0.447994 -0.276273
vn 0.723291 0.447994 -0.525502
vn 0.525502 0.447994 -0.723291
vn 0.276273 0.447994 -0.850280
vn -0.000000 0.447994 -0.894037
vn -0.276273 0.447994 -0.850280
vn -0.525502 0.447994 -0.723291
vn -0.723291 0.447994 -0.525502
vn -0.850280 0.447994 -0.276273
vn -0.894037 0.447994 -0.000001
vn -0.905806 0.304789 0.294313
vn -0.770524 0.304789 0.559819
vn -0.559818 0.304789 0.770524
vn -0.294314 0.304789 0.905805
vn 0.000000 0.304789 0.952420
vn 0.294314 0.304789 0.905805
vn 0.559819 0.304789 0.770524
vn 0.770524 0.304789 0.559818
vn 0.905805 0.304789 0.294314
vn 0.952420 0.304789 -0.000000
vn 0.905805 0.304789 -0.294314
vn 0.770524 0.304788 -0.559819
vn 0.559818 0.304788 -0.770524
vn 0.294314 0.304789 -0.905805
vn -0.000000 0.304789 -0.952420
vn -0.294314 0.304789 -0.905805
vn -0.559818 0.304789 -0.770524
vn -0.770524 0.304789 -0.559818
vn -0.905805 0.304788 -0.294314
vn -0.952420 0.304788 -0.000001
vn -0.939675 0.154249 0.305318
vn -0.799335 0.154249 0.580751
vn -0.580750 0.154249 0.799335
vn -0.305319 0.154249 0.939674
vn 0.000000 0.154249 0.988032
vn 0.305319 0.154249 0.939674
vn 0.580751 0.154249 0.799335
vn 0.799335 0.154249 0.580751
vn 0.939674 0.154248 0.305319
vn 0.988032 0.154248 -0.000000
vn 0.939674 0.154248 -0.305319
vn 0.799335 0.154248 -0.580751
vn 0.580751 0.154249 -0.799335
vn 0.305319 0.154249 -0.939674
vn -0.000000 0.154249 -0.988032
vn -0.305319 0.154249 -0.939674
vn -0.580751 0.154249 -0.799335
vn -0.799335 0.154249 -0.580751
vn -0.939674 0.154249 -0.305319
vn -0.988032 0.154249 -0.000001
vn -0.951057 0.000000 0.309016
vn -0.809017 -0.000000 0.587785
vn -0.587785 0.000000 0.809017
vn -0.309017 0.000000 0.951057
vn 0.000000 0.000000 1.000000
vn 0.309017 -0.000000 0.951056
vn 0.587786 -0.000000 0.809017
vn 0.809017 -0.000000 0.587785
vn 0.951057 -0.000000 0.309017
vn 1.000000 0.000000 -0.000000
vn 0.951057 0.000000 -0.309017
vn 0.809017 -0.000000 -0.587785
vn 0.587785 -0.000000 -0.809017
vn 0.309017 -0.000000 -0.951057
vn 0.000000 0.000000 -1.000000
vn -0.309017 0.000000 -0.951057
vn -0.587785 0.000000 -0.809017
vn -0.809017 0.000000 -0.587785
vn -0.951057 0.000000 -0.309017
vn -1.000000 0.000000 -0.000001
vn -0.939675 -0.154249 0.305318
vn -0.799335 -0.154249 0.580751
vn -0.580751 -0.154249 0.799335
vn -0.305319 -0.154249 0.939674
vn 0.000000 -0.154249 0.988032
vn 0.305319 -0.154249 0.939674
vn 0.580751 -0.154249 0.799335
vn 0.799335 -0.154249 0.580751
vn 0.939674 -0.154248 0.305319
vn 0.988032 -0.154248 -0.000000
vn 0.939674 -0.154248 -0.305319
vn 0.799335 -0.154248 -0.580751
vn 0.580751 -0.154249 -0.799335
vn 0.305319 -0.154249 -0.939674
vn -0.000000 -0.154249 -0.988032
vn -0.305319 -0.154249 -0.939674
vn -0.580751 -0.154249 -0.799335
vn -0.799335 -0.154249 -0.580751
vn -0.939674 -0.154248 -0.305319
vn -0.988032 -0.154249 -0.000001
vn -0.905806 -0.304789 0.294313
vn -0.770524 -0.304789 0.559819
vn -0.559818 -0.304789 0.770524
vn -0.294314 -0.304789 0.905805
vn 0.000000 -0.304789 0.952420
vn 0.294314 -0.304789 0.905805
vn 0.559819 -0.304789 0.770524
vn 0.770524 -0.304789 0.559818
vn 0.905805 -0.304789 0.294314
vn 0.952420 -0.304789 -0.000000
vn 0.905805 -0.304789 -0.294314
vn 0.770524 -0.304788 -0.559819
vn 0.559818 -0.304788 -0.770524
vn 0.294314 -0.304789 -0.905805
vn -0.000000 -0.304789 -0.952420
vn -0.294314 -0.304789 -0.905805
vn -0.559818 -0.304789 -0.770524
vn -0.770524 -0.304789 -0.559818
vn -0.905805 -0.304789 -0.294314
vn -0.952420 -0.304789 -0.000001
vn -0.850280 -0.447994 0.276272
vn -0.723291 -0.447994 0.525502
vn -0.525501 -0.447994 0.723291
vn -0.276272 -0.447994 0.850280
vn 0.000000 -0.447994 0.894037
vn 0.276273 -0.447994 0.850279
vn 0.525502 -0.447994 0.723291
vn 0.723291 -0.447994 0.525501
vn 0.850279 -0.447994 0.276272
vn 0.894037 -0.447994 -0.000000
vn 0.850279 -0.447994 -0.276273
vn 0.723291 -0.447994 -0.525502
vn 0.525502 -0.447994 -0.723291
vn 0.276273 -0.447994 -0.850280
vn -0.000000 -0.447994 -0.894037
vn -0.276273 -0.447994 -0.850280
vn -0.525502 -0.447994 -0.723291
vn -0.723291 -0.447994 -0.525502
vn -0.850280 -0.447994 -0.276273
vn -0.894037 -0.447994 -0.000001
vn -0.774475 -0.580401 0.251641
vn -0.658808 -0.580401 0.478652
vn -0.478652 -0.580401 0.658808
vn -0.251642 -0.580401 0.774475
vn 0.000000 -0.580401 0.814331
vn 0.251642 -0.580401 0.774475
vn 0.478652 -0.580401 0.658808
vn 0.658808 -0.580401 0.478652
vn 0.774475 -0.580401 0.251642
vn 0.814331 -0.580401 -0.000000
vn 0.774475 -0.580401 -0.251642
vn 0.658808 -0.580401 -0.478652
vn 0.478652 -0.580401 -0.658808
vn 0.251642 -0.580401 -0.774475
vn 0.000000 -0.580401 -0.814331
vn -0.251642 -0.580401 -0.774475
vn -0.478652 -0.580401 -0.658808
vn -0.658808 -0.580401 -0.478652
vn -0.774475 -0.580401 -0.251642
vn -0.814331 -0.580400 -0.000001
vn -0.680318 -0.698789 0.221048
vn -0.578713 -0.698789 0.420460
vn -0.420459 -0.698789 0.578713
vn -0.221049 -0.698789 0.680318
vn 0.000000 -0.698789 0.715328
vn 0.221049 -0.698788 0.680318
vn 0.420460 -0.698789 0.578713
vn 0.578713 -0.698789 0.420459
vn 0.680318 -0.698789 0.221049
vn 0.715328 -0.698789 0.000000
vn 0.680318 -0.698789 -0.221049
vn 0.578713 -0.698789 -0.420460
vn 0.420459 -0.698789 -0.578713
vn 0.221049 -0.698788 -0.680318
vn -0.000000 -0.698789 -0.715328
vn -0.221049 -0.698789 -0.680318
vn -0.420460 -0.698788 -0.578713
vn -0.578713 -0.698788 -0.420459
vn -0.680318 -0.698788 -0.221049
vn -0.715328 -0.698788 -0.000001
vn -0.570314 -0.800252 0.185306
vn -0.485138 -0.800252 0.352474
vn -0.352474 -0.800252 0.485138
vn -0.185306 -0.800252 0.570314
vn 0.000000 -0.800252 0.599664
vn 0.185306 -0.800252 0.570314
vn 0.352474 -0.800252 0.485138
vn 0.485138 -0.800252 0.352474
vn 0.570314 -0.800252 0.185306
vn 0.599664 -0.800252 0.000000
vn 0.570314 -0.800252 -0.185306
vn 0.485138 -0.800252 -0.352474
vn 0.352474 -0.800252 -0.485138
vn 0.185306 -0.800252 -0.570314
vn -0.000000 -0.800252 -0.599664
vn -0.185306 -0.800252 -0.570315
vn -0.352474 -0.800252 -0.485139
vn -0.485139 -0.800252 -0.352474
vn -0.570314 -0.800252 -0.185306
vn -0.599664 -0.800252 -0.000001
vn -0.447712 -0.882266 0.145470
vn -0.380846 -0.882266 0.276701
vn -0.276701 -0.882266 0.380846
vn -0.145470 -0.882266 0.447712
vn 0.000000 -0.882266 0.470752
vn 0.145470 -0.882266 0.447711
vn 0.276701 -0.882266 0.380846
vn 0.380846 -0.882266 0.276701
vn 0.447712 -0.882266 0.145470
vn 0.470752 -0.882266 0.000000
vn 0.447712 -0.882266 -0.145470
vn 0.380846 -0.882266 -0.276701
vn 0.276701 -0.882266 -0.380846
vn 0.145470 -0.882266 -0.447712
vn -0.000000 -0.882266 -0.470752
vn -0.145470 -0.882266 -0.447712
vn -0.276701 -0.882266 -0.380846
vn -0.380846 -0.882266 -0.276701
vn -0.447712 -0.882266 -0.145470
vn -0.470752 -0.882266 -0.000000
vn -0.317252 -0.942723 0.103081
vn -0.269870 -0.942723 0.196072
vn -0.196072 -0.942722 0.269870
vn -0.103081 -0.942722 0.317252
vn 0.000000 -0.942722 0.333578
vn 0.103081 -0.942722 0.317252
vn 0.196072 -0.942722 0.269870
vn 0.269870 -0.942723 0.196072
vn 0.317252 -0.942723 0.103081
vn 0.333578 -0.942723 0.000000
vn 0.317252 -0.942723 -0.103081
vn 0.269870 -0.942723 -0.196072
vn 0.196072 -0.942723 -0.269870
vn 0.103081 -0.942722 -0.317252
vn -0.000000 -0.942722 -0.333578
vn -0.103081 -0.942722 -0.317252
vn -0.196072 -0.942723 -0.269870
vn -0.269870 -0.942723 -0.196072
vn -0.317252 -0.942722 -0.103081
vn -0.333578 -0.942722 -0.000000
vn -0.190555 -0.979722 0.061915
vn -0.162096 -0.979722 0.117769
vn -0.117769 -0.979722 0.162095
vn -0.061915 -0.979722 0.190555
vn 0.000000 -0.979722 0.200361
vn 0.061915 -0.979722 0.190555
vn 0.117769 -0.979722 0.162095
vn 0.162096 -0.979722 0.117769
vn 0.190555 -0.979722 0.061915
vn 0.200361 -0.979722 0.000000
vn 0.190555 -0.979722 -0.061915
vn 0.162096 -0.979722 -0.117770
vn 0.117769 -0.979722 -0.162095
vn 0.061915 -0.979722 -0.190554
vn -0.000000 -0.979722 -0.200361
vn -0.061915 -0.979722 -0.190555
vn -0.117769 -0.979722 -0.162096
vn -0.162096 -0.979722 -0.117769
vn -0.190555 -0.979722 -0.061915
vn -0.200361 -0.979722 -0.000000
vn 0.000000 1.000000 0.000000
vn 0.000000 -1.000000 0.000000
s 1
g pSphere1
usemtl initialShadingGroup
f 1/1/1 21/22/2 22/23/3 2/2/4
f 2/2/4 22/23/3 23/24/5 3/3/6
f 3/3/6 23/24/5 24/25/7 4/4/8
f 4/4/8 24/25/7 25/26/9 5/5/10
f 5/5/10 25/26/9 26/27/11 6/6/12
f 6/6/12 26/27/11 27/28/13 7/7/14
f 7/7/14 27/28/13 28/29/15 8/8/16
f 8/8/16 28/29/15 29/30/17 9/9/18
f 9/9/18 29/30/17 30/31/19 10/10/20
f 10/10/20 30/31/19 31/32/21 11/11/22
f 11/11/22 31/32/21 32/33/23 12/12/24
f 12/12/24 32/33/23 33/34/25 13/13/26
f 13/13/26 33/34/25 34/35/27 14/14/28
f 14/14/28 34/35/27 35/36/29 15/15/30
f 15/15/30 35/36/29 36/37/31 16/16/32
f 16/16/32 36/37/31 37/38/33 17/17/34
f 17/17/34 37/38/33 38/39/35 18/18/36
f 18/18/36 38/39/35 39/40/37 19/19/38
f 19/19/38 39/40/37 40/41/39 20/20/40
f 20/20/40 40/41/39 21/42/2 1/21/1
f 21/22/2 41/43/41 42/44/42 22/23/3
f 22/23/3 42/44/42 43/45/43 23/24/5
f 23/24/5 43/45/43 44/46/44 24/25/7
f 24/25/7 44/46/44 45/47/45 25/26/9
f 25/26/9 45/47/45 46/48/46 26/27/11
f 26/27/11 46/48/46 47/49/47 27/28/13
f 27/28/13 47/49/47 48/50/48 28/29/15
f 28/29/15 48/50/48 49/51/49 29/30/17
f 29/30/17 49/51/49 50/52/50 30/31/19
f 30/31/19 50/52/50 51/53/51 31/32/21
f 31/32/21 51/53/51 52/54/52 32/33/23
f 32/33/23 52/54/52 53/55/53 33/34/25
f 33/34/25 53/55/53 54/56/54 34/35/27
f 34/35/27 54/56/54 55/57/55 35/36/29
f 35/36/29 55/57/55 56/58/56 36/37/31
f 36/37/31 56/58/56 57/59/57 37/38/33
f 37/38/33 57/59/57 58/60/58 38/39/35
f 38/39/35 58/60/58 59/61/59 39/40/37
f 39/40/37 59/61/59 60/62/60 40/41/39
f 40/41/39 60/62/60 41/63/41 21/42/2
f 41/43/41 61/64/61 62/65/62 42/44/42
f 42/44/42 62/65/62 63/66/63 43/45/43
f 43/45/43 63/66/63 64/67/64 44/46/44
f 44/46/44 64/67/64 65/68/65 45/47/45
f 45/47/45 65/68/65 66/69/66 46/48/46
f 46/48/46 66/69/66 67/70/67 47/49/47
f 47/49/47 67/70/67 68/71/68 48/50/48
f 48/50/48 68/71/68 69/72/69 49/51/49
f 49/51/49 69/72/69 70/73/70 50/52/50
f 50/52/50 70/73/70 71/74/71 51/53/51
f 51/53/51 71/74/71 72/75/72 52/54/52
f 52/54/52 72/75/72 73/76/73 53/55/53
f 53/55/53 73/76/73 74/77/74 54/56/54
f 54/56/54 74/77/74 75/78/75 55/57/55
f 55/57/55 75/78/75 76/79/76 56/58/56
f 56/58/56 76/79/76 77/80/77 57/59/57
f 57/59/57 77/80/77 78/81/78 58/60/58
f 58/60/58 78/81/78 79/82/79 59/61/59
f 59/61/59 79/82/79 80/83/80 60/62/60
f 60/62/60 80/83/80 61/84/61 41/63/41
f 61/64/61 81/85/81 82/86/82 62/65/62
f 62/65/62 82/86/82 83/87/83 63/66/63
f 63/66/63 83/87/83 84/88/84 64/67/64
f 64/67/64 84/88/84 85/89/85 65/68/65
f 65/68/65 85/89/85 86/90/86 66/69/66
f 66/69/66 86/90/86 87/91/87 67/70/67
f 67/70/67 87/91/87 88/92/88 68/71/68
f 68/71/68 88/92/88 89/93/89 69/72/69
f 69/72/69 89/93/89 90/94/90 70/73/70
f 70/73/70 90/94/90 91/95/91 71/74/71
f 71/74/71 91/95/91 92/96/92 72/75/72
f 72/75/72 92/96/92 93/97/93 73/76/73
f 73/76/73 93/97/93 94/98/94 74/77/74
f 74/77/74 94/98/94 95/99/95 75/78/75
f 75/78/75 95/99/95 96/100/96 76/79/76
f 76/79/76 96/100/96 97/101/97 77/80/77
f 77/80/77 97/101/97 98/102/98 78/81/78
f 78/81/78 98/102/98 99/103/99 79/82/79
f 79/82/79 99/103/99 100/104/100 80/83/80
f 80/83/80 100/104/100 81/105/81 61/84/61
f 81/85/81 101/106/101 102/107/102 82/86/82
f 82/86/82 102/107/102 103/108/103 83/87/83
f 83/87/83 103/108/103 104/109/104 84/88/84
f 84/88/84 104/109/104 105/110/105 85/89/85
f 85/89/85 105/110/105 106/111/106 86/90/86
f 86/90/86 106/111/106 107/112/107 87/91/87
f 87/91/87 107/112/107 108/113/108 88/92/88
f 88/92/88 108/113/108 109/114/109 89/93/89
f 89/93/89 109/114/109 110/115/110 90/94/90
f 90/94/90 110/115/110 111/116/111 91/95/91
f 91/95/91 111/116/111 112/117/112 92/96/92
f 92/96/92 112/117/112 113/118/113 93/97/93
f 93/97/93 113/118/113 114/119/114 94/98/94
f 94/98/94 114/119/114 115/120/115 95/99/95
f 95/99/95 115/120/115 116/121/116 96/100/96
f 96/100/96 116/121/116 117/122/117 97/101/97
f 97/101/97 117/122/117 118/123/118 98/102/98
f 98/102/98 118/123/118 119/124/119 99/103/99
f 99/103/99 119/124/119 120/125/120 100/104/100
f 100/104/100 120/125/120 101/126/101 81/105/81
f 101/106/101 121/127/121 122/128/122 102/107/102
f 102/107/102 122/128/122 123/129/123 103/108/103
f 103/108/103 123/129/123 124/130/124 104/109/104
f 104/109/104 124/130/124 125/131/125 105/110/105
f 105/110/105 125/131/125 126/132/126 106/111/106
f 106/111/106 126/132/126 127/133/127 107/112/107
f 107/112/107 127/133/127 128/134/128 108/113/108
f 108/113/108 128/134/128 129/135/129 109/114/109
f 109/114/109 129/135/129 130/136/130 110/115/110
f 110/115/110 130/136/130 131/137/131 111/116/111
f 111/116/111 131/137/131 132/138/132 112/117/112
f 112/117/112 132/138/132 133/139/133 113/118/113
f 113/118/113 133/139/133 134/140/134 114/119/114
f 114/119/114 134/140/134 135/141/135 115/120/115
f 115/120/115 135/141/135 136/142/136 116/121/116
f 116/121/116 136/142/136 137/143/137 117/122/117
f 117/122/117 137/143/137 138/144/138 118/123/118
f 118/123/118 138/144/138 139/145/139 119/124/119
f 119/124/119 139/145/139 140/146/140 120/125/120
f 120/125/120 140/146/140 121/147/121 101/126/101
f 121/127/121 141/148/141 142/149/142 122/128/122
f 122/128/122 142/149/142 143/150/143 123/129/123
f 123/129/123 143/150/143 144/151/144 124/130/124
f 124/130/124 144/151/144 145/152/145 125/131/125
f 125/131/125 145/152/145 146/153/146 126/132/126
f 126/132/126 146/153/146 147/154/147 127/133/127
f 127/133/127 147/154/147 148/155/148 128/134/128
f 128/134/128 148/155/148 149/156/149 129/135/129
f 129/135/129 149/156/149 150/157/150 130/136/130
f 130/136/130 150/157/150 151/158/151 131/137/131
f 131/137/131 151/158/151 152/159/152 132/138/132
f 132/138/132 152/159/152 153/160/153 133/139/133
f 133/139/133 153/160/153 154/161/154 134/140/134
f 134/140/134 154/161/154 155/162/155 135/141/135
f 135/141/135 155/162/155 156/163/156 136/142/136
f 136/142/136 156/163/156 157/164/157 137/143/137
f 137/143/137 157/164/157 158/165/158 138/144/138
f 138/144/138 158/165/158 159/166/159 139/145/139
f 139/145/139 159/166/159 160/167/160 140/146/140
f 140/146/140 160/167/160 141/168/141 121/147/121
f 141/148/141 161/169/161 162/170/162 142/149/142
f 142/149/142 162/170/162 163/171/163 143/150/143
f 143/150/143 163/171/163 164/172/164 144/151/144
f 144/151/144 164/172/164 165/173/165 145/152/145
f 145/152/145 165/173/165 166/174/166 146/153/146
f 146/153/146 166/174/166 167/175/167 147/154/147
f 147/154/147 167/175/167 168/176/168 148/155/148
f 148/155/148 168/176/168 169/177/169 149/156/149
f 149/156/149 169/177/169 170/178/170 150/157/150
f 150/157/150 170/178/170 171/179/171 151/158/151
f 151/158/151 171/179/171 172/180/172 152/159/152
f 152/159/152 172/180/172 173/181/173 153/160/153
f 153/160/153 173/181/173 174/182/174 154/161/154
f 154/161/154 174/182/174 175/183/175 155/162/155
f 155/162/155 175/183/175 176/184/176 156/163/156
f 156/163/156 176/184/176 177/185/177 157/164/157
f 157/164/157 177/185/177 178/186/178 158/165/158
f 158/165/158 178/186/178 179/187/179 159/166/159
f 159/166/159 179/187/179 180/188/180 160/167/160
f 160/167/160 180/188/180 161/189/161 141/168/141
f 161/169/161 181/190/181 182/191/182 162/170/162
f 162/170/162 182/191/182 183/192/183 163/171/163
f 163/171/163 183/192/183 184/193/184 164/172/164
f 164/172/164 184/193/184 185/194/185 165/173/165
f 165/173/165 185/194/185 186/195/186 166/174/166
f 166/174/166 186/195/186 187/196/187 167/175/167
f 167/175/167 187/196/187 188/197/188 168/176/168
f 168/176/168 188/197/188 189/198/189 169/177/169
f 169/177/169 189/198/189 190/199/190 170/178/170
f 170/178/170 190/199/190 191/200/191 171/179/171
f 171/179/171 191/200/191 192/201/192 172/180/172
f 172/180/172 192/201/192 193/202/193 173/181/173
f 173/181/173 193/202/193 194/203/194 174/182/174
f 174/182/174 194/203/194 195/204/195 175/183/175
f 175/183/175 195/204/195 196/205/196 176/184/176
f 176/184/176 196/205/196 197/206/197 177/185/177
f 177/185/177 197/206/197 198/207/198 178/186/178
f 178/186/178 198/207/198 199/208/199 179/187/179
f 179/187/179 199/208/199 200/209/200 180/188/180
f 180/188/180 200/209/200 181/210/181 161/189/161
f 181/190/181 201/211/201 202/212/202 182/191/182
f 182/191/182 202/212/202 203/213/203 183/192/183
f 183/192/183 203/213/203 204/214/204 184/193/184
f 184/193/184 204/214/204 205/215/205 185/194/185
f 185/194/185 205/215/205 206/216/206 186/195/186
f 186/195/186 206/216/206 207/217/207 187/196/187
f 187/196/187 207/217/207 208/218/208 188/197/188
f 188/197/188 208/218/208 209/219/209 189/198/189
f 189/198/189 209/219/209 210/220/210 190/199/190
f 190/199/190 210/220/210 211/221/211 191/200/191
f 191/200/191 211/221/211 212/222/212 192/201/192
f 192/201/192 212/222/212 213/223/213 193/202/193
f 193/202/193 213/223/213 214/224/214 194/203/194
f 194/203/194 214/224/214 215/225/215 195/204/195
f 195/204/195 215/225/215 216/226/216 196/205/196
f 196/205/196 216/226/216 217/227/217 197/206/197
f 197/206/197 217/227/217 218/228/218 198/207/198
f 198/207/198 218/228/218 219/229/219 199/208/199
f 199/208/199 219/229/219 220/230/220 200/209/200
f 200/209/200 220/230/220 201/231/201 181/210/181
f 201/211/201 221/232/221 222/233/222 202/212/202
f 202/212/202 222/233/222 223/234/223 203/213/203
f 203/213/203 223/234/223 224/235/224 204/214/204
f 204/214/204 224/235/224 225/236/225 205/215/205
f 205/215/205 225/236/225 226/237/226 206/216/206
f 206/216/206 226/237/226 227/238/227 207/217/207
f 207/217/207 227/238/227 228/239/228 208/218/208
f 208/218/208 228/239/228 229/240/229 209/219/209
f 209/219/209 229/240/229 230/241/230 210/220/210
f 210/220/210 230/241/230 231/242/231 211/221/211
f 211/221/211 231/242/231 232/243/232 212/222/212
f 212/222/212 232/243/232 233/244/233 213/223/213
f 213/223/213 233/244/233 234/245/234 214/224/214
f 214/224/214 234/245/234 235/246/235 215/225/215
f 215/225/215 235/246/235 236/247/236 216/226/216
f 216/226/216 236/247/236 237/248/237 217/227/217
f 217/227/217 237/248/237 238/249/238 218/228/218
f 218/228/218 238/249/238 239/250/239 219/229/219
f 219/229/219 239/250/239 240/251/240 220/230/220
f 220/230/220 240/251/240 221/252/221 201/231/201
f 221/232/221 241/253/241 242/254/242 222/233/222
f 222/233/222 242/254/242 243/255/243 223/234/223
f 223/234/223 243/255/243 244/256/244 224/235/224
f 224/235/224 244/256/244 245/257/245 225/236/225
f 225/236/225 245/257/245 246/258/246 226/237/226
f 226/237/226 246/258/246 247/259/247 227/238/227
f 227/238/227 247/259/247 248/260/248 228/239/228
f 228/239/228 248/260/248 249/261/249 229/240/229
f 229/240/229 249/261/249 250/262/250 230/241/230
f 230/241/230 250/262/250 251/263/251 231/242/231
f 231/242/231 251/263/251 252/264/252 232/243/232
f 232/243/232 252/264/252 253/265/253 233/244/233
f 233/244/233 253/265/253 254/266/254 234/245/234
f 234/245/234 254/266/254 255/267/255 235/246/235
f 235/246/235 255/267/255 256/268/256 236/247/236
f 236/247/236 256/268/256 257/269/257 237/248/237
f 237/248/237 257/269/257 258/270/258 238/249/238
f 238/249/238 258/270/258 259/271/259 239/250/239
f 239/250/239 259/271/259 260/272/260 240/251/240
f 240/251/240 260/272/260 241/273/241 221/252/221
f 241/253/241 261/274/261 262/275/262 242/254/242
f 242/254/242 262/275/262 263/276/263 243/255/243
f 243/255/243 263/276/263 264/277/264 244/256/244
f 244/256/244 264/277/264 265/278/265 245/257/245
f 245/257/245 265/278/265 266/279/266 246/258/246
f 246/258/246 266/279/266 267/280/267 247/259/247
f 247/259/247 267/280/267 268/281/268 248/260/248
f 248/260/248 268/281/268 269/282/269 249/261/249
f 249/261/249 269/282/269 270/283/270 250/262/250
f 250/262/250 270/283/270 271/284/271 251/263/251
f 251/263/251 271/284/271 272/285/272 252/264/252
f 252/264/252 272/285/272 273/286/273 253/265/253
f 253/265/253 273/286/273 274/287/274 254/266/254
f 254/266/254 274/287/274 275/288/275 255/267/255
f 255/267/255 275/288/275 276/289/276 256/268/256
f 256/268/256 276/289/276 277/290/277 257/269/257
f 257/269/257 277/290/277 278/291/278 258/270/258
f 258/270/258 278/291/278 279/292/279 259/271/259
f 259/271/259 279/292/279 280/293/280 260/272/260
f 260/272/260 280/293/280 261/294/261 241/273/241
f 261/274/261 281/295/281 282/296/282 262/275/262
f 262/275/262 282/296/282 283/297/283 263/276/263
f 263/276/263 283/297/283 284/298/284 264/277/264
f 264/277/264 284/298/284 285/299/285 265/278/265
f 265/278/265 285/299/285 286/300/286 266/279/266
f 266/279/266 286/300/286 287/301/287 267/280/267
f 267/280/267 287/301/287 288/302/288 268/281/268
f 268/281/268 288/302/288 289/303/289 269/282/269
f 269/282/269 289/303/289 290/304/290 270/283/270
f 270/283/270 290/304/290 291/305/291 271/284/271
f 271/284/271 291/305/291 292/306/292 272/285/272
f 272/285/272 292/306/292 293/307/293 273/286/273
f 273/286/273 293/307/293 294/308/294 274/287/274
f 274/287/274 294/308/294 295/309/295 275/288/275
f 275/288/275 295/309/295 296/310/296 276/289/276
f 276/289/276 296/310/296 297/311/297 277/290/277
f 277/290/277 297/311/297 298/312/298 278/291/278
f 278/291/278 298/312/298 299/313/299 279/292/279
f 279/292/279 299/313/299 300/314/300 280/293/280
f 280/293/280 300/314/300 281/315/281 261/294/261
f 281/295/281 301/316/301 302/317/302 282/296/282
f 282/296/282 302/317/302 303/318/303 283/297/283
f 283/297/283 303/318/303 304/319/304 284/298/284
f 284/298/284 304/319/304 305/320/305 285/299/285
f 285/299/285 305/320/305 306/321/306 286/300/286
f 286/300/286 306/321/306 307/322/307 287/301/287
f 287/301/287 307/322/307 308/323/308 288/302/288
f 288/302/288 308/323/308 309/324/309 289/303/289
f 289/303/289 309/324/309 310/325/310 290/304/290
f 290/304/290 310/325/310 311/326/311 291/305/291
f 291/305/291 311/326/311 312/327/312 292/306/292
f 292/306/292 312/327/312 313/328/313 293/307/293
f 293/307/293 313/328/313 314/329/314 294/308/294
f 294/308/294 314/329/314 315/330/315 295/309/295
f 295/309/295 315/330/315 316/331/316 296/310/296
f 296/310/296 316/331/316 317/332/317 297/311/297
f 297/311/297 317/332/317 318/333/318 298/312/298
f 298/312/298 318/333/318 319/334/319 299/313/299
f 299/313/299 319/334/319 320/335/320 300/314/300
f 300/314/300 320/335/320 301/336/301 281/315/281
f 301/316/301 321/337/321 322/338/322 302/317/302
f 302/317/302 322/338/322 323/339/323 303/318/303
f 303/318/303 323/339/323 324/340/324 304/319/304
f 304/319/304 324/340/324 325/341/325 305/320/305
f 305/320/305 325/341/325 326/342/326 306/321/306
f 306/321/306 326/342/326 327/343/327 307/322/307
f 307/322/307 327/343/327 328/344/328 308/323/308
f 308/323/308 328/344/328 329/345/329 309/324/309
f 309/324/309 329/345/329 330/346/330 310/325/310
f 310/325/310 330/346/330 331/347/331 311/326/311
f 311/326/311 331/347/331 332/348/332 312/327/312
f 312/327/312 332/348/332 333/349/333 313/328/313
f 313/328/313 333/349/333 334/350/334 314/329/314
f 314/329/314 334/350/334 335/351/335 315/330/315
f 315/330/315 335/351/335 336/352/336 316/331/316
f 316/331/316 336/352/336 337/353/337 317/332/317
f 317/332/317 337/353/337 338/354/338 318/333/318
f 318/333/318 338/354/338 339/355/339 319/334/319
f 319/334/319 339/355/339 340/356/340 320/335/320
f 320/335/320 340/356/340 321/357/321 301/336/301
f 321/337/321 341/358/341 342/359/342 322/338/322
f 322/338/322 342/359/342 343/360/343 323/339/323
f 323/339/323 343/360/343 344/361/344 324/340/324
f 324/340/324 344/361/344 345/362/345 325/341/325
f 325/341/325 345/362/345 346/363/346 326/342/326
f 326/342/326 346/363/346 347/364/347 327/343/327
f 327/343/327 347/364/347 348/365/348 328/344/328
f 328/344/328 348/365/348 349/366/349 329/345/329
f 329/345/329 349/366/349 350/367/350 330/346/330
f 330/346/330 350/367/350 351/368/351 331/347/331
f 331/347/331 351/368/351 352/369/352 332/348/332
f 332/348/332 352/369/352 353/370/353 333/349/333
f 333/349/333 353/370/353 354/371/354 334/350/334
f 334/350/334 354/371/354 355/372/355 335/351/335
f 335/351/335 355/372/355 356/373/356 336/352/336
f 336/352/336 356/373/356 357/374/357 337/353/337
f 337/353/337 357/374/357 358/375/358 338/354/338
f 338/354/338 358/375/358 359/376/359 339/355/339
f 339/355/339 359/376/359 360/377/360 340/356/340
f 340/356/340 360/377/360 341/378/341 321/357/321
f 341/358/341 361/379/361 362/380/362 342/359/342
f 342/359/342 362/380/362 363/381/363 343/360/343
f 343/360/343 363/381/363 364/382/364 344/361/344
f 344/361/344 364/382/364 365/383/365 345/362/345
f 345/362/345 365/383/365 366/384/366 346/363/346
f 346/363/346 366/384/366 367/385/367 347/364/347
f 347/364/347 367/385/367 368/386/368 348/365/348
f 348/365/348 368/386/368 369/387/369 349/366/349
f 349/366/349 369/387/369 370/388/370 350/367/350
f 350/367/350 370/388/370 371/389/371 351/368/351
f 351/368/351 371/389/371 372/390/372 352/369/352
f 352/369/352 372/390/372 373/391/373 353/370/353
f 353/370/353 373/391/373 374/392/374 354/371/354
f 354/371/354 374/392/374 375/393/375 355/372/355
f 355/372/355 375/393/375 376/394/376 356/373/356
f 356/373/356 376/394/376 377/395/377 357/374/357
f 357/374/357 377/395/377 378/396/378 358/375/358
f 358/375/358 378/396/378 379/397/379 359/376/359
f 359/376/359 379/397/379 380/398/380 360/377/360
f 360/377/360 380/398/380 361/399/361 341/378/341
f 2/2/4 381/400/381 1/1/1
f 3/3/6 381/401/381 2/2/4
f 4/4/8 381/402/381 3/3/6
f 5/5/10 381/403/381 4/4/8
f 6/6/12 381/404/381 5/5/10
f 7/7/14 381/405/381 6/6/12
f 8/8/16 381/406/381 7/7/14
f 9/9/18 381/407/381 8/8/16
f 10/10/20 381/408/381 9/9/18
f 11/11/22 381/409/381 10/10/20
f 12/12/24 381/410/381 11/11/22
f 13/13/26 381/411/381 12/12/24
f 14/14/28 381/412/381 13/13/26
f 15/15/30 381/413/381 14/14/28
f 16/16/32 381/414/381 15/15/30
f 17/17/34 381/415/381 16/16/32
f 18/18/36 381/416/381 17/17/34
f 19/19/38 381/417/381 18/18/36
f 20/20/40 381/418/381 19/19/38
f 1/21/1 381/419/381 20/20/40
f 361/379/361 382/420/382 362/380/362
f 362/380/362 382/421/382 363/381/363
f 363/381/363 382/422/382 364/382/364
f 364/382/364 382/423/382 365/383/365
f 365/383/365 382/424/382 366/384/366
f 366/384/366 382/425/382 367/385/367
f 367/385/367 382/426/382 368/386/368
f 368/386/368 382/427/382 369/387/369
f 369/387/369 382/428/382 370/388/370
f 370/388/370 382/429/382 371/389/371
f 371/389/371 382/430/382 372/390/372
f 372/390/372 382/431/382 373/391/373
f 373/391/373 382/432/382 374/392/374
f 374/392/374 382/433/382 375/393/375
f 375/393/375 382/434/382 376/394/376
f 376/394/376 382/435/382 377/395/377
f 377/395/377 382/436/382 378/396/378
f 378/396/378 382/437/382 379/397/379
f 379/397/379 382/438/382 380/398/380
f 380/398/380 382/439/382 361/399/361
