# This file uses centimeters as units for non-parametric coordinates.

mtllib Stairs_Exported.mtl
g default
v 0.000000 0.000000 0.000000
v 2.000000 0.000000 0.000000
v 0.000000 0.250000 0.000000
v 2.000000 0.250000 0.000000
v 0.000000 0.250000 0.500000
v 2.000000 0.250000 0.500000
v 0.000000 0.500000 0.500000
v 2.000000 0.500000 0.500000
v 0.000000 0.500000 1.000000
v 2.000000 0.500000 1.000000
v 0.000000 0.750000 1.000000
v 2.000000 0.750000 1.000000
v 0.000000 0.750000 1.500000
v 2.000000 0.750000 1.500000
v 0.000000 1.000000 1.500000
v 2.000000 1.000000 1.500000
v 0.000000 1.000000 2.000000
v 2.000000 1.000000 2.000000
v 2.000000 0.000000 0.500000
v 2.000000 0.000000 1.000000
v 2.000000 0.000000 1.500000
v 2.000000 0.000000 2.000000
v 0.000000 0.000000 0.500000
v 0.000000 0.000000 1.000000
v 0.000000 0.000000 1.500000
v 0.000000 0.000000 2.000000
vt 1.000000 0.000000
vt 1.000000 1.000000
vt 0.000000 1.000000
vt 0.000000 0.000000
vt 1.000000 0.000000
vt 1.000000 1.000000
vt 0.750000 0.250000
vt 0.750000 0.500000
vt 0.500000 0.500000
vt 0.000000 1.000000
vt 0.000000 0.000000
vt 1.000000 0.000000
vt 1.000000 1.000000
vt 0.000000 1.000000
vt 0.500000 0.750000
vt 0.250000 0.750000
vt 0.250000 1.000000
vt 0.000000 1.000000
vt 0.500000 0.500000
vt 0.000000 1.000000
vt 0.750000 0.500000
vt 0.750000 0.250000
vt 0.250000 0.750000
vt 0.000000 0.000000
vt 0.500000 0.750000
vt 1.000000 1.000000
vt 0.000000 0.000000
vt 1.000000 0.000000
vt 1.000000 1.000000
vt 0.000000 1.000000
vt 0.000000 0.000000
vt 1.000000 0.000000
vt 0.000000 0.000000
vt 0.000000 1.000000
vt 1.000000 1.000000
vt 1.000000 0.000000
vt 0.000000 0.000000
vt 0.000000 1.000000
vt 1.000000 1.000000
vt 1.000000 0.000000
vt 0.000000 0.000000
vt 0.000000 1.000000
vt 1.000000 1.000000
vt 1.000000 0.000000
vt 0.000000 0.000000
vt 0.000000 1.000000
vt 0.000000 1.000000
vt 0.250000 1.000000
vt 0.750000 0.000000
vt 1.000000 0.000000
vt 1.000000 0.250000
vt 0.500000 0.000000
vt 0.250000 0.000000
vt 0.000000 0.000000
vt 1.000000 0.250000
vt 1.000000 0.000000
vt 0.750000 0.000000
vt 0.500000 0.000000
vt 0.250000 0.000000
vt 0.000000 0.000000
vt 1.000000 0.000000
vt 1.000000 1.000000
vn 1.000000 0.000000 0.000000
vn 1.000000 0.000000 0.000000
vn 1.000000 0.000000 0.000000
vn 1.000000 0.000000 0.000000
vn 1.000000 0.000000 0.000000
vn 1.000000 0.000000 0.000000
vn 1.000000 0.000000 0.000000
vn 1.000000 0.000000 0.000000
vn 1.000000 0.000000 0.000000
vn -1.000000 0.000000 0.000000
vn -1.000000 0.000000 0.000000
vn -1.000000 0.000000 0.000000
vn -1.000000 0.000000 0.000000
vn -1.000000 0.000000 0.000000
vn -1.000000 0.000000 0.000000
vn -1.000000 0.000000 0.000000
vn -1.000000 0.000000 0.000000
vn -1.000000 0.000000 0.000000
vn 0.000000 0.000000 -1.000000
vn 0.000000 0.000000 -1.000000
vn 0.000000 0.000000 -1.000000
vn 0.000000 0.000000 -1.000000
vn 0.000000 0.000000 -1.000000
vn 0.000000 0.000000 -1.000000
vn 0.000000 1.000000 0.000000
vn 0.000000 1.000000 0.000000
vn 0.000000 1.000000 0.000000
vn 0.000000 1.000000 0.000000
vn 0.000000 1.000000 0.000000
vn 0.000000 1.000000 0.000000
vn 0.000000 0.000000 -1.000000
vn 0.000000 0.000000 -1.000000
vn 0.000000 0.000000 -1.000000
vn 0.000000 0.000000 -1.000000
vn 0.000000 0.000000 -1.000000
vn 0.000000 0.000000 -1.000000
vn 0.000000 1.000000 0.000000
vn 0.000000 1.000000 0.000000
vn 0.000000 1.000000 0.000000
vn 0.000000 1.000000 0.000000
vn 0.000000 1.000000 0.000000
vn 0.000000 1.000000 0.000000
vn 0.000000 0.000000 -1.000000
vn 0.000000 0.000000 -1.000000
vn 0.000000 0.000000 -1.000000
vn 0.000000 0.000000 -1.000000
vn 0.000000 0.000000 -1.000000
vn 0.000000 0.000000 -1.000000
vn 0.000000 1.000000 0.000000
vn 0.000000 1.000000 0.000000
vn 0.000000 1.000000 0.000000
vn 0.000000 1.000000 0.000000
vn 0.000000 1.000000 0.000000
vn 0.000000 1.000000 0.000000
vn 0.000000 0.000000 -1.000000
vn 0.000000 0.000000 -1.000000
vn 0.000000 0.000000 -1.000000
vn 0.000000 0.000000 -1.000000
vn 0.000000 0.000000 -1.000000
vn 0.000000 0.000000 -1.000000
vn 0.000000 1.000000 0.000000
vn 0.000000 1.000000 0.000000
vn 0.000000 1.000000 0.000000
vn 0.000000 1.000000 0.000000
vn 0.000000 1.000000 0.000000
vn 0.000000 1.000000 0.000000
vn 1.000000 0.000000 0.000000
vn 1.000000 0.000000 0.000000
vn 1.000000 0.000000 0.000000
vn 1.000000 0.000000 0.000000
vn 1.000000 0.000000 0.000000
vn 1.000000 0.000000 0.000000
vn 1.000000 0.000000 0.000000
vn 1.000000 0.000000 0.000000
vn 1.000000 0.000000 0.000000
vn 1.000000 0.000000 0.000000
vn 1.000000 0.000000 0.000000
vn 1.000000 0.000000 0.000000
vn 1.000000 0.000000 0.000000
vn 1.000000 0.000000 0.000000
vn 1.000000 0.000000 0.000000
vn 1.000000 0.000000 0.000000
vn 1.000000 0.000000 0.000000
vn 1.000000 0.000000 0.000000
vn 1.000000 0.000000 0.000000
vn 1.000000 0.000000 0.000000
vn 1.000000 0.000000 0.000000
vn 1.000000 0.000000 0.000000
vn 1.000000 0.000000 0.000000
vn 1.000000 0.000000 0.000000
vn -1.000000 0.000000 0.000000
vn -1.000000 0.000000 0.000000
vn -1.000000 0.000000 0.000000
vn -1.000000 0.000000 0.000000
vn -1.000000 0.000000 0.000000
vn -1.000000 0.000000 0.000000
vn -1.000000 0.000000 0.000000
vn -1.000000 0.000000 0.000000
vn -1.000000 0.000000 0.000000
vn -1.000000 0.000000 0.000000
vn -1.000000 0.000000 0.000000
vn -1.000000 0.000000 0.000000
vn -1.000000 0.000000 0.000000
vn -1.000000 0.000000 0.000000
vn -1.000000 0.000000 0.000000
vn -1.000000 0.000000 0.000000
vn -1.000000 0.000000 0.000000
vn -1.000000 0.000000 0.000000
vn -1.000000 0.000000 0.000000
vn -1.000000 0.000000 0.000000
vn -1.000000 0.000000 0.000000
vn -1.000000 0.000000 0.000000
vn -1.000000 0.000000 0.000000
vn -1.000000 0.000000 0.000000
vn 0.000000 0.000000 1.000000
vn 0.000000 0.000000 1.000000
vn 0.000000 0.000000 1.000000
vn 0.000000 0.000000 1.000000
vn 0.000000 0.000000 1.000000
vn 0.000000 0.000000 1.000000
s off
g Stairs_Exported:Stairs01
usemtl Stairs_Exported:MobileDiffuseColor_Stone04
f 6/7/1 8/8/2 10/9/3
f 10/9/4 12/15/5 14/16/6
f 14/16/7 16/17/8 18/18/9
f 9/19/10 7/21/11 5/22/12
f 13/23/13 11/25/14 9/19/15
f 17/47/16 15/48/17 13/23/18
f 4/26/19 2/32/20 1/33/21
f 1/33/22 3/34/23 4/26/24
f 6/1/25 4/2/26 3/3/27
f 3/3/28 5/4/29 6/1/30
f 8/35/31 6/36/32 5/37/33
f 5/37/34 7/38/35 8/35/36
f 10/5/37 8/6/38 7/10/39
f 7/10/40 9/11/41 10/5/42
f 12/39/43 10/40/44 9/41/45
f 9/41/46 11/42/47 12/39/48
f 14/12/49 12/13/50 11/14/51
f 11/14/52 13/27/53 14/12/54
f 16/43/55 14/44/56 13/45/57
f 13/45/58 15/46/59 16/43/60
f 18/28/61 16/29/62 15/30/63
f 15/30/64 17/31/65 18/28/66
f 6/7/67 19/49/68 2/50/69
f 2/50/70 4/51/71 6/7/72
f 10/9/73 20/52/74 19/49/75
f 19/49/76 6/7/77 10/9/78
f 14/16/79 21/53/80 20/52/81
f 20/52/82 10/9/83 14/16/84
f 18/18/85 22/54/86 21/53/87
f 21/53/88 14/16/89 18/18/90
f 3/55/91 1/56/92 23/57/93
f 23/57/94 5/22/95 3/55/96
f 5/22/97 23/57/98 24/58/99
f 24/58/100 9/19/101 5/22/102
f 9/19/103 24/58/104 25/59/105
f 25/59/106 13/23/107 9/19/108
f 13/23/109 25/59/110 26/60/111
f 26/60/112 17/47/113 13/23/114
f 17/20/115 26/24/116 22/61/117
f 22/61/118 18/62/119 17/20/120
