# This file uses centimeters as units for non-parametric coordinates.

mtllib Star3.mtl
g default
v 0.000000 0.071442 -0.000368
v 0.141813 0.049155 0.195937
v 0.226432 0.049155 -0.072872
v 0.000000 0.049155 -0.235393
v -0.226432 0.049155 -0.072871
v -0.141813 0.049155 0.195938
v -0.000000 -0.023880 0.198326
v 0.000000 0.023880 0.198326
v 0.193088 -0.023880 0.265987
v 0.193088 0.023880 0.265987
v 0.188738 -0.023880 0.061353
v 0.188738 0.023880 0.061353
v 0.311515 -0.023880 -0.101008
v 0.311515 0.023880 -0.101008
v 0.116696 -0.023880 -0.160590
v 0.116696 0.023880 -0.160590
v 0.000000 -0.023880 -0.326739
v 0.000000 0.023880 -0.326739
v -0.116696 -0.023880 -0.160590
v -0.116696 0.023880 -0.160590
v -0.311515 -0.023880 -0.101007
v -0.311515 0.023880 -0.101007
v -0.188738 -0.023880 0.061353
v -0.188738 0.023880 0.061353
v -0.193088 -0.023880 0.265987
v -0.193088 0.023880 0.265987
v -0.000000 -0.071442 -0.000368
v -0.226432 -0.049155 -0.072871
v -0.141813 -0.049155 0.195938
v 0.141813 -0.049155 0.195937
v 0.226432 -0.049155 -0.072872
v 0.000000 -0.049155 -0.235393
vt 0.000000 0.000000
vt 1.000000 0.000000
vt 1.000000 1.000000
vt 0.000000 1.000000
vt 0.000000 0.000000
vt 1.000000 0.000000
vt 1.000000 1.000000
vt 0.000000 1.000000
vt 0.000000 0.000000
vt 1.000000 0.000000
vt 1.000000 1.000000
vt 0.000000 1.000000
vt 0.000000 0.000000
vt 1.000000 0.000000
vt 1.000000 1.000000
vt 0.000000 1.000000
vt 0.000000 0.000000
vt 1.000000 0.000000
vt 1.000000 1.000000
vt 0.000000 1.000000
vt 0.000000 0.000000
vt 1.000000 0.000000
vt 1.000000 1.000000
vt 0.000000 1.000000
vt 0.000000 0.000000
vt 1.000000 0.000000
vt 1.000000 1.000000
vt 0.000000 1.000000
vt 0.000000 0.000000
vt 1.000000 0.000000
vt 1.000000 1.000000
vt 0.000000 1.000000
vt 0.000000 0.000000
vt 1.000000 0.000000
vt 1.000000 1.000000
vt 0.000000 1.000000
vt 0.000000 0.000000
vt 1.000000 0.000000
vt 1.000000 1.000000
vt 0.000000 1.000000
vt 1.000000 1.000000
vt 0.000000 0.000000
vt 1.000000 0.000000
vt 1.000000 1.000000
vt 0.000000 1.000000
vt 0.000000 0.000000
vt 1.000000 1.000000
vt 0.000000 1.000000
vt 0.000000 0.000000
vt 0.000000 0.000000
vt 1.000000 0.000000
vt 1.000000 1.000000
vt 0.000000 1.000000
vt 1.000000 1.000000
vt 1.000000 0.000000
vt 0.000000 -0.000000
vt 0.000000 1.000000
vt 1.000000 0.000000
vt 0.000000 0.000000
vt 1.000000 0.000000
vt 0.000000 1.000000
vt 0.000000 0.000000
vt 1.000000 0.000000
vt 1.000000 1.000000
vt 0.000000 0.000000
vt 1.000000 0.000000
vt 0.000000 1.000000
vt -0.000000 0.000000
vt 1.000000 0.000000
vt -0.000000 1.000000
vt 0.000000 0.000000
vt 1.000000 0.000000
vt 1.000000 1.000000
vt 1.000000 0.000000
vt 0.000000 0.000000
vt 0.000000 1.000000
vt 0.000000 0.000000
vt 1.000000 0.000000
vt 1.000000 1.000000
vt 0.000000 0.000000
vt 1.000000 0.000000
vt 1.000000 1.000000
vt 0.000000 0.000000
vt 1.000000 0.000000
vt 1.000000 1.000000
vt 0.000000 0.000000
vt 1.000000 0.000000
vt 1.000000 1.000000
vt 0.000000 0.000000
vt 1.000000 0.000000
vt 1.000000 1.000000
vt 0.000000 0.000000
vt 1.000000 0.000000
vt 1.000000 1.000000
vt 0.000000 0.000000
vt 1.000000 0.000000
vt 1.000000 1.000000
vt 0.000000 0.000000
vt 1.000000 0.000000
vt 1.000000 1.000000
vt 1.000000 1.000000
vt 0.000000 0.000000
vt 1.000000 0.000000
vt 1.000000 1.000000
vt 0.000000 1.000000
vt 0.000000 0.000000
vt 1.000000 1.000000
vt 0.000000 1.000000
vt 0.000000 0.000000
vt 0.000000 0.000000
vt 1.000000 0.000000
vt 1.000000 1.000000
vt 0.000000 1.000000
vt 1.000000 1.000000
vt 1.000000 0.000000
vt 0.000000 -0.000000
vt 0.000000 1.000000
vt 1.000000 0.000000
vt 0.000000 0.000000
vt 1.000000 0.000000
vt 0.000000 1.000000
vt 0.000000 0.000000
vt 1.000000 0.000000
vt 1.000000 1.000000
vt 0.000000 0.000000
vt 1.000000 0.000000
vt 0.000000 1.000000
vt -0.000000 0.000000
vt 1.000000 0.000000
vt -0.000000 1.000000
vt 0.000000 0.000000
vt 1.000000 0.000000
vt 1.000000 1.000000
vt 1.000000 0.000000
vt 0.000000 0.000000
vt 0.000000 1.000000
vt 0.000000 0.000000
vt 1.000000 0.000000
vt 1.000000 1.000000
vt 0.000000 0.000000
vt 1.000000 0.000000
vt 1.000000 1.000000
vt 0.000000 0.000000
vt 1.000000 0.000000
vt 1.000000 1.000000
vt 0.000000 0.000000
vt 1.000000 0.000000
vt 1.000000 1.000000
vt 0.000000 0.000000
vt 1.000000 0.000000
vt 1.000000 1.000000
vt 0.000000 0.000000
vt 1.000000 0.000000
vt 1.000000 1.000000
vt 0.000000 0.000000
vt 1.000000 0.000000
vt 1.000000 1.000000
vt 0.000000 0.000000
vt 1.000000 0.000000
vt 1.000000 1.000000
vn 0.330702 0.000000 0.943735
vn 0.330702 0.000000 0.943735
vn 0.330702 0.000000 0.943735
vn 0.330702 0.000000 0.943735
vn -0.330701 0.000000 0.943736
vn -0.330701 0.000000 0.943736
vn -0.330701 0.000000 0.943736
vn -0.330701 0.000000 0.943736
vn 0.999774 0.000000 -0.021253
vn 0.999774 0.000000 -0.021253
vn 0.999774 0.000000 -0.021253
vn 0.999774 0.000000 -0.021253
vn 0.797621 0.000000 0.603159
vn 0.797621 0.000000 0.603159
vn 0.797621 0.000000 0.603159
vn 0.797621 0.000000 0.603159
vn 0.292463 0.000000 -0.956277
vn 0.292463 0.000000 -0.956277
vn 0.292463 0.000000 -0.956277
vn 0.292463 0.000000 -0.956277
vn 0.818323 0.000000 -0.574758
vn 0.818323 0.000000 -0.574758
vn 0.818323 0.000000 -0.574758
vn 0.818323 0.000000 -0.574758
vn -0.818324 0.000000 -0.574758
vn -0.818324 0.000000 -0.574758
vn -0.818324 0.000000 -0.574758
vn -0.818324 0.000000 -0.574758
vn -0.292467 0.000000 -0.956276
vn -0.292467 0.000000 -0.956276
vn -0.292467 0.000000 -0.956276
vn -0.292467 0.000000 -0.956276
vn -0.797619 0.000000 0.603162
vn -0.797619 0.000000 0.603162
vn -0.797619 0.000000 0.603162
vn -0.797619 0.000000 0.603162
vn -0.999774 0.000000 -0.021253
vn -0.999774 0.000000 -0.021253
vn -0.999774 0.000000 -0.021253
vn -0.999774 0.000000 -0.021253
vn -0.004221 0.959480 -0.281745
vn -0.016866 0.954958 -0.296261
vn -0.060384 0.936516 -0.345387
vn -0.287183 0.954600 -0.079146
vn -0.353594 0.933946 -0.052111
vn -0.269817 0.959060 -0.086038
vn -0.165910 0.954349 0.248380
vn -0.160885 0.933080 0.321679
vn -0.167032 0.958863 0.229524
vn 0.186403 0.954661 0.232114
vn 0.252762 0.935435 0.247129
vn 0.167298 0.959271 0.227618
vn 0.276161 0.955009 -0.108134
vn 0.307624 0.937414 -0.163163
vn 0.266174 0.959620 -0.090996
vn 0.160887 0.933079 0.321681
vn 0.165912 0.954348 0.248380
vn 0.167034 0.958863 0.229524
vn 0.353594 0.933946 -0.052112
vn 0.287183 0.954600 -0.079146
vn 0.269817 0.959060 -0.086038
vn -0.167298 0.959271 0.227619
vn -0.252762 0.935435 0.247131
vn -0.186402 0.954660 0.232116
vn 0.060382 0.936515 -0.345389
vn 0.016865 0.954958 -0.296262
vn 0.004220 0.959480 -0.281746
vn -0.307625 0.937414 -0.163163
vn -0.276161 0.955009 -0.108134
vn -0.266174 0.959620 -0.090996
vn -0.151232 0.889308 0.431578
vn -0.160885 0.933080 0.321679
vn -0.165910 0.954349 0.248380
vn 0.287183 0.954600 -0.079146
vn 0.353594 0.933946 -0.052112
vn 0.452662 0.891630 -0.009622
vn 0.354779 0.895632 0.268283
vn 0.252762 0.935435 0.247129
vn 0.186403 0.954661 0.232114
vn 0.016865 0.954958 -0.296262
vn 0.060382 0.936515 -0.345389
vn 0.128273 0.898684 -0.419420
vn 0.354965 0.901023 -0.249313
vn 0.307624 0.937414 -0.163163
vn 0.276161 0.955009 -0.108134
vn -0.276161 0.955009 -0.108134
vn -0.307625 0.937414 -0.163163
vn -0.354965 0.901023 -0.249313
vn -0.128275 0.898685 -0.419418
vn -0.060384 0.936516 -0.345387
vn -0.016866 0.954958 -0.296261
vn -0.186402 0.954660 0.232116
vn -0.252762 0.935435 0.247131
vn -0.354780 0.895631 0.268286
vn -0.452662 0.891630 -0.009623
vn -0.353594 0.933946 -0.052111
vn -0.287183 0.954600 -0.079146
vn 0.165912 0.954348 0.248380
vn 0.160887 0.933079 0.321681
vn 0.151235 0.889305 0.431584
vn -0.004221 -0.959480 -0.281745
vn -0.060384 -0.936516 -0.345387
vn -0.016866 -0.954958 -0.296261
vn -0.287183 -0.954600 -0.079146
vn -0.269817 -0.959060 -0.086038
vn -0.353594 -0.933946 -0.052111
vn -0.165910 -0.954349 0.248380
vn -0.167032 -0.958863 0.229524
vn -0.160885 -0.933080 0.321679
vn 0.186403 -0.954661 0.232114
vn 0.167298 -0.959271 0.227618
vn 0.252762 -0.935435 0.247129
vn 0.276161 -0.955009 -0.108134
vn 0.266174 -0.959620 -0.090996
vn 0.307624 -0.937414 -0.163163
vn 0.160887 -0.933079 0.321681
vn 0.167034 -0.958863 0.229524
vn 0.165912 -0.954348 0.248380
vn 0.353594 -0.933946 -0.052112
vn 0.269817 -0.959060 -0.086038
vn 0.287183 -0.954600 -0.079146
vn -0.167298 -0.959271 0.227619
vn -0.186402 -0.954660 0.232116
vn -0.252762 -0.935434 0.247131
vn 0.060382 -0.936515 -0.345389
vn 0.004220 -0.959480 -0.281746
vn 0.016865 -0.954958 -0.296262
vn -0.307625 -0.937414 -0.163163
vn -0.266174 -0.959620 -0.090996
vn -0.276161 -0.955009 -0.108134
vn -0.151232 -0.889308 0.431578
vn -0.165910 -0.954349 0.248380
vn -0.160885 -0.933080 0.321679
vn 0.287183 -0.954600 -0.079146
vn 0.452662 -0.891630 -0.009622
vn 0.353594 -0.933946 -0.052112
vn 0.354779 -0.895632 0.268283
vn 0.186403 -0.954661 0.232114
vn 0.252762 -0.935435 0.247129
vn 0.016865 -0.954958 -0.296262
vn 0.128273 -0.898684 -0.419420
vn 0.060382 -0.936515 -0.345389
vn 0.354965 -0.901023 -0.249313
vn 0.276161 -0.955009 -0.108134
vn 0.307624 -0.937414 -0.163163
vn -0.276161 -0.955009 -0.108134
vn -0.354965 -0.901023 -0.249313
vn -0.307625 -0.937414 -0.163163
vn -0.128275 -0.898685 -0.419418
vn -0.016866 -0.954958 -0.296261
vn -0.060384 -0.936516 -0.345387
vn -0.186402 -0.954660 0.232116
vn -0.354780 -0.895631 0.268286
vn -0.252762 -0.935434 0.247131
vn -0.452662 -0.891630 -0.009623
vn -0.287183 -0.954600 -0.079146
vn -0.353594 -0.933946 -0.052111
vn 0.165912 -0.954348 0.248380
vn 0.151235 -0.889305 0.431584
vn 0.160887 -0.933079 0.321681
s off
g Star3:Star3
usemtl Star3:lambert1SG
f 7/1/1 8/2/2 26/3/3 25/4/4
f 8/5/5 7/6/6 9/7/7 10/8/8
f 10/9/9 9/10/10 11/11/11 12/12/12
f 12/13/13 11/14/14 13/15/15 14/16/16
f 14/17/17 13/18/18 15/19/19 16/20/20
f 16/21/21 15/22/22 17/23/23 18/24/24
f 18/25/25 17/26/26 19/27/27 20/28/28
f 20/29/29 19/30/30 21/31/31 22/32/32
f 22/33/33 21/34/34 23/35/35 24/36/36
f 24/37/37 23/38/38 25/39/39 26/40/40
f 1/41/41 20/42/42 5/43/43
f 24/44/44 6/45/45 1/46/46
f 8/47/47 2/48/48 1/49/49
f 12/50/50 3/51/51 1/52/52
f 16/53/53 4/54/54 1/55/55
f 6/56/56 8/57/57 1/58/58
f 2/59/59 12/60/60 1/61/61
f 1/62/62 5/63/63 24/64/64
f 3/65/65 16/66/66 1/67/67
f 4/68/68 20/69/69 1/70/70
f 10/71/71 2/72/72 8/73/73
f 12/74/74 2/75/75 10/76/76
f 14/77/77 3/78/78 12/79/79
f 16/80/80 3/81/81 14/82/82
f 18/83/83 4/84/84 16/85/85
f 20/86/86 4/87/87 18/88/88
f 22/89/89 5/90/90 20/91/91
f 24/92/92 5/93/93 22/94/94
f 26/95/95 6/96/96 24/97/97
f 8/98/98 6/99/99 26/100/100
f 27/101/101 28/103/102 19/102/103
f 23/104/104 27/106/105 29/105/106
f 7/107/107 27/109/108 30/108/109
f 11/110/110 27/112/111 31/111/112
f 15/113/113 27/115/114 32/114/115
f 29/116/116 27/118/117 7/117/118
f 30/119/119 27/121/120 11/120/121
f 27/122/122 23/124/123 28/123/124
f 31/125/125 27/127/126 15/126/127
f 32/128/128 27/130/129 19/129/130
f 9/131/131 7/133/132 30/132/133
f 11/134/134 9/136/135 30/135/136
f 13/137/137 11/139/138 31/138/139
f 15/140/140 13/142/141 31/141/142
f 17/143/143 15/145/144 32/144/145
f 19/146/146 17/148/147 32/147/148
f 21/149/149 19/151/150 28/150/151
f 23/152/152 21/154/153 28/153/154
f 25/155/155 23/157/156 29/156/157
f 7/158/158 25/160/159 29/159/160
