# This file uses centimeters as units for non-parametric coordinates.

mtllib worldPuzzle_4_structure.mtl
g default
v -0.500000 -0.500000 0.500000
v -0.500000 0.500000 0.500000
v 0.500000 0.500000 0.500000
v 0.500000 -0.500000 0.500000
v -0.500000 0.500000 -0.500000
v 0.500000 0.500000 -0.500000
v -0.500000 -0.500000 -0.500000
v 0.500000 -0.500000 -0.500000
v -1.484837 3.037146 0.656444
v -1.488076 3.037146 1.656420
v -1.484837 3.038144 0.656444
v -1.488076 3.038144 1.656420
v -1.962173 2.720280 1.649588
v -1.962173 3.038144 1.649588
v -1.958933 2.720280 0.649611
v -1.958933 3.038144 0.649611
v -3.598533 2.080102 0.659085
v -3.598533 2.715830 0.659085
v -3.124425 2.715830 0.659083
v -3.124425 2.080102 0.659083
v -3.598532 2.715830 -0.900918
v -3.124424 2.715830 -0.900919
v -3.598532 2.080102 -0.900918
v -3.124424 2.080102 -0.900919
v -1.080490 1.303878 0.500002
v -1.080490 1.224412 0.500002
v -1.199018 1.303878 0.500004
v -1.080490 1.144946 0.500002
v -0.961966 1.144946 0.500004
v -0.961966 1.224412 0.500004
v -1.199018 1.144946 0.500004
v -1.317545 1.144946 0.500006
v -1.317545 1.303878 0.500006
v -1.436070 1.144946 0.500004
v -1.436070 1.303878 0.500004
v -1.317545 1.383344 0.500006
v -1.199018 1.383344 0.500004
v -1.317545 1.462810 0.500006
v -1.436070 1.462810 0.500004
v -1.199017 1.383344 -0.500000
v -1.317544 1.383344 -0.499997
v -1.199017 1.303878 -0.500000
v -1.317544 1.303878 -0.499997
v -1.317544 1.144946 -0.499997
v -1.436072 1.144946 -0.499995
v -1.436072 1.303878 -0.499995
v -1.199017 1.144946 -0.500000
v -1.080492 1.224412 -0.499997
v -1.080492 1.303878 -0.499997
v -1.080492 1.144946 -0.499997
v -0.961965 1.224412 -0.500000
v -0.961965 1.144946 -0.500000
v -1.317544 1.462810 -0.499997
v -1.436072 1.462810 -0.499995
v -3.133692 0.169104 -0.874352
v -3.607800 0.169104 -0.872696
v -3.605816 0.169104 1.648041
v -3.131710 0.169104 1.646382
v -3.133692 2.404175 -0.874352
v -3.131710 2.404175 1.646382
v -3.605816 2.404175 1.648041
v -3.607800 2.404175 -0.872696
v -3.597142 2.083281 1.663978
v -3.597142 2.719008 1.663978
v -3.123035 2.719008 1.663979
v -3.123035 2.083281 1.663979
v -3.597142 2.719008 0.663980
v -3.123034 2.719008 0.663979
v -3.597142 2.083281 0.663980
v -3.123034 2.083281 0.663979
v -3.125154 2.402689 0.346366
v -3.124645 2.402689 -0.653633
v -3.125154 2.403687 0.346366
v -3.124645 2.403687 -0.653633
v -2.650538 2.085824 -0.652553
v -2.650538 2.403687 -0.652553
v -2.651047 2.085824 0.347445
v -2.651047 2.403687 0.347445
v -2.767323 2.561348 0.347410
v -2.767323 2.481882 0.347410
v -2.885848 2.561348 0.347408
v -2.767323 2.402416 0.347410
v -2.648795 2.402416 0.347408
v -2.648795 2.481882 0.347408
v -2.885848 2.402416 0.347408
v -3.004375 2.402416 0.347410
v -3.004375 2.561348 0.347410
v -3.122902 2.402416 0.347412
v -3.122902 2.561348 0.347412
v -3.004375 2.640814 0.347410
v -2.885848 2.640814 0.347408
v -3.004375 2.720280 0.347410
v -3.122902 2.720280 0.347412
v -2.885851 2.640814 -0.652594
v -3.004378 2.640814 -0.652592
v -2.885851 2.561348 -0.652594
v -3.004378 2.561348 -0.652592
v -3.004378 2.402416 -0.652592
v -3.122905 2.402416 -0.652590
v -3.122905 2.561348 -0.652590
v -2.885851 2.402416 -0.652594
v -2.767326 2.481882 -0.652592
v -2.767326 2.561348 -0.652592
v -2.767326 2.402416 -0.652592
v -2.648798 2.481882 -0.652594
v -2.648798 2.402416 -0.652594
v -3.004378 2.720280 -0.652592
v -3.122905 2.720280 -0.652590
v -2.059189 -0.270207 0.414204
v -2.059189 1.638293 0.414204
v -1.506098 1.638293 0.414204
v -1.506098 -0.270207 0.414204
v -2.059189 1.638293 -1.298205
v -1.506099 1.638293 -1.298205
v -2.059189 -0.270207 -1.298205
v -1.506099 -0.270207 -1.298205
v -3.128077 -0.156389 -0.350832
v -3.602187 -0.156389 -0.349172
v -3.601398 -0.156389 0.650825
v -3.127292 -0.156389 0.649167
v -3.128077 2.078682 -0.350832
v -3.127292 2.078682 0.649167
v -3.601398 2.078682 0.650825
v -3.602187 2.078682 -0.349172
v -2.649293 -0.353487 0.646205
v -2.649293 1.555013 0.646205
v -1.424237 1.555013 0.646208
v -1.424237 -0.353487 0.646208
v -2.649294 1.555013 -1.066203
v -1.424236 1.555013 -1.066208
v -2.649294 -0.353487 -1.066203
v -1.424236 -0.353487 -1.066208
v -2.645734 -0.637037 0.341008
v -2.645734 2.081411 0.341008
v -2.171626 2.081411 0.341006
v -2.171626 -0.637037 0.341006
v -2.645732 2.081411 -0.658993
v -2.171624 2.081411 -0.658994
v -2.645732 -0.637037 -0.658993
v -2.171624 -0.637037 -0.658994
v -2.647954 2.396694 1.656426
v -2.647954 2.714558 1.656426
v -2.434580 2.714558 1.656433
v -2.434580 2.396694 1.656433
v -2.647953 2.714558 0.653711
v -2.434580 2.714558 0.653715
v -2.647953 2.396694 0.653711
v -2.434580 2.396694 0.653715
v -1.487071 3.032422 1.663424
v -1.487071 3.350286 1.663424
v -0.754556 3.350286 1.663424
v -0.754556 3.032422 1.663424
v -1.487071 3.350286 0.663420
v -0.754555 3.350286 0.663421
v -1.487071 3.032422 0.663420
v -0.754555 3.032422 0.663421
v -1.434042 1.142041 0.496779
v -1.433533 1.142041 -0.503220
v -1.434042 1.143039 0.496779
v -1.433533 1.143039 -0.503220
v -0.959426 0.825175 -0.502141
v -0.959426 1.143039 -0.502141
v -0.959936 0.825175 0.497855
v -0.959936 1.143039 0.497855
v -2.537706 -0.637037 0.320681
v -2.537706 2.081411 0.320681
v -2.063598 2.081411 0.320680
v -2.063598 -0.637037 0.320680
v -2.537704 2.081411 -0.679319
v -2.063596 2.081411 -0.679321
v -2.537704 -0.637037 -0.679319
v -2.063596 -0.637037 -0.679321
v -2.292243 2.242848 0.345843
v -2.292243 2.163382 0.345843
v -2.410771 2.242848 0.345845
v -2.292243 2.083916 0.345843
v -2.173715 2.083916 0.345843
v -2.173715 2.163382 0.345843
v -2.410771 2.083916 0.345845
v -2.529295 2.083916 0.345843
v -2.529295 2.242848 0.345843
v -2.647823 2.083916 0.345845
v -2.647823 2.242848 0.345845
v -2.529295 2.322314 0.345843
v -2.410771 2.322314 0.345845
v -2.529295 2.401780 0.345843
v -2.647823 2.401780 0.345845
v -2.410769 2.322314 -0.654156
v -2.529298 2.322314 -0.654156
v -2.410769 2.242848 -0.654156
v -2.529298 2.242848 -0.654156
v -2.529298 2.083916 -0.654156
v -2.647822 2.083916 -0.654159
v -2.647822 2.242848 -0.654159
v -2.410769 2.083916 -0.654156
v -2.292241 2.163382 -0.654158
v -2.292241 2.242848 -0.654158
v -2.292241 2.083916 -0.654158
v -2.173717 2.163382 -0.654156
v -2.173717 2.083916 -0.654156
v -2.529298 2.401780 -0.654156
v -2.647822 2.401780 -0.654159
v -2.060317 -0.453932 0.646207
v -2.060317 1.454568 0.646207
v -1.421533 1.454568 0.646210
v -1.421533 -0.453932 0.646210
v -2.060317 1.454568 -1.066201
v -1.421531 1.454568 -1.066203
v -2.060317 -0.453932 -1.066201
v -1.421531 -0.453932 -1.066203
v -2.438086 0.005048 1.656111
v -2.438086 2.723496 1.656111
v -1.963977 2.723496 1.656112
v -1.963977 0.005048 1.656112
v -2.438084 2.723496 0.656110
v -1.963976 2.723496 0.656108
v -2.438084 0.005048 0.656110
v -1.963976 0.005048 0.656108
v -3.398856 -0.410067 1.699625
v -3.398856 1.498433 1.699625
v -2.173800 1.498433 1.699627
v -2.173800 -0.410067 1.699627
v -3.398857 1.498433 -2.119626
v -2.173801 1.498433 -2.119623
v -3.398857 -0.410067 -2.119626
v -2.173801 -0.410067 -2.119623
v -0.604488 0.986650 0.500004
v -0.604488 0.907184 0.500004
v -0.723013 0.986650 0.500001
v -0.604488 0.827718 0.500004
v -0.485961 0.827718 0.500002
v -0.485961 0.907184 0.500002
v -0.723013 0.827718 0.500001
v -0.841540 0.827718 0.500004
v -0.841540 0.986650 0.500004
v -0.960067 0.827718 0.500006
v -0.960067 0.986650 0.500006
v -0.841540 1.066116 0.500004
v -0.723013 1.066116 0.500001
v -0.841540 1.145582 0.500004
v -0.960067 1.145582 0.500006
v -0.723015 1.066116 -0.499998
v -0.841542 1.066116 -0.499995
v -0.723015 0.986650 -0.499998
v -0.841542 0.986650 -0.499995
v -0.841542 0.827718 -0.499995
v -0.960067 0.827718 -0.499998
v -0.960067 0.986650 -0.499998
v -0.723015 0.827718 -0.499998
v -0.604487 0.907184 -0.500000
v -0.604487 0.986650 -0.500000
v -0.604487 0.827718 -0.500000
v -0.485963 0.907184 -0.499997
v -0.485963 0.827718 -0.499997
v -0.841542 1.145582 -0.499995
v -0.960067 1.145582 -0.499998
v 0.470946 -0.182136 0.499998
v 0.470946 0.817864 0.499998
v 1.109730 0.817864 0.500001
v 1.109730 -0.182136 0.500001
v 0.470946 0.817864 -0.499995
v 1.109730 0.817864 -0.499992
v 0.470946 -0.182136 -0.499995
v 1.109730 -0.182136 -0.499992
v -0.281620 3.032422 0.716400
v -0.281620 3.350286 0.716400
v 0.192487 3.350286 0.716396
v 0.192487 3.032422 0.716396
v -0.281619 3.350286 -0.548392
v 0.192488 3.350286 -0.548396
v -0.281619 3.032422 -0.548392
v 0.192488 3.032422 -0.548396
v -0.965700 -0.178322 0.500005
v -0.965700 0.821678 0.500005
v -0.478430 0.821678 0.500005
v -0.478430 -0.178322 0.500005
v -0.965699 0.821678 -0.499999
v -0.478429 0.821678 -0.499999
v -0.965699 -0.178322 -0.499999
v -0.478429 -0.178322 -0.499999
vt 0.522419 0.486771
vt 0.574221 0.466842
vt 0.574221 0.486771
vt 0.469412 0.486771
vt 0.469412 0.506701
vt 0.418043 0.486771
vt 1.445666 0.446912
vt 1.332451 0.466842
vt 1.332451 0.446912
vt -0.426125 0.486771
vt -0.317632 0.486771
vt -0.426125 0.506701
vt 0.104510 0.802138
vt 0.112030 0.782209
vt 0.112030 0.802138
vt 0.097906 0.802138
vt 0.097906 0.822068
vt 0.092065 0.802138
vt -0.084029 0.762279
vt -0.090256 0.782209
vt -0.090256 0.762279
vt -0.078588 0.802138
vt -0.073797 0.802138
vt -0.078588 0.822068
vt 0.142083 0.722260
vt 0.155863 0.702331
vt 0.155863 0.722260
vt 0.130414 0.722260
vt 0.130414 0.742190
vt 0.120430 0.722260
vt -0.116207 0.682401
vt -0.128093 0.702331
vt -0.128093 0.682401
vt -0.106263 0.722260
vt -0.097836 0.722260
vt -0.106263 0.742190
vt 0.702998 0.407212
vt 0.734662 0.387283
vt 0.734662 0.407212
vt 0.665882 0.407212
vt 0.665882 0.427142
vt 0.623065 0.407212
vt 1.160411 0.367353
vt 1.134611 0.387283
vt 1.134611 0.367353
vt 1.196909 0.407212
vt 1.250598 0.407212
vt 1.196909 0.427142
vt 0.877287 0.285163
vt 0.758546 0.285163
vt 0.758546 0.034368
vt 0.877287 0.034368
vt 1.052334 0.285163
vt 1.117613 0.285163
vt 1.052334 0.034368
vt 1.117613 0.034368
vt 0.459485 0.921716
vt 0.459485 0.921466
vt 0.415452 0.921466
vt 0.415452 0.921716
vt 0.383468 0.921716
vt 0.383468 0.841998
vt 0.280303 0.921716
vt 0.280303 0.841998
vt 0.138163 0.840882
vt 0.112807 0.840882
vt 0.112807 0.681444
vt 0.138163 0.681444
vt -0.112327 0.840882
vt -0.091007 0.840882
vt -0.112327 0.681444
vt -0.091007 0.681444
vt 0.574221 0.446912
vt 0.522419 0.446912
vt 0.622335 0.446912
vt 0.622335 0.466842
vt 0.469412 0.446912
vt 0.418043 0.446912
vt 0.522419 0.506701
vt 0.469412 0.526631
vt 0.418043 0.526631
vt 1.573875 0.486771
vt 1.573875 0.506701
vt 1.445666 0.506701
vt 1.445666 0.486771
vt 1.573875 0.446912
vt -0.426125 0.446912
vt -0.317632 0.446912
vt 1.332451 0.486771
vt 1.251648 0.466842
vt 1.251648 0.446912
vt -0.317632 0.526631
vt -0.426125 0.526631
vt 0.522419 0.506701
vt 0.212541 0.202176
vt -0.087150 0.202176
vt -0.107845 0.202176
vt 0.247793 0.202176
vt 0.212541 0.762720
vt 0.247793 0.762720
vt -0.107845 0.762720
vt -0.087150 0.762720
vt 0.250030 0.841679
vt 0.214436 0.841679
vt 0.214436 0.682242
vt 0.250030 0.682242
vt 0.138937 0.841679
vt 0.113452 0.841679
vt 0.138937 0.682242
vt 0.113452 0.682242
vt -0.073898 0.762598
vt -0.073898 0.762348
vt 0.091797 0.762348
vt 0.091797 0.762598
vt -0.097327 0.762598
vt -0.097327 0.682879
vt 0.120493 0.762598
vt 0.120493 0.682879
vt 0.112030 0.762279
vt 0.104510 0.762279
vt 0.120661 0.762279
vt 0.120661 0.782209
vt 0.097906 0.762279
vt 0.092065 0.762279
vt 0.104510 0.822068
vt 0.097906 0.841998
vt 0.092065 0.841998
vt -0.084029 0.822068
vt -0.084029 0.802138
vt -0.078588 0.762279
vt -0.073797 0.762279
vt -0.090256 0.802138
vt -0.097449 0.782209
vt -0.097449 0.762279
vt -0.073797 0.841998
vt -0.078588 0.841998
vt 0.375681 0.570641
vt 0.208995 0.570641
vt 0.208995 0.091999
vt 0.375681 0.091999
vt -0.426128 0.570641
vt -0.296262 0.570641
vt -0.426128 0.091999
vt -0.296262 0.091999
vt 0.111696 0.120544
vt -0.018772 0.120544
vt -0.023781 0.120544
vt 0.136591 0.120544
vt 0.111696 0.681088
vt 0.136591 0.681088
vt -0.023781 0.681088
vt -0.018772 0.681088
vt 0.435784 0.549755
vt 0.174722 0.549755
vt 0.174722 0.071113
vt 0.435784 0.071113
vt -0.435721 0.549755
vt -0.174658 0.549755
vt -0.435721 0.071113
vt -0.174658 0.071113
vt 0.171405 0.681773
vt 0.119641 0.681773
vt 0.119641 -0.000000
vt 0.171405 -0.000000
vt -0.144139 0.681773
vt -0.098973 0.681773
vt -0.144139 -0.000000
vt -0.098973 -0.000000
vt 0.319902 0.840563
vt 0.295297 0.840563
vt 0.295297 0.760844
vt 0.319902 0.760844
vt 0.200447 0.840563
vt 0.176097 0.840563
vt 0.200447 0.760844
vt 0.176097 0.760844
vt 0.582175 1.000000
vt 0.459803 1.000000
vt 0.459803 0.920281
vt 0.582175 0.920281
vt 0.664010 1.000000
vt 0.415339 1.000000
vt 0.664010 0.920281
vt 0.415339 0.920281
vt -0.321198 0.446434
vt -0.321198 0.446184
vt 0.418539 0.446184
vt 0.418539 0.446434
vt 1.251418 0.446434
vt 1.251418 0.366715
vt 1.678802 0.446184
vt 1.678802 0.446434
vt 0.623453 0.446434
vt 0.623453 0.366715
vt 1.678802 0.446434
vt 0.183831 0.681773
vt 0.124377 0.681773
vt 0.124377 -0.000000
vt 0.183831 -0.000000
vt -0.166352 0.681773
vt -0.111141 0.681773
vt -0.166352 -0.000000
vt -0.111141 -0.000000
vt 0.155863 0.682401
vt 0.142083 0.682401
vt 0.172315 0.682401
vt 0.172315 0.702331
vt 0.130414 0.682401
vt 0.120430 0.682401
vt 0.142083 0.742190
vt 0.130414 0.762120
vt 0.120430 0.762120
vt -0.116207 0.742190
vt -0.116207 0.722260
vt -0.106263 0.682401
vt -0.097836 0.682401
vt -0.128093 0.722260
vt -0.142505 0.702331
vt -0.142505 0.682401
vt -0.097836 0.762120
vt -0.106263 0.762120
vt 0.436750 0.524564
vt 0.258606 0.524564
vt 0.258606 0.045922
vt 0.436750 0.045922
vt -0.436687 0.524564
vt -0.258541 0.524564
vt -0.436687 0.045922
vt -0.258541 0.045922
vt 0.383572 0.842804
vt 0.319451 0.842804
vt 0.319451 0.161032
vt 0.383572 0.161032
vt 0.280374 0.842804
vt 0.200420 0.842804
vt 0.280374 0.161032
vt 0.200420 0.161032
vt 0.356480 0.535565
vt 0.231219 0.535565
vt 0.231219 0.056923
vt 0.356480 0.056923
vt -0.356416 0.535565
vt -0.231156 0.535565
vt -0.356416 0.056923
vt -0.231156 0.056923
vt 0.734662 0.367353
vt 0.702998 0.367353
vt 0.761495 0.367353
vt 0.761495 0.387283
vt 0.665882 0.367353
vt 0.623065 0.367353
vt 0.702998 0.427142
vt 0.665882 0.447072
vt 0.623065 0.447072
vt 1.160411 0.427142
vt 1.160411 0.407212
vt 1.196909 0.367353
vt 1.250598 0.367353
vt 1.134611 0.407212
vt 1.115636 0.387283
vt 1.115636 0.367353
vt 1.250598 0.447072
vt 1.196909 0.447072
vt 0.906965 0.364882
vt 0.875418 0.364882
vt 0.875418 0.114087
vt 0.906965 0.114087
vt 1.038970 0.364882
vt 1.053200 0.364882
vt 1.038970 0.114087
vt 1.053200 0.114087
vt 0.818216 1.000000
vt 0.756925 1.000000
vt 0.756925 0.920281
vt 0.818216 0.920281
vt 1.073426 1.000000
vt 1.107139 1.000000
vt 1.073426 0.920281
vt 1.107139 0.920281
vt 0.763053 0.365838
vt 0.620893 0.365838
vt 0.620893 0.115043
vt 0.763053 0.115043
vt 1.114602 0.365838
vt 1.253731 0.365838
vt 1.114602 0.115043
vt 1.253731 0.115043
vn 0.000000 0.000000 1.000000
vn 0.000000 0.000000 1.000000
vn 0.000000 0.000000 1.000000
vn 0.000000 0.000000 1.000000
vn 0.000000 0.000000 1.000000
vn 0.000000 0.000000 1.000000
vn 0.000000 0.000000 -1.000000
vn 0.000000 0.000000 -1.000000
vn 0.000000 0.000000 -1.000000
vn 0.000000 0.000000 -1.000000
vn 0.000000 0.000000 -1.000000
vn 0.000000 0.000000 -1.000000
vn 0.000000 0.000000 1.000000
vn 0.000000 0.000000 1.000000
vn 0.000000 0.000000 1.000000
vn 0.000000 0.000000 1.000000
vn 0.000000 0.000000 1.000000
vn 0.000000 0.000000 1.000000
vn 0.000000 0.000000 -1.000000
vn 0.000000 0.000000 -1.000000
vn 0.000000 0.000000 -1.000000
vn 0.000000 0.000000 -1.000000
vn 0.000000 0.000000 -1.000000
vn 0.000000 0.000000 -1.000000
vn 0.000000 0.000000 1.000000
vn 0.000000 0.000000 1.000000
vn 0.000000 0.000000 1.000000
vn 0.000000 0.000000 1.000000
vn 0.000000 0.000000 1.000000
vn 0.000000 0.000000 1.000000
vn 0.000000 0.000000 -1.000000
vn 0.000000 0.000000 -1.000000
vn 0.000000 0.000000 -1.000000
vn 0.000000 0.000000 -1.000000
vn 0.000000 0.000000 -1.000000
vn 0.000000 0.000000 -1.000000
vn 0.000000 0.000000 1.000000
vn 0.000000 0.000000 1.000000
vn 0.000000 0.000000 1.000000
vn 0.000000 0.000000 1.000000
vn 0.000000 0.000000 1.000000
vn 0.000000 0.000000 1.000000
vn 0.000000 0.000000 -1.000000
vn 0.000000 0.000000 -1.000000
vn 0.000000 0.000000 -1.000000
vn 0.000000 0.000000 -1.000000
vn 0.000000 0.000000 -1.000000
vn 0.000000 0.000000 -1.000000
vn 0.000000 0.000000 1.000000
vn 0.000000 0.000000 1.000000
vn 0.000000 0.000000 1.000000
vn 0.000000 0.000000 1.000000
vn 0.000000 0.000000 1.000000
vn 0.000000 0.000000 1.000000
vn 0.000000 1.000000 0.000000
vn 0.000000 1.000000 0.000000
vn 0.000000 1.000000 0.000000
vn 0.000000 1.000000 0.000000
vn 0.000000 1.000000 0.000000
vn 0.000000 1.000000 0.000000
vn 0.000000 0.000000 -1.000000
vn 0.000000 0.000000 -1.000000
vn 0.000000 0.000000 -1.000000
vn 0.000000 0.000000 -1.000000
vn 0.000000 0.000000 -1.000000
vn 0.000000 0.000000 -1.000000
vn 0.000000 -1.000000 0.000000
vn 0.000000 -1.000000 0.000000
vn 0.000000 -1.000000 0.000000
vn 0.000000 -1.000000 0.000000
vn 0.000000 -1.000000 0.000000
vn 0.000000 -1.000000 0.000000
vn 1.000000 0.000000 0.000000
vn 1.000000 0.000000 0.000000
vn 1.000000 0.000000 0.000000
vn 1.000000 0.000000 0.000000
vn 1.000000 0.000000 0.000000
vn 1.000000 0.000000 0.000000
vn -1.000000 0.000000 0.000000
vn -1.000000 0.000000 0.000000
vn -1.000000 0.000000 0.000000
vn -1.000000 0.000000 0.000000
vn -1.000000 0.000000 0.000000
vn -1.000000 0.000000 0.000000
vn 0.999995 0.000000 0.003239
vn 0.999995 0.000000 0.003239
vn 0.999995 0.000000 0.003239
vn 0.999995 0.000000 0.003239
vn 0.999995 0.000000 0.003239
vn 0.999995 0.000000 0.003239
vn -0.014409 0.000000 0.999896
vn -0.014409 0.000000 0.999896
vn -0.014409 0.000000 0.999896
vn -0.014409 0.000000 0.999896
vn -0.014409 0.000000 0.999896
vn -0.014409 0.000000 0.999896
vn -0.999995 0.000000 -0.003239
vn -0.999995 0.000000 -0.003239
vn -0.999995 0.000000 -0.003239
vn -0.999995 0.000000 -0.003239
vn -0.999995 0.000000 -0.003239
vn -0.999995 0.000000 -0.003239
vn 0.014410 0.000000 -0.999896
vn 0.014410 0.000000 -0.999896
vn 0.014410 0.000000 -0.999896
vn 0.014410 0.000000 -0.999896
vn 0.014410 0.000000 -0.999896
vn 0.014410 0.000000 -0.999896
vn 0.000000 1.000000 0.000000
vn 0.000000 1.000000 0.000000
vn 0.000000 1.000000 0.000000
vn 0.000000 1.000000 0.000000
vn 0.000000 1.000000 0.000000
vn 0.000000 1.000000 0.000000
vn 0.555655 -0.831411 0.001800
vn 0.555655 -0.831411 0.001800
vn 0.555655 -0.831411 0.001800
vn 0.555655 -0.831411 0.001800
vn 0.555655 -0.831411 0.001800
vn 0.555655 -0.831411 0.001800
vn 0.000000 0.000000 1.000000
vn 0.000000 0.000000 1.000000
vn 0.000000 0.000000 1.000000
vn 0.000000 0.000000 1.000000
vn 0.000000 0.000000 1.000000
vn 0.000000 0.000000 1.000000
vn 0.000000 1.000000 0.000000
vn 0.000000 1.000000 0.000000
vn 0.000000 1.000000 0.000000
vn 0.000000 1.000000 0.000000
vn 0.000000 1.000000 0.000000
vn 0.000000 1.000000 0.000000
vn 0.000000 0.000000 -1.000000
vn 0.000000 0.000000 -1.000000
vn 0.000000 0.000000 -1.000000
vn 0.000000 0.000000 -1.000000
vn 0.000000 0.000000 -1.000000
vn 0.000000 0.000000 -1.000000
vn 0.000000 -1.000000 0.000000
vn 0.000000 -1.000000 0.000000
vn 0.000000 -1.000000 0.000000
vn 0.000000 -1.000000 0.000000
vn 0.000000 -1.000000 0.000000
vn 0.000000 -1.000000 0.000000
vn 1.000000 0.000000 0.000000
vn 1.000000 0.000000 0.000000
vn 1.000000 0.000000 0.000000
vn 1.000000 0.000000 0.000000
vn 1.000000 0.000000 0.000000
vn 1.000000 0.000000 0.000000
vn -1.000000 0.000000 0.000000
vn -1.000000 0.000000 0.000000
vn -1.000000 0.000000 0.000000
vn -1.000000 0.000000 0.000000
vn -1.000000 0.000000 0.000000
vn -1.000000 0.000000 0.000000
vn 0.000000 0.000000 1.000000
vn 0.000000 0.000000 1.000000
vn 0.000000 0.000000 1.000000
vn 0.000000 0.000000 1.000000
vn 0.000000 0.000000 1.000000
vn 0.000000 0.000000 1.000000
vn 0.000000 0.000000 1.000000
vn 0.000000 0.000000 1.000000
vn 0.000000 0.000000 1.000000
vn 0.000000 0.000000 1.000000
vn 0.000000 0.000000 1.000000
vn 0.000000 0.000000 1.000000
vn 0.000000 0.000000 1.000000
vn 0.000000 0.000000 1.000000
vn 0.000000 0.000000 1.000000
vn 0.000000 0.000000 1.000000
vn 0.000000 0.000000 1.000000
vn 0.000000 0.000000 1.000000
vn 0.000000 0.000000 1.000000
vn 0.000000 0.000000 1.000000
vn 0.000000 0.000000 1.000000
vn 0.000000 0.000000 1.000000
vn 0.000000 0.000000 1.000000
vn 0.000000 0.000000 1.000000
vn 0.000000 0.000000 1.000000
vn 0.000000 0.000000 1.000000
vn 0.000000 0.000000 1.000000
vn 0.000000 0.000000 1.000000
vn 0.000000 0.000000 1.000000
vn 0.000000 0.000000 1.000000
vn 0.000000 0.000000 1.000000
vn 0.000000 0.000000 1.000000
vn 0.000000 0.000000 1.000000
vn 0.000000 0.000000 1.000000
vn 0.000000 0.000000 1.000000
vn 0.000000 0.000000 1.000000
vn 0.000000 0.000000 -1.000000
vn 0.000000 0.000000 -1.000000
vn 0.000000 0.000000 -1.000000
vn 0.000000 0.000000 -1.000000
vn 0.000000 0.000000 -1.000000
vn 0.000000 0.000000 -1.000000
vn 0.000000 0.000000 -1.000000
vn 0.000000 0.000000 -1.000000
vn 0.000000 0.000000 -1.000000
vn 0.000000 0.000000 -1.000000
vn 0.000000 0.000000 -1.000000
vn 0.000000 0.000000 -1.000000
vn 0.000000 0.000000 -1.000000
vn 0.000000 0.000000 -1.000000
vn 0.000000 0.000000 -1.000000
vn 0.000000 0.000000 -1.000000
vn 0.000000 0.000000 -1.000000
vn 0.000000 0.000000 -1.000000
vn 0.000000 0.000000 -1.000000
vn 0.000000 0.000000 -1.000000
vn 0.000000 0.000000 -1.000000
vn 0.000000 0.000000 -1.000000
vn 0.000000 0.000000 -1.000000
vn 0.000000 0.000000 -1.000000
vn 0.000000 0.000000 -1.000000
vn 0.000000 0.000000 -1.000000
vn 0.000000 0.000000 -1.000000
vn 0.000000 0.000000 -1.000000
vn 0.000000 0.000000 -1.000000
vn 0.000000 0.000000 -1.000000
vn 0.000000 0.000000 -1.000000
vn 0.000000 0.000000 -1.000000
vn 0.000000 0.000000 -1.000000
vn 0.000000 0.000000 -1.000000
vn 0.000000 0.000000 -1.000000
vn 0.000000 0.000000 -1.000000
vn 1.000000 0.000000 0.000000
vn 1.000000 0.000000 0.000000
vn 1.000000 0.000000 0.000000
vn 1.000000 0.000000 0.000000
vn 1.000000 0.000000 0.000000
vn 1.000000 0.000000 0.000000
vn 0.000000 1.000000 0.000000
vn 0.000000 1.000000 0.000000
vn 0.000000 1.000000 0.000000
vn 0.000000 1.000000 0.000000
vn 0.000000 1.000000 0.000000
vn 0.000000 1.000000 0.000000
vn 1.000000 0.000000 0.000000
vn 1.000000 0.000000 0.000000
vn 1.000000 0.000000 0.000000
vn 1.000000 0.000000 0.000000
vn 1.000000 0.000000 0.000000
vn 1.000000 0.000000 0.000000
vn 0.000000 1.000000 0.000000
vn 0.000000 1.000000 0.000000
vn 0.000000 1.000000 0.000000
vn 0.000000 1.000000 0.000000
vn 0.000000 1.000000 0.000000
vn 0.000000 1.000000 0.000000
vn 1.000000 0.000000 0.000000
vn 1.000000 0.000000 0.000000
vn 1.000000 0.000000 0.000000
vn 1.000000 0.000000 0.000000
vn 1.000000 0.000000 0.000000
vn 1.000000 0.000000 0.000000
vn 0.000000 1.000000 0.000000
vn 0.000000 1.000000 0.000000
vn 0.000000 1.000000 0.000000
vn 0.000000 1.000000 0.000000
vn 0.000000 1.000000 0.000000
vn 0.000000 1.000000 0.000000
vn 1.000000 0.000000 0.000000
vn 1.000000 0.000000 0.000000
vn 1.000000 0.000000 0.000000
vn 1.000000 0.000000 0.000000
vn 1.000000 0.000000 0.000000
vn 1.000000 0.000000 0.000000
vn 0.000000 1.000000 0.000000
vn 0.000000 1.000000 0.000000
vn 0.000000 1.000000 0.000000
vn 0.000000 1.000000 0.000000
vn 0.000000 1.000000 0.000000
vn 0.000000 1.000000 0.000000
vn 0.000000 -1.000000 0.000000
vn 0.000000 -1.000000 0.000000
vn 0.000000 -1.000000 0.000000
vn 0.000000 -1.000000 0.000000
vn 0.000000 -1.000000 0.000000
vn 0.000000 -1.000000 0.000000
vn 0.000000 -1.000000 0.000000
vn 0.000000 -1.000000 0.000000
vn 0.000000 -1.000000 0.000000
vn 0.000000 -1.000000 0.000000
vn 0.000000 -1.000000 0.000000
vn 0.000000 -1.000000 0.000000
vn 0.000000 -1.000000 0.000000
vn 0.000000 -1.000000 0.000000
vn 0.000000 -1.000000 0.000000
vn 0.000000 -1.000000 0.000000
vn 0.000000 -1.000000 0.000000
vn 0.000000 -1.000000 0.000000
vn 0.000000 -1.000000 0.000000
vn 0.000000 -1.000000 0.000000
vn 0.000000 -1.000000 0.000000
vn 0.000000 -1.000000 0.000000
vn 0.000000 -1.000000 0.000000
vn 0.000000 -1.000000 0.000000
vn -1.000000 0.000000 0.000000
vn -1.000000 0.000000 0.000000
vn -1.000000 0.000000 0.000000
vn -1.000000 0.000000 0.000000
vn -1.000000 0.000000 0.000000
vn -1.000000 0.000000 0.000000
vn -1.000000 0.000000 0.000000
vn -1.000000 0.000000 0.000000
vn -1.000000 0.000000 0.000000
vn -1.000000 0.000000 0.000000
vn -1.000000 0.000000 0.000000
vn -1.000000 0.000000 0.000000
vn 0.000000 -1.000000 0.000000
vn 0.000000 -1.000000 0.000000
vn 0.000000 -1.000000 0.000000
vn 0.000000 -1.000000 0.000000
vn 0.000000 -1.000000 0.000000
vn 0.000000 -1.000000 0.000000
vn 0.000000 1.000000 0.000000
vn 0.000000 1.000000 0.000000
vn 0.000000 1.000000 0.000000
vn 0.000000 1.000000 0.000000
vn 0.000000 1.000000 0.000000
vn 0.000000 1.000000 0.000000
vn -0.003493 0.000000 -0.999994
vn -0.003493 0.000000 -0.999994
vn -0.003493 0.000000 -0.999994
vn -0.003493 0.000000 -0.999994
vn -0.003493 0.000000 -0.999994
vn -0.003493 0.000000 -0.999994
vn -1.000000 0.000000 0.000787
vn -1.000000 0.000000 0.000787
vn -1.000000 0.000000 0.000787
vn -1.000000 0.000000 0.000787
vn -1.000000 0.000000 0.000787
vn -1.000000 0.000000 0.000787
vn 0.003499 0.000000 0.999994
vn 0.003499 0.000000 0.999994
vn 0.003499 0.000000 0.999994
vn 0.003499 0.000000 0.999994
vn 0.003499 0.000000 0.999994
vn 0.003499 0.000000 0.999994
vn 1.000000 0.000000 -0.000786
vn 1.000000 0.000000 -0.000786
vn 1.000000 0.000000 -0.000786
vn 1.000000 0.000000 -0.000786
vn 1.000000 0.000000 -0.000786
vn 1.000000 0.000000 -0.000786
vn 0.000000 0.000000 1.000000
vn 0.000000 0.000000 1.000000
vn 0.000000 0.000000 1.000000
vn 0.000000 0.000000 1.000000
vn 0.000000 0.000000 1.000000
vn 0.000000 0.000000 1.000000
vn 0.000000 1.000000 0.000000
vn 0.000000 1.000000 0.000000
vn 0.000000 1.000000 0.000000
vn 0.000000 1.000000 0.000000
vn 0.000000 1.000000 0.000000
vn 0.000000 1.000000 0.000000
vn 0.000000 0.000000 -1.000000
vn 0.000000 0.000000 -1.000000
vn 0.000000 0.000000 -1.000000
vn 0.000000 0.000000 -1.000000
vn 0.000000 0.000000 -1.000000
vn 0.000000 0.000000 -1.000000
vn 0.000000 -1.000000 0.000000
vn 0.000000 -1.000000 0.000000
vn 0.000000 -1.000000 0.000000
vn 0.000000 -1.000000 0.000000
vn 0.000000 -1.000000 0.000000
vn 0.000000 -1.000000 0.000000
vn 1.000000 0.000000 0.000000
vn 1.000000 0.000000 0.000000
vn 1.000000 0.000000 0.000000
vn 1.000000 0.000000 0.000000
vn 1.000000 0.000000 0.000000
vn 1.000000 0.000000 0.000000
vn -1.000000 0.000000 0.000000
vn -1.000000 0.000000 0.000000
vn -1.000000 0.000000 0.000000
vn -1.000000 0.000000 0.000000
vn -1.000000 0.000000 0.000000
vn -1.000000 0.000000 0.000000
vn -1.000000 0.000000 -0.000509
vn -1.000000 0.000000 -0.000509
vn -1.000000 0.000000 -0.000509
vn -1.000000 0.000000 -0.000509
vn -1.000000 0.000000 -0.000509
vn -1.000000 0.000000 -0.000509
vn 0.002277 0.000000 -0.999997
vn 0.002277 0.000000 -0.999997
vn 0.002277 0.000000 -0.999997
vn 0.002277 0.000000 -0.999997
vn 0.002277 0.000000 -0.999997
vn 0.002277 0.000000 -0.999997
vn 1.000000 0.000000 0.000509
vn 1.000000 0.000000 0.000509
vn 1.000000 0.000000 0.000509
vn 1.000000 0.000000 0.000509
vn 1.000000 0.000000 0.000509
vn 1.000000 0.000000 0.000509
vn -0.002276 0.000000 0.999997
vn -0.002276 0.000000 0.999997
vn -0.002276 0.000000 0.999997
vn -0.002276 0.000000 0.999997
vn -0.002276 0.000000 0.999997
vn -0.002276 0.000000 0.999997
vn 0.000000 1.000000 0.000000
vn 0.000000 1.000000 0.000000
vn 0.000000 1.000000 0.000000
vn 0.000000 1.000000 0.000000
vn 0.000000 1.000000 0.000000
vn 0.000000 1.000000 0.000000
vn -0.555664 -0.831407 -0.000283
vn -0.555664 -0.831407 -0.000283
vn -0.555664 -0.831407 -0.000283
vn -0.555664 -0.831407 -0.000283
vn -0.555664 -0.831407 -0.000283
vn -0.555664 -0.831407 -0.000283
vn 0.000000 0.000000 1.000000
vn 0.000000 0.000000 1.000000
vn 0.000000 0.000000 1.000000
vn 0.000000 0.000000 1.000000
vn 0.000000 0.000000 1.000000
vn 0.000000 0.000000 1.000000
vn 0.000000 0.000000 1.000000
vn 0.000000 0.000000 1.000000
vn 0.000000 0.000000 1.000000
vn 0.000000 0.000000 1.000000
vn 0.000000 0.000000 1.000000
vn 0.000000 0.000000 1.000000
vn 0.000000 0.000000 1.000000
vn 0.000000 0.000000 1.000000
vn 0.000000 0.000000 1.000000
vn 0.000000 0.000000 1.000000
vn 0.000000 0.000000 1.000000
vn 0.000000 0.000000 1.000000
vn 0.000000 0.000000 1.000000
vn 0.000000 0.000000 1.000000
vn 0.000000 0.000000 1.000000
vn 0.000000 0.000000 1.000000
vn 0.000000 0.000000 1.000000
vn 0.000000 0.000000 1.000000
vn 0.000000 0.000000 1.000000
vn 0.000000 0.000000 1.000000
vn 0.000000 0.000000 1.000000
vn 0.000000 0.000000 1.000000
vn 0.000000 0.000000 1.000000
vn 0.000000 0.000000 1.000000
vn 0.000000 0.000000 1.000000
vn 0.000000 0.000000 1.000000
vn 0.000000 0.000000 1.000000
vn 0.000000 0.000000 1.000000
vn 0.000000 0.000000 1.000000
vn 0.000000 0.000000 1.000000
vn 0.000000 0.000000 -1.000000
vn 0.000000 0.000000 -1.000000
vn 0.000000 0.000000 -1.000000
vn 0.000000 0.000000 -1.000000
vn 0.000000 0.000000 -1.000000
vn 0.000000 0.000000 -1.000000
vn 0.000000 0.000000 -1.000000
vn 0.000000 0.000000 -1.000000
vn 0.000000 0.000000 -1.000000
vn 0.000000 0.000000 -1.000000
vn 0.000000 0.000000 -1.000000
vn 0.000000 0.000000 -1.000000
vn 0.000000 0.000000 -1.000000
vn 0.000000 0.000000 -1.000000
vn 0.000000 0.000000 -1.000000
vn 0.000000 0.000000 -1.000000
vn 0.000000 0.000000 -1.000000
vn 0.000000 0.000000 -1.000000
vn 0.000000 0.000000 -1.000000
vn 0.000000 0.000000 -1.000000
vn 0.000000 0.000000 -1.000000
vn 0.000000 0.000000 -1.000000
vn 0.000000 0.000000 -1.000000
vn 0.000000 0.000000 -1.000000
vn 0.000000 0.000000 -1.000000
vn 0.000000 0.000000 -1.000000
vn 0.000000 0.000000 -1.000000
vn 0.000000 0.000000 -1.000000
vn 0.000000 0.000000 -1.000000
vn 0.000000 0.000000 -1.000000
vn 0.000000 0.000000 -1.000000
vn 0.000000 0.000000 -1.000000
vn 0.000000 0.000000 -1.000000
vn 0.000000 0.000000 -1.000000
vn 0.000000 0.000000 -1.000000
vn 0.000000 0.000000 -1.000000
vn 1.000000 0.000000 0.000000
vn 1.000000 0.000000 0.000000
vn 1.000000 0.000000 0.000000
vn 1.000000 0.000000 0.000000
vn 1.000000 0.000000 0.000000
vn 1.000000 0.000000 0.000000
vn 0.000000 1.000000 0.000000
vn 0.000000 1.000000 0.000000
vn 0.000000 1.000000 0.000000
vn 0.000000 1.000000 0.000000
vn 0.000000 1.000000 0.000000
vn 0.000000 1.000000 0.000000
vn 1.000000 0.000000 0.000000
vn 1.000000 0.000000 0.000000
vn 1.000000 0.000000 0.000000
vn 1.000000 0.000000 0.000000
vn 1.000000 0.000000 0.000000
vn 1.000000 0.000000 0.000000
vn 0.000000 1.000000 0.000000
vn 0.000000 1.000000 0.000000
vn 0.000000 1.000000 0.000000
vn 0.000000 1.000000 0.000000
vn 0.000000 1.000000 0.000000
vn 0.000000 1.000000 0.000000
vn 1.000000 0.000000 0.000000
vn 1.000000 0.000000 0.000000
vn 1.000000 0.000000 0.000000
vn 1.000000 0.000000 0.000000
vn 1.000000 0.000000 0.000000
vn 1.000000 0.000000 0.000000
vn 0.000000 1.000000 0.000000
vn 0.000000 1.000000 0.000000
vn 0.000000 1.000000 0.000000
vn 0.000000 1.000000 0.000000
vn 0.000000 1.000000 0.000000
vn 0.000000 1.000000 0.000000
vn 1.000000 0.000000 0.000000
vn 1.000000 0.000000 0.000000
vn 1.000000 0.000000 0.000000
vn 1.000000 0.000000 0.000000
vn 1.000000 0.000000 0.000000
vn 1.000000 0.000000 0.000000
vn 0.000000 1.000000 0.000000
vn 0.000000 1.000000 0.000000
vn 0.000000 1.000000 0.000000
vn 0.000000 1.000000 0.000000
vn 0.000000 1.000000 0.000000
vn 0.000000 1.000000 0.000000
vn 0.000000 -1.000000 0.000000
vn 0.000000 -1.000000 0.000000
vn 0.000000 -1.000000 0.000000
vn 0.000000 -1.000000 0.000000
vn 0.000000 -1.000000 0.000000
vn 0.000000 -1.000000 0.000000
vn 0.000000 -1.000000 0.000000
vn 0.000000 -1.000000 0.000000
vn 0.000000 -1.000000 0.000000
vn 0.000000 -1.000000 0.000000
vn 0.000000 -1.000000 0.000000
vn 0.000000 -1.000000 0.000000
vn 0.000000 -1.000000 0.000000
vn 0.000000 -1.000000 0.000000
vn 0.000000 -1.000000 0.000000
vn 0.000000 -1.000000 0.000000
vn 0.000000 -1.000000 0.000000
vn 0.000000 -1.000000 0.000000
vn 0.000000 -1.000000 0.000000
vn 0.000000 -1.000000 0.000000
vn 0.000000 -1.000000 0.000000
vn 0.000000 -1.000000 0.000000
vn 0.000000 -1.000000 0.000000
vn 0.000000 -1.000000 0.000000
vn -1.000000 0.000000 0.000000
vn -1.000000 0.000000 0.000000
vn -1.000000 0.000000 0.000000
vn -1.000000 0.000000 0.000000
vn -1.000000 0.000000 0.000000
vn -1.000000 0.000000 0.000000
vn -1.000000 0.000000 0.000000
vn -1.000000 0.000000 0.000000
vn -1.000000 0.000000 0.000000
vn -1.000000 0.000000 0.000000
vn -1.000000 0.000000 0.000000
vn -1.000000 0.000000 0.000000
vn 0.000000 0.000000 1.000000
vn 0.000000 0.000000 1.000000
vn 0.000000 0.000000 1.000000
vn 0.000000 0.000000 1.000000
vn 0.000000 0.000000 1.000000
vn 0.000000 0.000000 1.000000
vn 0.000000 1.000000 0.000000
vn 0.000000 1.000000 0.000000
vn 0.000000 1.000000 0.000000
vn 0.000000 1.000000 0.000000
vn 0.000000 1.000000 0.000000
vn 0.000000 1.000000 0.000000
vn 0.000000 0.000000 -1.000000
vn 0.000000 0.000000 -1.000000
vn 0.000000 0.000000 -1.000000
vn 0.000000 0.000000 -1.000000
vn 0.000000 0.000000 -1.000000
vn 0.000000 0.000000 -1.000000
vn 0.000000 -1.000000 0.000000
vn 0.000000 -1.000000 0.000000
vn 0.000000 -1.000000 0.000000
vn 0.000000 -1.000000 0.000000
vn 0.000000 -1.000000 0.000000
vn 0.000000 -1.000000 0.000000
vn 1.000000 0.000000 0.000000
vn 1.000000 0.000000 0.000000
vn 1.000000 0.000000 0.000000
vn 1.000000 0.000000 0.000000
vn 1.000000 0.000000 0.000000
vn 1.000000 0.000000 0.000000
vn -1.000000 0.000000 0.000000
vn -1.000000 0.000000 0.000000
vn -1.000000 0.000000 0.000000
vn -1.000000 0.000000 0.000000
vn -1.000000 0.000000 0.000000
vn -1.000000 0.000000 0.000000
vn 0.000000 -1.000000 0.000000
vn 0.000000 -1.000000 0.000000
vn 0.000000 -1.000000 0.000000
vn 0.000000 -1.000000 0.000000
vn 0.000000 -1.000000 0.000000
vn 0.000000 -1.000000 0.000000
vn 0.000000 1.000000 0.000000
vn 0.000000 1.000000 0.000000
vn 0.000000 1.000000 0.000000
vn 0.000000 1.000000 0.000000
vn 0.000000 1.000000 0.000000
vn 0.000000 1.000000 0.000000
vn -0.003502 0.000000 -0.999994
vn -0.003502 0.000000 -0.999994
vn -0.003502 0.000000 -0.999994
vn -0.003502 0.000000 -0.999994
vn -0.003502 0.000000 -0.999994
vn -0.003502 0.000000 -0.999994
vn -1.000000 0.000000 0.000787
vn -1.000000 0.000000 0.000787
vn -1.000000 0.000000 0.000787
vn -1.000000 0.000000 0.000787
vn -1.000000 0.000000 0.000787
vn -1.000000 0.000000 0.000787
vn 0.003499 0.000000 0.999994
vn 0.003499 0.000000 0.999994
vn 0.003499 0.000000 0.999994
vn 0.003499 0.000000 0.999994
vn 0.003499 0.000000 0.999994
vn 0.003499 0.000000 0.999994
vn 1.000000 0.000000 -0.000786
vn 1.000000 0.000000 -0.000786
vn 1.000000 0.000000 -0.000786
vn 1.000000 0.000000 -0.000786
vn 1.000000 0.000000 -0.000786
vn 1.000000 0.000000 -0.000786
vn 0.000000 0.000000 1.000000
vn 0.000000 0.000000 1.000000
vn 0.000000 0.000000 1.000000
vn 0.000000 0.000000 1.000000
vn 0.000000 0.000000 1.000000
vn 0.000000 0.000000 1.000000
vn 0.000000 1.000000 0.000000
vn 0.000000 1.000000 0.000000
vn 0.000000 1.000000 0.000000
vn 0.000000 1.000000 0.000000
vn 0.000000 1.000000 0.000000
vn 0.000000 1.000000 0.000000
vn 0.000000 0.000000 -1.000000
vn 0.000000 0.000000 -1.000000
vn 0.000000 0.000000 -1.000000
vn 0.000000 0.000000 -1.000000
vn 0.000000 0.000000 -1.000000
vn 0.000000 0.000000 -1.000000
vn 0.000000 -1.000000 0.000000
vn 0.000000 -1.000000 0.000000
vn 0.000000 -1.000000 0.000000
vn 0.000000 -1.000000 0.000000
vn 0.000000 -1.000000 0.000000
vn 0.000000 -1.000000 0.000000
vn 1.000000 0.000000 0.000000
vn 1.000000 0.000000 0.000000
vn 1.000000 0.000000 0.000000
vn 1.000000 0.000000 0.000000
vn 1.000000 0.000000 0.000000
vn 1.000000 0.000000 0.000000
vn -1.000000 0.000000 0.000000
vn -1.000000 0.000000 0.000000
vn -1.000000 0.000000 0.000000
vn -1.000000 0.000000 0.000000
vn -1.000000 0.000000 0.000000
vn -1.000000 0.000000 0.000000
vn 0.000000 0.000000 1.000000
vn 0.000000 0.000000 1.000000
vn 0.000000 0.000000 1.000000
vn 0.000000 0.000000 1.000000
vn 0.000000 0.000000 1.000000
vn 0.000000 0.000000 1.000000
vn 0.000000 1.000000 0.000000
vn 0.000000 1.000000 0.000000
vn 0.000000 1.000000 0.000000
vn 0.000000 1.000000 0.000000
vn 0.000000 1.000000 0.000000
vn 0.000000 1.000000 0.000000
vn 0.000000 0.000000 -1.000000
vn 0.000000 0.000000 -1.000000
vn 0.000000 0.000000 -1.000000
vn 0.000000 0.000000 -1.000000
vn 0.000000 0.000000 -1.000000
vn 0.000000 0.000000 -1.000000
vn 0.000000 -1.000000 0.000000
vn 0.000000 -1.000000 0.000000
vn 0.000000 -1.000000 0.000000
vn 0.000000 -1.000000 0.000000
vn 0.000000 -1.000000 0.000000
vn 0.000000 -1.000000 0.000000
vn 1.000000 0.000000 0.000000
vn 1.000000 0.000000 0.000000
vn 1.000000 0.000000 0.000000
vn 1.000000 0.000000 0.000000
vn 1.000000 0.000000 0.000000
vn 1.000000 0.000000 0.000000
vn -1.000000 0.000000 0.000000
vn -1.000000 0.000000 0.000000
vn -1.000000 0.000000 0.000000
vn -1.000000 0.000000 0.000000
vn -1.000000 0.000000 0.000000
vn -1.000000 0.000000 0.000000
vn 0.000000 0.000000 1.000000
vn 0.000000 0.000000 1.000000
vn 0.000000 0.000000 1.000000
vn 0.000000 0.000000 1.000000
vn 0.000000 0.000000 1.000000
vn 0.000000 0.000000 1.000000
vn 0.000000 1.000000 0.000000
vn 0.000000 1.000000 0.000000
vn 0.000000 1.000000 0.000000
vn 0.000000 1.000000 0.000000
vn 0.000000 1.000000 0.000000
vn 0.000000 1.000000 0.000000
vn 0.000000 0.000000 -1.000000
vn 0.000000 0.000000 -1.000000
vn 0.000000 0.000000 -1.000000
vn 0.000000 0.000000 -1.000000
vn 0.000000 0.000000 -1.000000
vn 0.000000 0.000000 -1.000000
vn 0.000000 -1.000000 0.000000
vn 0.000000 -1.000000 0.000000
vn 0.000000 -1.000000 0.000000
vn 0.000000 -1.000000 0.000000
vn 0.000000 -1.000000 0.000000
vn 0.000000 -1.000000 0.000000
vn 1.000000 0.000000 0.000000
vn 1.000000 0.000000 0.000000
vn 1.000000 0.000000 0.000000
vn 1.000000 0.000000 0.000000
vn 1.000000 0.000000 0.000000
vn 1.000000 0.000000 0.000000
vn -1.000000 0.000000 0.000000
vn -1.000000 0.000000 0.000000
vn -1.000000 0.000000 0.000000
vn -1.000000 0.000000 0.000000
vn -1.000000 0.000000 0.000000
vn -1.000000 0.000000 0.000000
vn 0.000000 0.000000 1.000000
vn 0.000000 0.000000 1.000000
vn 0.000000 0.000000 1.000000
vn 0.000000 0.000000 1.000000
vn 0.000000 0.000000 1.000000
vn 0.000000 0.000000 1.000000
vn 0.000000 1.000000 0.000000
vn 0.000000 1.000000 0.000000
vn 0.000000 1.000000 0.000000
vn 0.000000 1.000000 0.000000
vn 0.000000 1.000000 0.000000
vn 0.000000 1.000000 0.000000
vn 0.000000 0.000000 -1.000000
vn 0.000000 0.000000 -1.000000
vn 0.000000 0.000000 -1.000000
vn 0.000000 0.000000 -1.000000
vn 0.000000 0.000000 -1.000000
vn 0.000000 0.000000 -1.000000
vn 0.000000 -1.000000 0.000000
vn 0.000000 -1.000000 0.000000
vn 0.000000 -1.000000 0.000000
vn 0.000000 -1.000000 0.000000
vn 0.000000 -1.000000 0.000000
vn 0.000000 -1.000000 0.000000
vn 1.000000 0.000000 0.000000
vn 1.000000 0.000000 0.000000
vn 1.000000 0.000000 0.000000
vn 1.000000 0.000000 0.000000
vn 1.000000 0.000000 0.000000
vn 1.000000 0.000000 0.000000
vn -1.000000 0.000000 0.000000
vn -1.000000 0.000000 0.000000
vn -1.000000 0.000000 0.000000
vn -1.000000 0.000000 0.000000
vn -1.000000 0.000000 0.000000
vn -1.000000 0.000000 0.000000
vn -1.000000 0.000000 -0.000509
vn -1.000000 0.000000 -0.000509
vn -1.000000 0.000000 -0.000509
vn -1.000000 0.000000 -0.000509
vn -1.000000 0.000000 -0.000509
vn -1.000000 0.000000 -0.000509
vn 0.002277 0.000000 -0.999997
vn 0.002277 0.000000 -0.999997
vn 0.002277 0.000000 -0.999997
vn 0.002277 0.000000 -0.999997
vn 0.002277 0.000000 -0.999997
vn 0.002277 0.000000 -0.999997
vn 1.000000 0.000000 0.000509
vn 1.000000 0.000000 0.000509
vn 1.000000 0.000000 0.000509
vn 1.000000 0.000000 0.000509
vn 1.000000 0.000000 0.000509
vn 1.000000 0.000000 0.000509
vn -0.002276 0.000000 0.999997
vn -0.002276 0.000000 0.999997
vn -0.002276 0.000000 0.999997
vn -0.002276 0.000000 0.999997
vn -0.002276 0.000000 0.999997
vn -0.002276 0.000000 0.999997
vn 0.000000 1.000000 0.000000
vn 0.000000 1.000000 0.000000
vn 0.000000 1.000000 0.000000
vn 0.000000 1.000000 0.000000
vn 0.000000 1.000000 0.000000
vn 0.000000 1.000000 0.000000
vn -0.555664 -0.831407 -0.000283
vn -0.555664 -0.831407 -0.000283
vn -0.555664 -0.831407 -0.000283
vn -0.555664 -0.831407 -0.000283
vn -0.555664 -0.831407 -0.000283
vn -0.555664 -0.831407 -0.000283
vn 0.000000 0.000000 1.000000
vn 0.000000 0.000000 1.000000
vn 0.000000 0.000000 1.000000
vn 0.000000 0.000000 1.000000
vn 0.000000 0.000000 1.000000
vn 0.000000 0.000000 1.000000
vn 0.000000 1.000000 0.000000
vn 0.000000 1.000000 0.000000
vn 0.000000 1.000000 0.000000
vn 0.000000 1.000000 0.000000
vn 0.000000 1.000000 0.000000
vn 0.000000 1.000000 0.000000
vn 0.000000 0.000000 -1.000000
vn 0.000000 0.000000 -1.000000
vn 0.000000 0.000000 -1.000000
vn 0.000000 0.000000 -1.000000
vn 0.000000 0.000000 -1.000000
vn 0.000000 0.000000 -1.000000
vn 0.000000 -1.000000 0.000000
vn 0.000000 -1.000000 0.000000
vn 0.000000 -1.000000 0.000000
vn 0.000000 -1.000000 0.000000
vn 0.000000 -1.000000 0.000000
vn 0.000000 -1.000000 0.000000
vn 1.000000 0.000000 0.000000
vn 1.000000 0.000000 0.000000
vn 1.000000 0.000000 0.000000
vn 1.000000 0.000000 0.000000
vn 1.000000 0.000000 0.000000
vn 1.000000 0.000000 0.000000
vn -1.000000 0.000000 0.000000
vn -1.000000 0.000000 0.000000
vn -1.000000 0.000000 0.000000
vn -1.000000 0.000000 0.000000
vn -1.000000 0.000000 0.000000
vn -1.000000 0.000000 0.000000
vn 0.000000 0.000000 1.000000
vn 0.000000 0.000000 1.000000
vn 0.000000 0.000000 1.000000
vn 0.000000 0.000000 1.000000
vn 0.000000 0.000000 1.000000
vn 0.000000 0.000000 1.000000
vn 0.000000 0.000000 1.000000
vn 0.000000 0.000000 1.000000
vn 0.000000 0.000000 1.000000
vn 0.000000 0.000000 1.000000
vn 0.000000 0.000000 1.000000
vn 0.000000 0.000000 1.000000
vn 0.000000 0.000000 1.000000
vn 0.000000 0.000000 1.000000
vn 0.000000 0.000000 1.000000
vn 0.000000 0.000000 1.000000
vn 0.000000 0.000000 1.000000
vn 0.000000 0.000000 1.000000
vn 0.000000 0.000000 1.000000
vn 0.000000 0.000000 1.000000
vn 0.000000 0.000000 1.000000
vn 0.000000 0.000000 1.000000
vn 0.000000 0.000000 1.000000
vn 0.000000 0.000000 1.000000
vn 0.000000 0.000000 1.000000
vn 0.000000 0.000000 1.000000
vn 0.000000 0.000000 1.000000
vn 0.000000 0.000000 1.000000
vn 0.000000 0.000000 1.000000
vn 0.000000 0.000000 1.000000
vn 0.000000 0.000000 1.000000
vn 0.000000 0.000000 1.000000
vn 0.000000 0.000000 1.000000
vn 0.000000 0.000000 1.000000
vn 0.000000 0.000000 1.000000
vn 0.000000 0.000000 1.000000
vn 0.000000 0.000000 -1.000000
vn 0.000000 0.000000 -1.000000
vn 0.000000 0.000000 -1.000000
vn 0.000000 0.000000 -1.000000
vn 0.000000 0.000000 -1.000000
vn 0.000000 0.000000 -1.000000
vn 0.000000 0.000000 -1.000000
vn 0.000000 0.000000 -1.000000
vn 0.000000 0.000000 -1.000000
vn 0.000000 0.000000 -1.000000
vn 0.000000 0.000000 -1.000000
vn 0.000000 0.000000 -1.000000
vn 0.000000 0.000000 -1.000000
vn 0.000000 0.000000 -1.000000
vn 0.000000 0.000000 -1.000000
vn 0.000000 0.000000 -1.000000
vn 0.000000 0.000000 -1.000000
vn 0.000000 0.000000 -1.000000
vn 0.000000 0.000000 -1.000000
vn 0.000000 0.000000 -1.000000
vn 0.000000 0.000000 -1.000000
vn 0.000000 0.000000 -1.000000
vn 0.000000 0.000000 -1.000000
vn 0.000000 0.000000 -1.000000
vn 0.000000 0.000000 -1.000000
vn 0.000000 0.000000 -1.000000
vn 0.000000 0.000000 -1.000000
vn 0.000000 0.000000 -1.000000
vn 0.000000 0.000000 -1.000000
vn 0.000000 0.000000 -1.000000
vn 0.000000 0.000000 -1.000000
vn 0.000000 0.000000 -1.000000
vn 0.000000 0.000000 -1.000000
vn 0.000000 0.000000 -1.000000
vn 0.000000 0.000000 -1.000000
vn 0.000000 0.000000 -1.000000
vn 1.000000 0.000000 0.000000
vn 1.000000 0.000000 0.000000
vn 1.000000 0.000000 0.000000
vn 1.000000 0.000000 0.000000
vn 1.000000 0.000000 0.000000
vn 1.000000 0.000000 0.000000
vn 0.000000 1.000000 0.000000
vn 0.000000 1.000000 0.000000
vn 0.000000 1.000000 0.000000
vn 0.000000 1.000000 0.000000
vn 0.000000 1.000000 0.000000
vn 0.000000 1.000000 0.000000
vn 1.000000 0.000000 0.000000
vn 1.000000 0.000000 0.000000
vn 1.000000 0.000000 0.000000
vn 1.000000 0.000000 0.000000
vn 1.000000 0.000000 0.000000
vn 1.000000 0.000000 0.000000
vn 0.000000 1.000000 0.000000
vn 0.000000 1.000000 0.000000
vn 0.000000 1.000000 0.000000
vn 0.000000 1.000000 0.000000
vn 0.000000 1.000000 0.000000
vn 0.000000 1.000000 0.000000
vn 1.000000 0.000000 0.000000
vn 1.000000 0.000000 0.000000
vn 1.000000 0.000000 0.000000
vn 1.000000 0.000000 0.000000
vn 1.000000 0.000000 0.000000
vn 1.000000 0.000000 0.000000
vn 0.000000 1.000000 0.000000
vn 0.000000 1.000000 0.000000
vn 0.000000 1.000000 0.000000
vn 0.000000 1.000000 0.000000
vn 0.000000 1.000000 0.000000
vn 0.000000 1.000000 0.000000
vn 1.000000 0.000000 0.000000
vn 1.000000 0.000000 0.000000
vn 1.000000 0.000000 0.000000
vn 1.000000 0.000000 0.000000
vn 1.000000 0.000000 0.000000
vn 1.000000 0.000000 0.000000
vn 0.000000 1.000000 0.000000
vn 0.000000 1.000000 0.000000
vn 0.000000 1.000000 0.000000
vn 0.000000 1.000000 0.000000
vn 0.000000 1.000000 0.000000
vn 0.000000 1.000000 0.000000
vn 0.000000 -1.000000 0.000000
vn 0.000000 -1.000000 0.000000
vn 0.000000 -1.000000 0.000000
vn 0.000000 -1.000000 0.000000
vn 0.000000 -1.000000 0.000000
vn 0.000000 -1.000000 0.000000
vn 0.000000 -1.000000 0.000000
vn 0.000000 -1.000000 0.000000
vn 0.000000 -1.000000 0.000000
vn 0.000000 -1.000000 0.000000
vn 0.000000 -1.000000 0.000000
vn 0.000000 -1.000000 0.000000
vn 0.000000 -1.000000 0.000000
vn 0.000000 -1.000000 0.000000
vn 0.000000 -1.000000 0.000000
vn 0.000000 -1.000000 0.000000
vn 0.000000 -1.000000 0.000000
vn 0.000000 -1.000000 0.000000
vn 0.000000 -1.000000 0.000000
vn 0.000000 -1.000000 0.000000
vn 0.000000 -1.000000 0.000000
vn 0.000000 -1.000000 0.000000
vn 0.000000 -1.000000 0.000000
vn 0.000000 -1.000000 0.000000
vn -1.000000 0.000000 0.000000
vn -1.000000 0.000000 0.000000
vn -1.000000 0.000000 0.000000
vn -1.000000 0.000000 0.000000
vn -1.000000 0.000000 0.000000
vn -1.000000 0.000000 0.000000
vn -1.000000 0.000000 0.000000
vn -1.000000 0.000000 0.000000
vn -1.000000 0.000000 0.000000
vn -1.000000 0.000000 0.000000
vn -1.000000 0.000000 0.000000
vn -1.000000 0.000000 0.000000
vn 0.000000 0.000000 1.000000
vn 0.000000 0.000000 1.000000
vn 0.000000 0.000000 1.000000
vn 0.000000 0.000000 1.000000
vn 0.000000 0.000000 1.000000
vn 0.000000 0.000000 1.000000
vn 0.000000 1.000000 0.000000
vn 0.000000 1.000000 0.000000
vn 0.000000 1.000000 0.000000
vn 0.000000 1.000000 0.000000
vn 0.000000 1.000000 0.000000
vn 0.000000 1.000000 0.000000
vn 0.000000 0.000000 -1.000000
vn 0.000000 0.000000 -1.000000
vn 0.000000 0.000000 -1.000000
vn 0.000000 0.000000 -1.000000
vn 0.000000 0.000000 -1.000000
vn 0.000000 0.000000 -1.000000
vn 0.000000 -1.000000 0.000000
vn 0.000000 -1.000000 0.000000
vn 0.000000 -1.000000 0.000000
vn 0.000000 -1.000000 0.000000
vn 0.000000 -1.000000 0.000000
vn 0.000000 -1.000000 0.000000
vn 1.000000 0.000000 0.000000
vn 1.000000 0.000000 0.000000
vn 1.000000 0.000000 0.000000
vn 1.000000 0.000000 0.000000
vn 1.000000 0.000000 0.000000
vn 1.000000 0.000000 0.000000
vn -1.000000 0.000000 0.000000
vn -1.000000 0.000000 0.000000
vn -1.000000 0.000000 0.000000
vn -1.000000 0.000000 0.000000
vn -1.000000 0.000000 0.000000
vn -1.000000 0.000000 0.000000
vn 0.000000 0.000000 1.000000
vn 0.000000 0.000000 1.000000
vn 0.000000 0.000000 1.000000
vn 0.000000 0.000000 1.000000
vn 0.000000 0.000000 1.000000
vn 0.000000 0.000000 1.000000
vn 0.000000 1.000000 0.000000
vn 0.000000 1.000000 0.000000
vn 0.000000 1.000000 0.000000
vn 0.000000 1.000000 0.000000
vn 0.000000 1.000000 0.000000
vn 0.000000 1.000000 0.000000
vn 0.000000 0.000000 -1.000000
vn 0.000000 0.000000 -1.000000
vn 0.000000 0.000000 -1.000000
vn 0.000000 0.000000 -1.000000
vn 0.000000 0.000000 -1.000000
vn 0.000000 0.000000 -1.000000
vn 0.000000 -1.000000 0.000000
vn 0.000000 -1.000000 0.000000
vn 0.000000 -1.000000 0.000000
vn 0.000000 -1.000000 0.000000
vn 0.000000 -1.000000 0.000000
vn 0.000000 -1.000000 0.000000
vn 1.000000 0.000000 0.000000
vn 1.000000 0.000000 0.000000
vn 1.000000 0.000000 0.000000
vn 1.000000 0.000000 0.000000
vn 1.000000 0.000000 0.000000
vn 1.000000 0.000000 0.000000
vn -1.000000 0.000000 0.000000
vn -1.000000 0.000000 0.000000
vn -1.000000 0.000000 0.000000
vn -1.000000 0.000000 0.000000
vn -1.000000 0.000000 0.000000
vn -1.000000 0.000000 0.000000
vn 0.000000 0.000000 1.000000
vn 0.000000 0.000000 1.000000
vn 0.000000 0.000000 1.000000
vn 0.000000 0.000000 1.000000
vn 0.000000 0.000000 1.000000
vn 0.000000 0.000000 1.000000
vn 0.000000 1.000000 0.000000
vn 0.000000 1.000000 0.000000
vn 0.000000 1.000000 0.000000
vn 0.000000 1.000000 0.000000
vn 0.000000 1.000000 0.000000
vn 0.000000 1.000000 0.000000
vn 0.000000 0.000000 -1.000000
vn 0.000000 0.000000 -1.000000
vn 0.000000 0.000000 -1.000000
vn 0.000000 0.000000 -1.000000
vn 0.000000 0.000000 -1.000000
vn 0.000000 0.000000 -1.000000
vn 0.000000 -1.000000 0.000000
vn 0.000000 -1.000000 0.000000
vn 0.000000 -1.000000 0.000000
vn 0.000000 -1.000000 0.000000
vn 0.000000 -1.000000 0.000000
vn 0.000000 -1.000000 0.000000
vn 1.000000 0.000000 0.000000
vn 1.000000 0.000000 0.000000
vn 1.000000 0.000000 0.000000
vn 1.000000 0.000000 0.000000
vn 1.000000 0.000000 0.000000
vn 1.000000 0.000000 0.000000
vn -1.000000 0.000000 0.000000
vn -1.000000 0.000000 0.000000
vn -1.000000 0.000000 0.000000
vn -1.000000 0.000000 0.000000
vn -1.000000 0.000000 0.000000
vn -1.000000 0.000000 0.000000
vn 0.000000 0.000000 1.000000
vn 0.000000 0.000000 1.000000
vn 0.000000 0.000000 1.000000
vn 0.000000 0.000000 1.000000
vn 0.000000 0.000000 1.000000
vn 0.000000 0.000000 1.000000
vn 0.000000 0.000000 1.000000
vn 0.000000 0.000000 1.000000
vn 0.000000 0.000000 1.000000
vn 0.000000 0.000000 1.000000
vn 0.000000 0.000000 1.000000
vn 0.000000 0.000000 1.000000
vn 0.000000 0.000000 1.000000
vn 0.000000 0.000000 1.000000
vn 0.000000 0.000000 1.000000
vn 0.000000 0.000000 1.000000
vn 0.000000 0.000000 1.000000
vn 0.000000 0.000000 1.000000
vn 0.000000 0.000000 1.000000
vn 0.000000 0.000000 1.000000
vn 0.000000 0.000000 1.000000
vn 0.000000 0.000000 1.000000
vn 0.000000 0.000000 1.000000
vn 0.000000 0.000000 1.000000
vn 0.000000 0.000000 1.000000
vn 0.000000 0.000000 1.000000
vn 0.000000 0.000000 1.000000
vn 0.000000 0.000000 1.000000
vn 0.000000 0.000000 1.000000
vn 0.000000 0.000000 1.000000
vn 0.000000 0.000000 1.000000
vn 0.000000 0.000000 1.000000
vn 0.000000 0.000000 1.000000
vn 0.000000 0.000000 1.000000
vn 0.000000 0.000000 1.000000
vn 0.000000 0.000000 1.000000
vn 0.000000 0.000000 -1.000000
vn 0.000000 0.000000 -1.000000
vn 0.000000 0.000000 -1.000000
vn 0.000000 0.000000 -1.000000
vn 0.000000 0.000000 -1.000000
vn 0.000000 0.000000 -1.000000
vn 0.000000 0.000000 -1.000000
vn 0.000000 0.000000 -1.000000
vn 0.000000 0.000000 -1.000000
vn 0.000000 0.000000 -1.000000
vn 0.000000 0.000000 -1.000000
vn 0.000000 0.000000 -1.000000
vn 0.000000 0.000000 -1.000000
vn 0.000000 0.000000 -1.000000
vn 0.000000 0.000000 -1.000000
vn 0.000000 0.000000 -1.000000
vn 0.000000 0.000000 -1.000000
vn 0.000000 0.000000 -1.000000
vn 0.000000 0.000000 -1.000000
vn 0.000000 0.000000 -1.000000
vn 0.000000 0.000000 -1.000000
vn 0.000000 0.000000 -1.000000
vn 0.000000 0.000000 -1.000000
vn 0.000000 0.000000 -1.000000
vn 0.000000 0.000000 -1.000000
vn 0.000000 0.000000 -1.000000
vn 0.000000 0.000000 -1.000000
vn 0.000000 0.000000 -1.000000
vn 0.000000 0.000000 -1.000000
vn 0.000000 0.000000 -1.000000
vn 0.000000 0.000000 -1.000000
vn 0.000000 0.000000 -1.000000
vn 0.000000 0.000000 -1.000000
vn 0.000000 0.000000 -1.000000
vn 0.000000 0.000000 -1.000000
vn 0.000000 0.000000 -1.000000
vn 1.000000 0.000000 0.000000
vn 1.000000 0.000000 0.000000
vn 1.000000 0.000000 0.000000
vn 1.000000 0.000000 0.000000
vn 1.000000 0.000000 0.000000
vn 1.000000 0.000000 0.000000
vn 0.000000 1.000000 0.000000
vn 0.000000 1.000000 0.000000
vn 0.000000 1.000000 0.000000
vn 0.000000 1.000000 0.000000
vn 0.000000 1.000000 0.000000
vn 0.000000 1.000000 0.000000
vn 1.000000 0.000000 0.000000
vn 1.000000 0.000000 0.000000
vn 1.000000 0.000000 0.000000
vn 1.000000 0.000000 0.000000
vn 1.000000 0.000000 0.000000
vn 1.000000 0.000000 0.000000
vn 0.000000 1.000000 0.000000
vn 0.000000 1.000000 0.000000
vn 0.000000 1.000000 0.000000
vn 0.000000 1.000000 0.000000
vn 0.000000 1.000000 0.000000
vn 0.000000 1.000000 0.000000
vn 1.000000 0.000000 0.000000
vn 1.000000 0.000000 0.000000
vn 1.000000 0.000000 0.000000
vn 1.000000 0.000000 0.000000
vn 1.000000 0.000000 0.000000
vn 1.000000 0.000000 0.000000
vn 0.000000 1.000000 0.000000
vn 0.000000 1.000000 0.000000
vn 0.000000 1.000000 0.000000
vn 0.000000 1.000000 0.000000
vn 0.000000 1.000000 0.000000
vn 0.000000 1.000000 0.000000
vn 1.000000 0.000000 0.000000
vn 1.000000 0.000000 0.000000
vn 1.000000 0.000000 0.000000
vn 1.000000 0.000000 0.000000
vn 1.000000 0.000000 0.000000
vn 1.000000 0.000000 0.000000
vn 0.000000 1.000000 0.000000
vn 0.000000 1.000000 0.000000
vn 0.000000 1.000000 0.000000
vn 0.000000 1.000000 0.000000
vn 0.000000 1.000000 0.000000
vn 0.000000 1.000000 0.000000
vn 0.000000 -1.000000 0.000000
vn 0.000000 -1.000000 0.000000
vn 0.000000 -1.000000 0.000000
vn 0.000000 -1.000000 0.000000
vn 0.000000 -1.000000 0.000000
vn 0.000000 -1.000000 0.000000
vn 0.000000 -1.000000 0.000000
vn 0.000000 -1.000000 0.000000
vn 0.000000 -1.000000 0.000000
vn 0.000000 -1.000000 0.000000
vn 0.000000 -1.000000 0.000000
vn 0.000000 -1.000000 0.000000
vn 0.000000 -1.000000 0.000000
vn 0.000000 -1.000000 0.000000
vn 0.000000 -1.000000 0.000000
vn 0.000000 -1.000000 0.000000
vn 0.000000 -1.000000 0.000000
vn 0.000000 -1.000000 0.000000
vn 0.000000 -1.000000 0.000000
vn 0.000000 -1.000000 0.000000
vn 0.000000 -1.000000 0.000000
vn 0.000000 -1.000000 0.000000
vn 0.000000 -1.000000 0.000000
vn 0.000000 -1.000000 0.000000
vn -1.000000 0.000000 0.000000
vn -1.000000 0.000000 0.000000
vn -1.000000 0.000000 0.000000
vn -1.000000 0.000000 0.000000
vn -1.000000 0.000000 0.000000
vn -1.000000 0.000000 0.000000
vn -1.000000 0.000000 0.000000
vn -1.000000 0.000000 0.000000
vn -1.000000 0.000000 0.000000
vn -1.000000 0.000000 0.000000
vn -1.000000 0.000000 0.000000
vn -1.000000 0.000000 0.000000
vn 0.000000 0.000000 1.000000
vn 0.000000 0.000000 1.000000
vn 0.000000 0.000000 1.000000
vn 0.000000 0.000000 1.000000
vn 0.000000 0.000000 1.000000
vn 0.000000 0.000000 1.000000
vn 0.000000 1.000000 0.000000
vn 0.000000 1.000000 0.000000
vn 0.000000 1.000000 0.000000
vn 0.000000 1.000000 0.000000
vn 0.000000 1.000000 0.000000
vn 0.000000 1.000000 0.000000
vn 0.000000 0.000000 -1.000000
vn 0.000000 0.000000 -1.000000
vn 0.000000 0.000000 -1.000000
vn 0.000000 0.000000 -1.000000
vn 0.000000 0.000000 -1.000000
vn 0.000000 0.000000 -1.000000
vn 0.000000 -1.000000 0.000000
vn 0.000000 -1.000000 0.000000
vn 0.000000 -1.000000 0.000000
vn 0.000000 -1.000000 0.000000
vn 0.000000 -1.000000 0.000000
vn 0.000000 -1.000000 0.000000
vn 1.000000 0.000000 0.000000
vn 1.000000 0.000000 0.000000
vn 1.000000 0.000000 0.000000
vn 1.000000 0.000000 0.000000
vn 1.000000 0.000000 0.000000
vn 1.000000 0.000000 0.000000
vn -1.000000 0.000000 0.000000
vn -1.000000 0.000000 0.000000
vn -1.000000 0.000000 0.000000
vn -1.000000 0.000000 0.000000
vn -1.000000 0.000000 0.000000
vn -1.000000 0.000000 0.000000
vn 0.000000 0.000000 1.000000
vn 0.000000 0.000000 1.000000
vn 0.000000 0.000000 1.000000
vn 0.000000 0.000000 1.000000
vn 0.000000 0.000000 1.000000
vn 0.000000 0.000000 1.000000
vn 0.000000 1.000000 0.000000
vn 0.000000 1.000000 0.000000
vn 0.000000 1.000000 0.000000
vn 0.000000 1.000000 0.000000
vn 0.000000 1.000000 0.000000
vn 0.000000 1.000000 0.000000
vn 0.000000 0.000000 -1.000000
vn 0.000000 0.000000 -1.000000
vn 0.000000 0.000000 -1.000000
vn 0.000000 0.000000 -1.000000
vn 0.000000 0.000000 -1.000000
vn 0.000000 0.000000 -1.000000
vn 0.000000 -1.000000 0.000000
vn 0.000000 -1.000000 0.000000
vn 0.000000 -1.000000 0.000000
vn 0.000000 -1.000000 0.000000
vn 0.000000 -1.000000 0.000000
vn 0.000000 -1.000000 0.000000
vn 1.000000 0.000000 0.000000
vn 1.000000 0.000000 0.000000
vn 1.000000 0.000000 0.000000
vn 1.000000 0.000000 0.000000
vn 1.000000 0.000000 0.000000
vn 1.000000 0.000000 0.000000
vn -1.000000 0.000000 0.000000
vn -1.000000 0.000000 0.000000
vn -1.000000 0.000000 0.000000
vn -1.000000 0.000000 0.000000
vn -1.000000 0.000000 0.000000
vn -1.000000 0.000000 0.000000
vn 0.000000 0.000000 1.000000
vn 0.000000 0.000000 1.000000
vn 0.000000 0.000000 1.000000
vn 0.000000 0.000000 1.000000
vn 0.000000 0.000000 1.000000
vn 0.000000 0.000000 1.000000
vn 0.000000 1.000000 0.000000
vn 0.000000 1.000000 0.000000
vn 0.000000 1.000000 0.000000
vn 0.000000 1.000000 0.000000
vn 0.000000 1.000000 0.000000
vn 0.000000 1.000000 0.000000
vn 0.000000 0.000000 -1.000000
vn 0.000000 0.000000 -1.000000
vn 0.000000 0.000000 -1.000000
vn 0.000000 0.000000 -1.000000
vn 0.000000 0.000000 -1.000000
vn 0.000000 0.000000 -1.000000
vn 0.000000 -1.000000 0.000000
vn 0.000000 -1.000000 0.000000
vn 0.000000 -1.000000 0.000000
vn 0.000000 -1.000000 0.000000
vn 0.000000 -1.000000 0.000000
vn 0.000000 -1.000000 0.000000
vn 1.000000 0.000000 0.000000
vn 1.000000 0.000000 0.000000
vn 1.000000 0.000000 0.000000
vn 1.000000 0.000000 0.000000
vn 1.000000 0.000000 0.000000
vn 1.000000 0.000000 0.000000
vn -1.000000 0.000000 0.000000
vn -1.000000 0.000000 0.000000
vn -1.000000 0.000000 0.000000
vn -1.000000 0.000000 0.000000
vn -1.000000 0.000000 0.000000
vn -1.000000 0.000000 0.000000
s off
g worldPuzzle_4_structure:Cube_15_
usemtl worldPuzzle_4_structure:MobileDiffuseColor_Stone_1
f 27/1/1 26/2/2 25/3/3
f 33/4/4 36/5/5 35/6/6
f 47/7/7 48/8/8 50/9/9
f 43/10/10 46/11/11 41/12/12
f 81/13/13 80/14/14 79/15/15
f 87/16/16 90/17/17 89/18/18
f 101/19/19 102/20/20 104/21/21
f 97/22/22 100/23/23 95/24/24
f 175/25/25 174/26/26 173/27/27
f 181/28/28 184/29/29 183/30/30
f 195/31/31 196/32/32 198/33/33
f 191/34/34 194/35/35 189/36/36
f 229/37/37 228/38/38 227/39/39
f 235/40/40 238/41/41 237/42/42
f 249/43/43 250/44/44 252/45/45
f 245/46/46 248/47/47 243/48/48
f 3/49/49 2/50/50 1/51/51
f 1/51/52 4/52/53 3/49/54
f 6/53/55 5/54/56 2/50/57
f 2/50/58 3/49/59 6/53/60
f 8/55/61 7/56/62 5/54/63
f 5/54/64 6/53/65 8/55/66
f 4/52/67 1/51/68 7/56/69
f 7/56/70 8/55/71 4/52/72
f 6/53/73 3/49/74 4/52/75
f 4/52/76 8/55/77 6/53/78
f 2/50/79 5/54/80 7/56/81
f 7/56/82 1/51/83 2/50/84
f 12/57/85 10/58/86 9/59/87
f 9/59/88 11/60/89 12/57/90
f 14/61/91 13/62/92 10/58/93
f 10/58/94 12/57/95 14/61/96
f 16/63/97 15/64/98 13/62/99
f 13/62/100 14/61/101 16/63/102
f 11/60/103 9/59/104 15/64/105
f 15/64/106 16/63/107 11/60/108
f 14/61/109 12/57/110 11/60/111
f 11/60/112 16/63/113 14/61/114
f 10/58/115 13/62/116 15/64/117
f 15/64/118 9/59/119 10/58/120
f 19/65/121 18/66/122 17/67/123
f 17/67/124 20/68/125 19/65/126
f 22/69/127 21/70/128 18/66/129
f 18/66/130 19/65/131 22/69/132
f 24/71/133 23/72/134 21/70/135
f 21/70/136 22/69/137 24/71/138
f 20/68/139 17/67/140 23/72/141
f 23/72/142 24/71/143 20/68/144
f 22/69/145 19/65/146 20/68/147
f 20/68/148 24/71/149 22/69/150
f 18/66/151 21/70/152 23/72/153
f 23/72/154 17/67/155 18/66/156
f 28/73/157 26/2/158 27/1/159
f 27/1/160 31/74/161 28/73/162
f 26/2/163 28/73/164 29/75/165
f 29/75/166 30/76/167 26/2/168
f 32/77/169 31/74/170 27/1/171
f 27/1/172 33/4/173 32/77/174
f 34/78/175 32/77/176 33/4/177
f 33/4/178 35/6/179 34/78/180
f 36/5/181 33/4/182 27/1/183
f 27/1/184 37/79/185 36/5/186
f 35/6/187 36/5/188 38/80/189
f 38/80/190 39/81/191 35/6/192
f 43/82/193 41/83/194 40/84/195
f 40/84/196 42/85/197 43/82/198
f 44/86/199 43/82/200 42/85/201
f 42/85/202 47/7/203 44/86/204
f 43/10/205 44/87/206 45/88/207
f 45/88/208 46/11/209 43/10/210
f 48/8/211 47/7/212 42/85/213
f 42/85/214 49/89/215 48/8/216
f 50/9/217 48/8/218 51/90/219
f 51/90/220 52/91/221 50/9/222
f 46/11/223 54/92/224 53/93/225
f 53/93/226 41/12/227 46/11/228
f 30/76/229 29/75/230 52/91/231
f 52/91/232 51/90/233 30/76/234
f 26/2/235 30/76/236 51/90/237
f 51/90/238 48/8/239 26/2/240
f 25/3/241 26/2/242 48/8/243
f 48/8/244 49/89/245 25/3/246
f 27/1/247 25/3/248 49/89/249
f 49/89/250 42/85/251 27/1/252
f 37/79/253 27/1/254 42/85/255
f 42/85/256 40/84/257 37/79/258
f 36/5/259 37/79/260 40/84/261
f 40/84/262 41/83/263 36/94/264
f 38/80/265 36/5/266 41/12/267
f 41/12/268 53/93/269 38/80/270
f 39/81/271 38/80/272 53/93/273
f 53/93/274 54/92/275 39/81/276
f 34/78/277 45/88/278 44/87/279
f 44/87/280 32/77/281 34/78/282
f 32/77/283 44/86/284 47/7/285
f 47/7/286 31/74/287 32/77/288
f 31/74/289 47/7/290 50/9/291
f 50/9/292 28/73/293 31/74/294
f 28/73/295 50/9/296 52/91/297
f 52/91/298 29/75/299 28/73/300
f 46/11/301 45/88/302 34/78/303
f 34/78/304 35/6/305 46/11/306
f 54/92/307 46/11/308 35/6/309
f 35/6/310 39/81/311 54/92/312
f 57/95/313 56/96/314 55/97/315
f 55/97/316 58/98/317 57/95/318
f 61/99/319 60/100/320 59/101/321
f 59/101/322 62/102/323 61/99/324
f 62/102/325 59/101/326 55/97/327
f 55/97/328 56/96/329 62/102/330
f 61/99/331 62/102/332 56/96/333
f 56/96/334 57/95/335 61/99/336
f 60/100/337 61/99/338 57/95/339
f 57/95/340 58/98/341 60/100/342
f 59/101/343 60/100/344 58/98/345
f 58/98/346 55/97/347 59/101/348
f 65/103/349 64/104/350 63/105/351
f 63/105/352 66/106/353 65/103/354
f 68/107/355 67/108/356 64/104/357
f 64/104/358 65/103/359 68/107/360
f 70/109/361 69/110/362 67/108/363
f 67/108/364 68/107/365 70/109/366
f 66/106/367 63/105/368 69/110/369
f 69/110/370 70/109/371 66/106/372
f 68/107/373 65/103/374 66/106/375
f 66/106/376 70/109/377 68/107/378
f 64/104/379 67/108/380 69/110/381
f 69/110/382 63/105/383 64/104/384
f 74/111/385 72/112/386 71/113/387
f 71/113/388 73/114/389 74/111/390
f 76/115/391 75/116/392 72/112/393
f 72/112/394 74/111/395 76/115/396
f 78/117/397 77/118/398 75/116/399
f 75/116/400 76/115/401 78/117/402
f 73/114/403 71/113/404 77/118/405
f 77/118/406 78/117/407 73/114/408
f 76/115/409 74/111/410 73/114/411
f 73/114/412 78/117/413 76/115/414
f 72/112/415 75/116/416 77/118/417
f 77/118/418 71/113/419 72/112/420
f 82/119/421 80/14/422 81/13/423
f 81/13/424 85/120/425 82/119/426
f 80/14/427 82/119/428 83/121/429
f 83/121/430 84/122/431 80/14/432
f 86/123/433 85/120/434 81/13/435
f 81/13/436 87/16/437 86/123/438
f 88/124/439 86/123/440 87/16/441
f 87/16/442 89/18/443 88/124/444
f 90/17/445 87/16/446 81/13/447
f 81/13/448 91/125/449 90/17/450
f 89/18/451 90/17/452 92/126/453
f 92/126/454 93/127/455 89/18/456
f 97/22/457 95/24/458 94/128/459
f 94/128/460 96/129/461 97/22/462
f 98/130/463 97/22/464 96/129/465
f 96/129/466 101/19/467 98/130/468
f 97/22/469 98/130/470 99/131/471
f 99/131/472 100/23/473 97/22/474
f 102/20/475 101/19/476 96/129/477
f 96/129/478 103/132/479 102/20/480
f 104/21/481 102/20/482 105/133/483
f 105/133/484 106/134/485 104/21/486
f 100/23/487 108/135/488 107/136/489
f 107/136/490 95/24/491 100/23/492
f 84/122/493 83/121/494 106/134/495
f 106/134/496 105/133/497 84/122/498
f 80/14/499 84/122/500 105/133/501
f 105/133/502 102/20/503 80/14/504
f 79/15/505 80/14/506 102/20/507
f 102/20/508 103/132/509 79/15/510
f 81/13/511 79/15/512 103/132/513
f 103/132/514 96/129/515 81/13/516
f 91/125/517 81/13/518 96/129/519
f 96/129/520 94/128/521 91/125/522
f 90/17/523 91/125/524 94/128/525
f 94/128/526 95/24/527 90/17/528
f 92/126/529 90/17/530 95/24/531
f 95/24/532 107/136/533 92/126/534
f 93/127/535 92/126/536 107/136/537
f 107/136/538 108/135/539 93/127/540
f 88/124/541 99/131/542 98/130/543
f 98/130/544 86/123/545 88/124/546
f 86/123/547 98/130/548 101/19/549
f 101/19/550 85/120/551 86/123/552
f 85/120/553 101/19/554 104/21/555
f 104/21/556 82/119/557 85/120/558
f 82/119/559 104/21/560 106/134/561
f 106/134/562 83/121/563 82/119/564
f 100/23/565 99/131/566 88/124/567
f 88/124/568 89/18/569 100/23/570
f 108/135/571 100/23/572 89/18/573
f 89/18/574 93/127/575 108/135/576
f 111/137/577 110/138/578 109/139/579
f 109/139/580 112/140/581 111/137/582
f 114/141/583 113/142/584 110/138/585
f 110/138/586 111/137/587 114/141/588
f 116/143/589 115/144/590 113/142/591
f 113/142/592 114/141/593 116/143/594
f 112/140/595 109/139/596 115/144/597
f 115/144/598 116/143/599 112/140/600
f 114/141/601 111/137/602 112/140/603
f 112/140/604 116/143/605 114/141/606
f 110/138/607 113/142/608 115/144/609
f 115/144/610 109/139/611 110/138/612
f 119/145/613 118/146/614 117/147/615
f 117/147/616 120/148/617 119/145/618
f 123/149/619 122/150/620 121/151/621
f 121/151/622 124/152/623 123/149/624
f 124/152/625 121/151/626 117/147/627
f 117/147/628 118/146/629 124/152/630
f 123/149/631 124/152/632 118/146/633
f 118/146/634 119/145/635 123/149/636
f 122/150/637 123/149/638 119/145/639
f 119/145/640 120/148/641 122/150/642
f 121/151/643 122/150/644 120/148/645
f 120/148/646 117/147/647 121/151/648
f 127/153/649 126/154/650 125/155/651
f 125/155/652 128/156/653 127/153/654
f 130/157/655 129/158/656 126/154/657
f 126/154/658 127/153/659 130/157/660
f 132/159/661 131/160/662 129/158/663
f 129/158/664 130/157/665 132/159/666
f 128/156/667 125/155/668 131/160/669
f 131/160/670 132/159/671 128/156/672
f 130/157/673 127/153/674 128/156/675
f 128/156/676 132/159/677 130/157/678
f 126/154/679 129/158/680 131/160/681
f 131/160/682 125/155/683 126/154/684
f 135/161/685 134/162/686 133/163/687
f 133/163/688 136/164/689 135/161/690
f 138/165/691 137/166/692 134/162/693
f 134/162/694 135/161/695 138/165/696
f 140/167/697 139/168/698 137/166/699
f 137/166/700 138/165/701 140/167/702
f 136/164/703 133/163/704 139/168/705
f 139/168/706 140/167/707 136/164/708
f 138/165/709 135/161/710 136/164/711
f 136/164/712 140/167/713 138/165/714
f 134/162/715 137/166/716 139/168/717
f 139/168/718 133/163/719 134/162/720
f 143/169/721 142/170/722 141/171/723
f 141/171/724 144/172/725 143/169/726
f 146/173/727 145/174/728 142/170/729
f 142/170/730 143/169/731 146/173/732
f 148/175/733 147/176/734 145/174/735
f 145/174/736 146/173/737 148/175/738
f 144/172/739 141/171/740 147/176/741
f 147/176/742 148/175/743 144/172/744
f 146/173/745 143/169/746 144/172/747
f 144/172/748 148/175/749 146/173/750
f 142/170/751 145/174/752 147/176/753
f 147/176/754 141/171/755 142/170/756
f 151/177/757 150/178/758 149/179/759
f 149/179/760 152/180/761 151/177/762
f 154/181/763 153/182/764 150/178/765
f 150/178/766 151/177/767 154/181/768
f 156/183/769 155/184/770 153/182/771
f 153/182/772 154/181/773 156/183/774
f 152/180/775 149/179/776 155/184/777
f 155/184/778 156/183/779 152/180/780
f 154/181/781 151/177/782 152/180/783
f 152/180/784 156/183/785 154/181/786
f 150/178/787 153/182/788 155/184/789
f 155/184/790 149/179/791 150/178/792
f 160/185/793 158/186/794 157/187/795
f 157/187/796 159/188/797 160/185/798
f 162/189/799 161/190/800 158/191/801
f 158/191/802 160/192/803 162/189/804
f 164/193/805 163/194/806 161/190/807
f 161/190/808 162/189/809 164/193/810
f 159/188/811 157/187/812 163/194/813
f 163/194/814 164/193/815 159/188/816
f 162/189/817 160/192/818 159/195/819
f 159/188/820 164/193/821 162/189/822
f 158/191/823 161/190/824 163/194/825
f 163/194/826 157/187/827 158/186/828
f 167/196/829 166/197/830 165/198/831
f 165/198/832 168/199/833 167/196/834
f 170/200/835 169/201/836 166/197/837
f 166/197/838 167/196/839 170/200/840
f 172/202/841 171/203/842 169/201/843
f 169/201/844 170/200/845 172/202/846
f 168/199/847 165/198/848 171/203/849
f 171/203/850 172/202/851 168/199/852
f 170/200/853 167/196/854 168/199/855
f 168/199/856 172/202/857 170/200/858
f 166/197/859 169/201/860 171/203/861
f 171/203/862 165/198/863 166/197/864
f 176/204/865 174/26/866 175/25/867
f 175/25/868 179/205/869 176/204/870
f 174/26/871 176/204/872 177/206/873
f 177/206/874 178/207/875 174/26/876
f 180/208/877 179/205/878 175/25/879
f 175/25/880 181/28/881 180/208/882
f 182/209/883 180/208/884 181/28/885
f 181/28/886 183/30/887 182/209/888
f 184/29/889 181/28/890 175/25/891
f 175/25/892 185/210/893 184/29/894
f 183/30/895 184/29/896 186/211/897
f 186/211/898 187/212/899 183/30/900
f 191/34/901 189/36/902 188/213/903
f 188/213/904 190/214/905 191/34/906
f 192/215/907 191/34/908 190/214/909
f 190/214/910 195/31/911 192/215/912
f 191/34/913 192/215/914 193/216/915
f 193/216/916 194/35/917 191/34/918
f 196/32/919 195/31/920 190/214/921
f 190/214/922 197/217/923 196/32/924
f 198/33/925 196/32/926 199/218/927
f 199/218/928 200/219/929 198/33/930
f 194/35/931 202/220/932 201/221/933
f 201/221/934 189/36/935 194/35/936
f 178/207/937 177/206/938 200/219/939
f 200/219/940 199/218/941 178/207/942
f 174/26/943 178/207/944 199/218/945
f 199/218/946 196/32/947 174/26/948
f 173/27/949 174/26/950 196/32/951
f 196/32/952 197/217/953 173/27/954
f 175/25/955 173/27/956 197/217/957
f 197/217/958 190/214/959 175/25/960
f 185/210/961 175/25/962 190/214/963
f 190/214/964 188/213/965 185/210/966
f 184/29/967 185/210/968 188/213/969
f 188/213/970 189/36/971 184/29/972
f 186/211/973 184/29/974 189/36/975
f 189/36/976 201/221/977 186/211/978
f 187/212/979 186/211/980 201/221/981
f 201/221/982 202/220/983 187/212/984
f 182/209/985 193/216/986 192/215/987
f 192/215/988 180/208/989 182/209/990
f 180/208/991 192/215/992 195/31/993
f 195/31/994 179/205/995 180/208/996
f 179/205/997 195/31/998 198/33/999
f 198/33/1000 176/204/1001 179/205/1002
f 176/204/1003 198/33/1004 200/219/1005
f 200/219/1006 177/206/1007 176/204/1008
f 194/35/1009 193/216/1010 182/209/1011
f 182/209/1012 183/30/1013 194/35/1014
f 202/220/1015 194/35/1016 183/30/1017
f 183/30/1018 187/212/1019 202/220/1020
f 205/222/1021 204/223/1022 203/224/1023
f 203/224/1024 206/225/1025 205/222/1026
f 208/226/1027 207/227/1028 204/223/1029
f 204/223/1030 205/222/1031 208/226/1032
f 210/228/1033 209/229/1034 207/227/1035
f 207/227/1036 208/226/1037 210/228/1038
f 206/225/1039 203/224/1040 209/229/1041
f 209/229/1042 210/228/1043 206/225/1044
f 208/226/1045 205/222/1046 206/225/1047
f 206/225/1048 210/228/1049 208/226/1050
f 204/223/1051 207/227/1052 209/229/1053
f 209/229/1054 203/224/1055 204/223/1056
f 213/230/1057 212/231/1058 211/232/1059
f 211/232/1060 214/233/1061 213/230/1062
f 216/234/1063 215/235/1064 212/231/1065
f 212/231/1066 213/230/1067 216/234/1068
f 218/236/1069 217/237/1070 215/235/1071
f 215/235/1072 216/234/1073 218/236/1074
f 214/233/1075 211/232/1076 217/237/1077
f 217/237/1078 218/236/1079 214/233/1080
f 216/234/1081 213/230/1082 214/233/1083
f 214/233/1084 218/236/1085 216/234/1086
f 212/231/1087 215/235/1088 217/237/1089
f 217/237/1090 211/232/1091 212/231/1092
f 221/238/1093 220/239/1094 219/240/1095
f 219/240/1096 222/241/1097 221/238/1098
f 224/242/1099 223/243/1100 220/239/1101
f 220/239/1102 221/238/1103 224/242/1104
f 226/244/1105 225/245/1106 223/243/1107
f 223/243/1108 224/242/1109 226/244/1110
f 222/241/1111 219/240/1112 225/245/1113
f 225/245/1114 226/244/1115 222/241/1116
f 224/242/1117 221/238/1118 222/241/1119
f 222/241/1120 226/244/1121 224/242/1122
f 220/239/1123 223/243/1124 225/245/1125
f 225/245/1126 219/240/1127 220/239/1128
f 230/246/1129 228/38/1130 229/37/1131
f 229/37/1132 233/247/1133 230/246/1134
f 228/38/1135 230/246/1136 231/248/1137
f 231/248/1138 232/249/1139 228/38/1140
f 234/250/1141 233/247/1142 229/37/1143
f 229/37/1144 235/40/1145 234/250/1146
f 236/251/1147 234/250/1148 235/40/1149
f 235/40/1150 237/42/1151 236/251/1152
f 238/41/1153 235/40/1154 229/37/1155
f 229/37/1156 239/252/1157 238/41/1158
f 237/42/1159 238/41/1160 240/253/1161
f 240/253/1162 241/254/1163 237/42/1164
f 245/46/1165 243/48/1166 242/255/1167
f 242/255/1168 244/256/1169 245/46/1170
f 246/257/1171 245/46/1172 244/256/1173
f 244/256/1174 249/43/1175 246/257/1176
f 245/46/1177 246/257/1178 247/258/1179
f 247/258/1180 248/47/1181 245/46/1182
f 250/44/1183 249/43/1184 244/256/1185
f 244/256/1186 251/259/1187 250/44/1188
f 252/45/1189 250/44/1190 253/260/1191
f 253/260/1192 254/261/1193 252/45/1194
f 248/47/1195 256/262/1196 255/263/1197
f 255/263/1198 243/48/1199 248/47/1200
f 232/249/1201 231/248/1202 254/261/1203
f 254/261/1204 253/260/1205 232/249/1206
f 228/38/1207 232/249/1208 253/260/1209
f 253/260/1210 250/44/1211 228/38/1212
f 227/39/1213 228/38/1214 250/44/1215
f 250/44/1216 251/259/1217 227/39/1218
f 229/37/1219 227/39/1220 251/259/1221
f 251/259/1222 244/256/1223 229/37/1224
f 239/252/1225 229/37/1226 244/256/1227
f 244/256/1228 242/255/1229 239/252/1230
f 238/41/1231 239/252/1232 242/255/1233
f 242/255/1234 243/48/1235 238/41/1236
f 240/253/1237 238/41/1238 243/48/1239
f 243/48/1240 255/263/1241 240/253/1242
f 241/254/1243 240/253/1244 255/263/1245
f 255/263/1246 256/262/1247 241/254/1248
f 236/251/1249 247/258/1250 246/257/1251
f 246/257/1252 234/250/1253 236/251/1254
f 234/250/1255 246/257/1256 249/43/1257
f 249/43/1258 233/247/1259 234/250/1260
f 233/247/1261 249/43/1262 252/45/1263
f 252/45/1264 230/246/1265 233/247/1266
f 230/246/1267 252/45/1268 254/261/1269
f 254/261/1270 231/248/1271 230/246/1272
f 248/47/1273 247/258/1274 236/251/1275
f 236/251/1276 237/42/1277 248/47/1278
f 256/262/1279 248/47/1280 237/42/1281
f 237/42/1282 241/254/1283 256/262/1284
f 259/264/1285 258/265/1286 257/266/1287
f 257/266/1288 260/267/1289 259/264/1290
f 262/268/1291 261/269/1292 258/265/1293
f 258/265/1294 259/264/1295 262/268/1296
f 264/270/1297 263/271/1298 261/269/1299
f 261/269/1300 262/268/1301 264/270/1302
f 260/267/1303 257/266/1304 263/271/1305
f 263/271/1306 264/270/1307 260/267/1308
f 262/268/1309 259/264/1310 260/267/1311
f 260/267/1312 264/270/1313 262/268/1314
f 258/265/1315 261/269/1316 263/271/1317
f 263/271/1318 257/266/1319 258/265/1320
f 267/272/1321 266/273/1322 265/274/1323
f 265/274/1324 268/275/1325 267/272/1326
f 270/276/1327 269/277/1328 266/273/1329
f 266/273/1330 267/272/1331 270/276/1332
f 272/278/1333 271/279/1334 269/277/1335
f 269/277/1336 270/276/1337 272/278/1338
f 268/275/1339 265/274/1340 271/279/1341
f 271/279/1342 272/278/1343 268/275/1344
f 270/276/1345 267/272/1346 268/275/1347
f 268/275/1348 272/278/1349 270/276/1350
f 266/273/1351 269/277/1352 271/279/1353
f 271/279/1354 265/274/1355 266/273/1356
f 275/280/1357 274/281/1358 273/282/1359
f 273/282/1360 276/283/1361 275/280/1362
f 278/284/1363 277/285/1364 274/281/1365
f 274/281/1366 275/280/1367 278/284/1368
f 280/286/1369 279/287/1370 277/285/1371
f 277/285/1372 278/284/1373 280/286/1374
f 276/283/1375 273/282/1376 279/287/1377
f 279/287/1378 280/286/1379 276/283/1380
f 278/284/1381 275/280/1382 276/283/1383
f 276/283/1384 280/286/1385 278/284/1386
f 274/281/1387 277/285/1388 279/287/1389
f 279/287/1390 273/282/1391 274/281/1392
