%YAML 1.1
%TAG !u! tag:unity3d.com,2011:
--- !u!1 &5688711971314562152
GameObject:
  m_ObjectHideFlags: 0
  m_CorrespondingSourceObject: {fileID: 0}
  m_PrefabInstance: {fileID: 0}
  m_PrefabAsset: {fileID: 0}
  serializedVersion: 6
  m_Component:
  - component: {fileID: 2819293220722549898}
  - component: {fileID: 7354606617358824286}
  m_Layer: 0
  m_Name: TG_GameSet_Easy 1
  m_TagString: Untagged
  m_Icon: {fileID: 0}
  m_NavMeshLayer: 0
  m_StaticEditorFlags: 0
  m_IsActive: 1
--- !u!4 &2819293220722549898
Transform:
  m_ObjectHideFlags: 0
  m_CorrespondingSourceObject: {fileID: 0}
  m_PrefabInstance: {fileID: 0}
  m_PrefabAsset: {fileID: 0}
  m_GameObject: {fileID: 5688711971314562152}
  m_LocalRotation: {x: 0, y: 0, z: 0, w: 1}
  m_LocalPosition: {x: 0, y: 0, z: 0}
  m_LocalScale: {x: 1, y: 1, z: 1}
  m_Children: []
  m_Father: {fileID: 0}
  m_RootOrder: 0
  m_LocalEulerAnglesHint: {x: 0, y: 0, z: 0}
--- !u!114 &7354606617358824286
MonoBehaviour:
  m_ObjectHideFlags: 0
  m_CorrespondingSourceObject: {fileID: 0}
  m_PrefabInstance: {fileID: 0}
  m_PrefabAsset: {fileID: 0}
  m_GameObject: {fileID: 5688711971314562152}
  m_Enabled: 1
  m_EditorHideFlags: 0
  m_Script: {fileID: 11500000, guid: 63413c692e759414eb697f8f1e47096a, type: 3}
  m_Name: 
  m_EditorClassIdentifier: 
  description: 
  gameStyle: 2
  setTiles:
  - {x: 0, y: 60}
  startTiles: 3200000030000000
  startIsNumerical: 0101
  startValues: 0a0000000b000000
  goalTiles: 350000003900000025000000290000002d000000
  goalValues: 410000000b0000003a0000001f0000005a000000
  goalsLock: 0000000000
  goalKeyTiles: []
  showKeyTiles: 0
  lockedTiles: 00000000010000000200000003000000040000000500000006000000
  lockedTValues: 
  lockedTTypes: 02000000020000000200000002000000020000000200000002000000
  lockedOperatorTypes: 04000000040000000400000004000000040000000400000004000000
  forbiddenNumbers: 00000000
  forbiddenOperators: 
  enemies: 
  sinkTiles: 
  sinkTilesTime: 
  maximumMoves: 0
  targetMoves: {x: 12, y: 9, z: 7}
  useHistory: 0
