%YAML 1.1
%TAG !u! tag:unity3d.com,2011:
--- !u!1 &7101533513802449451
GameObject:
  m_ObjectHideFlags: 0
  m_CorrespondingSourceObject: {fileID: 0}
  m_PrefabInstance: {fileID: 0}
  m_PrefabAsset: {fileID: 0}
  serializedVersion: 6
  m_Component:
  - component: {fileID: 7819403988276255379}
  - component: {fileID: 3828876371770275039}
  m_Layer: 5
  m_Name: SpriterTransform
  m_TagString: Untagged
  m_Icon: {fileID: 0}
  m_NavMeshLayer: 0
  m_StaticEditorFlags: 0
  m_IsActive: 1
--- !u!224 &7819403988276255379
RectTransform:
  m_ObjectHideFlags: 0
  m_CorrespondingSourceObject: {fileID: 0}
  m_PrefabInstance: {fileID: 0}
  m_PrefabAsset: {fileID: 0}
  m_GameObject: {fileID: 7101533513802449451}
  m_LocalRotation: {x: 0, y: 0, z: 0, w: 1}
  m_LocalPosition: {x: 0, y: 0, z: 0}
  m_LocalScale: {x: 1, y: 1, z: 1}
  m_Children:
  - {fileID: 4985437763040930357}
  m_Father: {fileID: 0}
  m_RootOrder: 0
  m_LocalEulerAnglesHint: {x: 0, y: 0, z: 0}
  m_AnchorMin: {x: 0.5, y: 0.5}
  m_AnchorMax: {x: 0.5, y: 0.5}
  m_AnchoredPosition: {x: 0, y: 0}
  m_SizeDelta: {x: 100, y: 100}
  m_Pivot: {x: 0.5, y: 0.5}
--- !u!114 &3828876371770275039
MonoBehaviour:
  m_ObjectHideFlags: 0
  m_CorrespondingSourceObject: {fileID: 0}
  m_PrefabInstance: {fileID: 0}
  m_PrefabAsset: {fileID: 0}
  m_GameObject: {fileID: 7101533513802449451}
  m_Enabled: 1
  m_EditorHideFlags: 0
  m_Script: {fileID: 11500000, guid: a68a1b97ac2048d4cbf2b590fc6772c7, type: 3}
  m_Name: 
  m_EditorClassIdentifier: 
  objectType: 8
  lerpMode: 1
  loopMode: 0
  repeatType: 1
  totalDuration: 4
  lerpDuration: 1
  intervalDelay: 0
  startDelay: 0
  stopDelay: 0
  cycles: 0
  progression: 0
  play: 0
  isReverse: 0
  startOnActivation: 1
  startInteger: 0
  endInteger: 1
  startValue: 0
  endValue: 1
  startVector: {x: 0, y: 0, z: 0}
  endVector: {x: 1, y: 1, z: 1}
  startColor: {r: 0, g: 0, b: 0, a: 0}
  endColor: {r: 1, g: 1, b: 1, a: 1}
  startRect:
    serializedVersion: 2
    x: 0
    y: 0
    width: 1
    height: 1
  endRect:
    serializedVersion: 2
    x: 0
    y: 0
    width: 0
    height: 0
  cycleCounter: 0
--- !u!1001 &3705868880080098733
PrefabInstance:
  m_ObjectHideFlags: 0
  serializedVersion: 2
  m_Modification:
    m_TransformParent: {fileID: 7819403988276255379}
    m_Modifications:
    - target: {fileID: 3793087865422000213, guid: bc257c9d1026f5b4ca676931d4d5f36d,
        type: 3}
      propertyPath: m_Name
      value: Spriter
      objectReference: {fileID: 0}
    - target: {fileID: 8521427492379443096, guid: bc257c9d1026f5b4ca676931d4d5f36d,
        type: 3}
      propertyPath: m_LocalPosition.x
      value: 0
      objectReference: {fileID: 0}
    - target: {fileID: 8521427492379443096, guid: bc257c9d1026f5b4ca676931d4d5f36d,
        type: 3}
      propertyPath: m_LocalPosition.y
      value: 0
      objectReference: {fileID: 0}
    - target: {fileID: 8521427492379443096, guid: bc257c9d1026f5b4ca676931d4d5f36d,
        type: 3}
      propertyPath: m_LocalPosition.z
      value: -0.23
      objectReference: {fileID: 0}
    - target: {fileID: 8521427492379443096, guid: bc257c9d1026f5b4ca676931d4d5f36d,
        type: 3}
      propertyPath: m_LocalRotation.x
      value: -0
      objectReference: {fileID: 0}
    - target: {fileID: 8521427492379443096, guid: bc257c9d1026f5b4ca676931d4d5f36d,
        type: 3}
      propertyPath: m_LocalRotation.y
      value: -0
      objectReference: {fileID: 0}
    - target: {fileID: 8521427492379443096, guid: bc257c9d1026f5b4ca676931d4d5f36d,
        type: 3}
      propertyPath: m_LocalRotation.z
      value: -0
      objectReference: {fileID: 0}
    - target: {fileID: 8521427492379443096, guid: bc257c9d1026f5b4ca676931d4d5f36d,
        type: 3}
      propertyPath: m_LocalRotation.w
      value: 1
      objectReference: {fileID: 0}
    - target: {fileID: 8521427492379443096, guid: bc257c9d1026f5b4ca676931d4d5f36d,
        type: 3}
      propertyPath: m_RootOrder
      value: 0
      objectReference: {fileID: 0}
    - target: {fileID: 8521427492379443096, guid: bc257c9d1026f5b4ca676931d4d5f36d,
        type: 3}
      propertyPath: m_LocalEulerAnglesHint.x
      value: 0
      objectReference: {fileID: 0}
    - target: {fileID: 8521427492379443096, guid: bc257c9d1026f5b4ca676931d4d5f36d,
        type: 3}
      propertyPath: m_LocalEulerAnglesHint.y
      value: 0
      objectReference: {fileID: 0}
    - target: {fileID: 8521427492379443096, guid: bc257c9d1026f5b4ca676931d4d5f36d,
        type: 3}
      propertyPath: m_LocalEulerAnglesHint.z
      value: 0
      objectReference: {fileID: 0}
    - target: {fileID: 8521427492379443096, guid: bc257c9d1026f5b4ca676931d4d5f36d,
        type: 3}
      propertyPath: m_AnchoredPosition.x
      value: 0
      objectReference: {fileID: 0}
    - target: {fileID: 8521427492379443096, guid: bc257c9d1026f5b4ca676931d4d5f36d,
        type: 3}
      propertyPath: m_AnchoredPosition.y
      value: 0
      objectReference: {fileID: 0}
    - target: {fileID: 8521427492379443096, guid: bc257c9d1026f5b4ca676931d4d5f36d,
        type: 3}
      propertyPath: m_SizeDelta.x
      value: 100
      objectReference: {fileID: 0}
    - target: {fileID: 8521427492379443096, guid: bc257c9d1026f5b4ca676931d4d5f36d,
        type: 3}
      propertyPath: m_SizeDelta.y
      value: 100
      objectReference: {fileID: 0}
    - target: {fileID: 8521427492379443096, guid: bc257c9d1026f5b4ca676931d4d5f36d,
        type: 3}
      propertyPath: m_AnchorMin.x
      value: 0.5
      objectReference: {fileID: 0}
    - target: {fileID: 8521427492379443096, guid: bc257c9d1026f5b4ca676931d4d5f36d,
        type: 3}
      propertyPath: m_AnchorMin.y
      value: 0.5
      objectReference: {fileID: 0}
    - target: {fileID: 8521427492379443096, guid: bc257c9d1026f5b4ca676931d4d5f36d,
        type: 3}
      propertyPath: m_AnchorMax.x
      value: 0.5
      objectReference: {fileID: 0}
    - target: {fileID: 8521427492379443096, guid: bc257c9d1026f5b4ca676931d4d5f36d,
        type: 3}
      propertyPath: m_AnchorMax.y
      value: 0.5
      objectReference: {fileID: 0}
    - target: {fileID: 8521427492379443096, guid: bc257c9d1026f5b4ca676931d4d5f36d,
        type: 3}
      propertyPath: m_Pivot.x
      value: 0.5
      objectReference: {fileID: 0}
    - target: {fileID: 8521427492379443096, guid: bc257c9d1026f5b4ca676931d4d5f36d,
        type: 3}
      propertyPath: m_Pivot.y
      value: 0.5
      objectReference: {fileID: 0}
    m_RemovedComponents: []
  m_SourcePrefab: {fileID: 100100000, guid: bc257c9d1026f5b4ca676931d4d5f36d, type: 3}
--- !u!224 &4985437763040930357 stripped
RectTransform:
  m_CorrespondingSourceObject: {fileID: 8521427492379443096, guid: bc257c9d1026f5b4ca676931d4d5f36d,
    type: 3}
  m_PrefabInstance: {fileID: 3705868880080098733}
  m_PrefabAsset: {fileID: 0}
