%YAML 1.1
%TAG !u! tag:unity3d.com,2011:
--- !u!1 &1287668974764515689
GameObject:
  m_ObjectHideFlags: 0
  m_CorrespondingSourceObject: {fileID: 0}
  m_PrefabInstance: {fileID: 0}
  m_PrefabAsset: {fileID: 0}
  serializedVersion: 6
  m_Component:
  - component: {fileID: 3229603318360070969}
  - component: {fileID: 7596670356309102014}
  - component: {fileID: 3898276884106261849}
  - component: {fileID: 4054789214106240501}
  - component: {fileID: 1287668974764515688}
  m_Layer: 0
  m_Name: LightShaft_Hexagonal
  m_TagString: Untagged
  m_Icon: {fileID: 0}
  m_NavMeshLayer: 0
  m_StaticEditorFlags: 0
  m_IsActive: 1
--- !u!4 &3229603318360070969
Transform:
  m_ObjectHideFlags: 0
  m_CorrespondingSourceObject: {fileID: 0}
  m_PrefabInstance: {fileID: 0}
  m_PrefabAsset: {fileID: 0}
  m_GameObject: {fileID: 1287668974764515689}
  m_LocalRotation: {x: -0, y: -0, z: -0, w: 1}
  m_LocalPosition: {x: 0, y: 0.5, z: -0.0000005066395}
  m_LocalScale: {x: 1, y: 1, z: 1}
  m_Children: []
  m_Father: {fileID: 0}
  m_RootOrder: 0
  m_LocalEulerAnglesHint: {x: 0, y: 0, z: 0}
--- !u!33 &7596670356309102014
MeshFilter:
  m_ObjectHideFlags: 0
  m_CorrespondingSourceObject: {fileID: 0}
  m_PrefabInstance: {fileID: 0}
  m_PrefabAsset: {fileID: 0}
  m_GameObject: {fileID: 1287668974764515689}
  m_Mesh: {fileID: 0}
--- !u!23 &3898276884106261849
MeshRenderer:
  m_ObjectHideFlags: 0
  m_CorrespondingSourceObject: {fileID: 0}
  m_PrefabInstance: {fileID: 0}
  m_PrefabAsset: {fileID: 0}
  m_GameObject: {fileID: 1287668974764515689}
  m_Enabled: 1
  m_CastShadows: 1
  m_ReceiveShadows: 1
  m_DynamicOccludee: 1
  m_MotionVectors: 1
  m_LightProbeUsage: 1
  m_ReflectionProbeUsage: 1
  m_RenderingLayerMask: 1
  m_RendererPriority: 0
  m_Materials:
  - {fileID: 2100000, guid: ee88893ea46b0bb4081e9946978ffc17, type: 2}
  m_StaticBatchInfo:
    firstSubMesh: 0
    subMeshCount: 0
  m_StaticBatchRoot: {fileID: 0}
  m_ProbeAnchor: {fileID: 0}
  m_LightProbeVolumeOverride: {fileID: 0}
  m_ScaleInLightmap: 1
  m_ReceiveGI: 1
  m_PreserveUVs: 0
  m_IgnoreNormalsForChartDetection: 0
  m_ImportantGI: 0
  m_StitchLightmapSeams: 1
  m_SelectedEditorRenderState: 3
  m_MinimumChartSize: 4
  m_AutoUVMaxDistance: 0.5
  m_AutoUVMaxAngle: 89
  m_LightmapParameters: {fileID: 0}
  m_SortingLayerID: 0
  m_SortingLayer: 0
  m_SortingOrder: 0
--- !u!114 &4054789214106240501
MonoBehaviour:
  m_ObjectHideFlags: 0
  m_CorrespondingSourceObject: {fileID: 0}
  m_PrefabInstance: {fileID: 0}
  m_PrefabAsset: {fileID: 0}
  m_GameObject: {fileID: 1287668974764515689}
  m_Enabled: 1
  m_EditorHideFlags: 0
  m_Script: {fileID: 11500000, guid: de991af8bc45a41498f7c4f865c5208a, type: 3}
  m_Name: 
  m_EditorClassIdentifier: 
  amplitude: 0.5
  speed: 2
  waitForSeconds: 0
  scaleAxis: {x: 0, y: 1, z: 0}
  useUnscaledTime: 0
--- !u!114 &1287668974764515688
MonoBehaviour:
  m_ObjectHideFlags: 0
  m_CorrespondingSourceObject: {fileID: 0}
  m_PrefabInstance: {fileID: 0}
  m_PrefabAsset: {fileID: 0}
  m_GameObject: {fileID: 1287668974764515689}
  m_Enabled: 1
  m_EditorHideFlags: 0
  m_Script: {fileID: 11500000, guid: 8233d90336aea43098adf6dbabd606a2, type: 3}
  m_Name: 
  m_EditorClassIdentifier: 
  m_MeshFormatVersion: 1
  m_Faces:
  - m_Indexes: 000000000100000002000000000000000200000003000000
    m_SmoothingGroup: 0
    m_Uv:
      m_UseWorldSpace: 0
      m_FlipU: 0
      m_FlipV: 0
      m_SwapUV: 0
      m_Fill: 1
      m_Scale: {x: 1, y: 1}
      m_Offset: {x: 0, y: 0}
      m_Rotation: 0
      m_Anchor: 9
    m_Material: {fileID: 0}
    m_SubmeshIndex: 0
    m_ManualUV: 1
    elementGroup: -1
    m_TextureGroup: -1
  - m_Indexes: 040000000500000006000000040000000600000007000000
    m_SmoothingGroup: 0
    m_Uv:
      m_UseWorldSpace: 0
      m_FlipU: 0
      m_FlipV: 0
      m_SwapUV: 0
      m_Fill: 1
      m_Scale: {x: 1, y: 1}
      m_Offset: {x: 0, y: 0}
      m_Rotation: 0
      m_Anchor: 9
    m_Material: {fileID: 0}
    m_SubmeshIndex: 0
    m_ManualUV: 1
    elementGroup: -1
    m_TextureGroup: -1
  - m_Indexes: 08000000090000000a000000080000000a0000000b000000
    m_SmoothingGroup: 0
    m_Uv:
      m_UseWorldSpace: 0
      m_FlipU: 0
      m_FlipV: 0
      m_SwapUV: 0
      m_Fill: 1
      m_Scale: {x: 1, y: 1}
      m_Offset: {x: 0, y: 0}
      m_Rotation: 0
      m_Anchor: 9
    m_Material: {fileID: 0}
    m_SubmeshIndex: 0
    m_ManualUV: 1
    elementGroup: -1
    m_TextureGroup: -1
  - m_Indexes: 0c0000000d0000000e0000000c0000000e0000000f000000
    m_SmoothingGroup: 0
    m_Uv:
      m_UseWorldSpace: 0
      m_FlipU: 0
      m_FlipV: 0
      m_SwapUV: 0
      m_Fill: 1
      m_Scale: {x: 1, y: 1}
      m_Offset: {x: 0, y: 0}
      m_Rotation: 0
      m_Anchor: 9
    m_Material: {fileID: 0}
    m_SubmeshIndex: 0
    m_ManualUV: 1
    elementGroup: -1
    m_TextureGroup: -1
  - m_Indexes: 100000001100000012000000100000001200000013000000
    m_SmoothingGroup: 0
    m_Uv:
      m_UseWorldSpace: 0
      m_FlipU: 0
      m_FlipV: 0
      m_SwapUV: 0
      m_Fill: 1
      m_Scale: {x: 1, y: 1}
      m_Offset: {x: 0, y: 0}
      m_Rotation: 0
      m_Anchor: 9
    m_Material: {fileID: 0}
    m_SubmeshIndex: 0
    m_ManualUV: 1
    elementGroup: -1
    m_TextureGroup: -1
  - m_Indexes: 140000001500000016000000140000001600000017000000
    m_SmoothingGroup: 0
    m_Uv:
      m_UseWorldSpace: 0
      m_FlipU: 0
      m_FlipV: 0
      m_SwapUV: 0
      m_Fill: 1
      m_Scale: {x: 1, y: 1}
      m_Offset: {x: 0, y: 0}
      m_Rotation: 0
      m_Anchor: 9
    m_Material: {fileID: 0}
    m_SubmeshIndex: 0
    m_ManualUV: 1
    elementGroup: -1
    m_TextureGroup: -1
  m_SharedVertices:
  - m_Vertices: 0000000017000000
  - m_Vertices: 0100000016000000
  - m_Vertices: 0200000005000000
  - m_Vertices: 0300000004000000
  - m_Vertices: 0600000009000000
  - m_Vertices: 0700000008000000
  - m_Vertices: 0a0000000d000000
  - m_Vertices: 0b0000000c000000
  - m_Vertices: 0e00000011000000
  - m_Vertices: 0f00000010000000
  - m_Vertices: 1200000015000000
  - m_Vertices: 1300000014000000
  m_SharedTextures: []
  m_Positions:
  - {x: -0.5, y: -0.5, z: -0.8660245}
  - {x: -0.5, y: 0.5, z: -0.8660245}
  - {x: 0.5, y: 0.5, z: -0.86602545}
  - {x: 0.5, y: -0.5, z: -0.86602545}
  - {x: 0.5, y: -0.5, z: -0.86602545}
  - {x: 0.5, y: 0.5, z: -0.86602545}
  - {x: 1, y: 0.5, z: 0.0000005066395}
  - {x: 1, y: -0.5, z: 0.0000005066395}
  - {x: 1, y: -0.5, z: 0.0000005066395}
  - {x: 1, y: 0.5, z: 0.0000005066395}
  - {x: 0.5, y: 0.5, z: 0.86602545}
  - {x: 0.5, y: -0.5, z: 0.86602545}
  - {x: 0.5, y: -0.5, z: 0.86602545}
  - {x: 0.5, y: 0.5, z: 0.86602545}
  - {x: -0.5, y: 0.5, z: 0.86602545}
  - {x: -0.5, y: -0.5, z: 0.86602545}
  - {x: -0.5, y: -0.5, z: 0.86602545}
  - {x: -0.5, y: 0.5, z: 0.86602545}
  - {x: -1, y: 0.5, z: 0.0000005066395}
  - {x: -1, y: -0.5, z: 0.0000005066395}
  - {x: -1, y: -0.5, z: 0.0000005066395}
  - {x: -1, y: 0.5, z: 0.0000005066395}
  - {x: -0.5, y: 0.5, z: -0.8660245}
  - {x: -0.5, y: -0.5, z: -0.8660245}
  m_Textures0:
  - {x: 0.333333, y: 0.000003}
  - {x: 0.33333272, y: 0.99975795}
  - {x: 0.49999973, y: 0.99975604}
  - {x: 0.5, y: 0}
  - {x: 0.5, y: 0}
  - {x: 0.49999973, y: 0.99975604}
  - {x: 0.666667, y: 0.99975604}
  - {x: 0.666667, y: 0}
  - {x: 0.666667, y: 0}
  - {x: 0.666667, y: 0.99975604}
  - {x: 0.833333, y: 0.99975604}
  - {x: 0.833333, y: 0}
  - {x: 0.833333, y: 0}
  - {x: 0.833333, y: 0.99975604}
  - {x: 1, y: 0.99975604}
  - {x: 1, y: 0}
  - {x: 0, y: 0.000009}
  - {x: -0.000000029802322, y: 0.9997639}
  - {x: 0.16666672, y: 0.99976104}
  - {x: 0.166667, y: 0.000006}
  - {x: 0.166667, y: 0.000006}
  - {x: 0.16666672, y: 0.99976104}
  - {x: 0.33333272, y: 0.99975795}
  - {x: 0.333333, y: 0.000003}
  m_Textures2: []
  m_Textures3: []
  m_Tangents:
  - {x: 1, y: 0.0000024542742, z: -0.0000009536743, w: -1}
  - {x: 1, y: 0.000001907816, z: -0.0000009536743, w: -1}
  - {x: 1, y: 0.0000024542742, z: -0.0000009536743, w: -1}
  - {x: 1, y: 0.000003000732, z: -0.0000009536743, w: -1}
  - {x: 0.49999976, y: 0, z: 0.8660255, w: -1}
  - {x: 0.49999976, y: 0, z: 0.8660255, w: -1}
  - {x: 0.49999976, y: 0, z: 0.8660255, w: -1}
  - {x: 0.49999976, y: 0, z: 0.86602557, w: -1}
  - {x: -0.5000002, y: 0, z: 0.86602527, w: -1}
  - {x: -0.5000002, y: 0, z: 0.86602527, w: -1}
  - {x: -0.5000002, y: 0, z: 0.86602527, w: -1}
  - {x: -0.5000002, y: 0, z: 0.86602527, w: -1}
  - {x: -1, y: 0, z: 0, w: -1}
  - {x: -1, y: 0, z: 0, w: -1}
  - {x: -1, y: 0, z: 0, w: -1}
  - {x: -1, y: 0, z: 0, w: -1}
  - {x: -0.5000002, y: 0.0000029312312, z: -0.8660253, w: -1}
  - {x: -0.5000002, y: 0.0000028617253, z: -0.86602527, w: -1}
  - {x: -0.5000002, y: 0.0000029312312, z: -0.8660253, w: -1}
  - {x: -0.5000002, y: 0.0000030007363, z: -0.86602527, w: -1}
  - {x: 0.5000002, y: 0.0000030504693, z: -0.8660253, w: -1}
  - {x: 0.5000002, y: 0.000003100202, z: -0.8660253, w: -1}
  - {x: 0.5000002, y: 0.0000030504693, z: -0.8660253, w: -1}
  - {x: 0.5000002, y: 0.0000030007366, z: -0.8660253, w: -1}
  m_Colors: []
  m_UnwrapParameters:
    m_HardAngle: 88
    m_PackMargin: 20
    m_AngleError: 8
    m_AreaError: 15
  m_PreserveMeshAssetOnDestroy: 0
  assetGuid: 
  m_IsSelectable: 1
  m_SelectedFaces: 
  m_SelectedEdges: []
  m_SelectedVertices: 
