newmtl Mountain:TM_lockedMat
illum 4
Kd 1.00 1.00 1.00
Ka 0.40 0.40 0.40
Tf 1.00 1.00 1.00
Ni 1.00
newmtl MountainPath_Bot:MobileDiffuseColor_StoneGradFace1
illum 4
Kd 1.00 1.00 1.00
Ka 0.40 0.40 0.40
Tf 1.00 1.00 1.00
Ni 1.00
