%YAML 1.1
%TAG !u! tag:unity3d.com,2011:
--- !u!1 &5688711971314562152
GameObject:
  m_ObjectHideFlags: 0
  m_CorrespondingSourceObject: {fileID: 0}
  m_PrefabInstance: {fileID: 0}
  m_PrefabAsset: {fileID: 0}
  serializedVersion: 6
  m_Component:
  - component: {fileID: 2819293220722549898}
  - component: {fileID: 7354606617358824286}
  m_Layer: 0
  m_Name: TG_GameSet_5
  m_TagString: Untagged
  m_Icon: {fileID: 0}
  m_NavMeshLayer: 0
  m_StaticEditorFlags: 0
  m_IsActive: 1
--- !u!4 &2819293220722549898
Transform:
  m_ObjectHideFlags: 0
  m_CorrespondingSourceObject: {fileID: 0}
  m_PrefabInstance: {fileID: 0}
  m_PrefabAsset: {fileID: 0}
  m_GameObject: {fileID: 5688711971314562152}
  m_LocalRotation: {x: 0, y: 0, z: 0, w: 1}
  m_LocalPosition: {x: 0, y: 0, z: 0}
  m_LocalScale: {x: 1, y: 1, z: 1}
  m_Children: []
  m_Father: {fileID: 0}
  m_RootOrder: 0
  m_LocalEulerAnglesHint: {x: 0, y: 0, z: 0}
--- !u!114 &7354606617358824286
MonoBehaviour:
  m_ObjectHideFlags: 0
  m_CorrespondingSourceObject: {fileID: 0}
  m_PrefabInstance: {fileID: 0}
  m_PrefabAsset: {fileID: 0}
  m_GameObject: {fileID: 5688711971314562152}
  m_Enabled: 1
  m_EditorHideFlags: 0
  m_Script: {fileID: 11500000, guid: 63413c692e759414eb697f8f1e47096a, type: 3}
  m_Name: 
  m_EditorClassIdentifier: 
  description: More available tiles, crossRoads
  gameStyle: 2
  setTiles:
  - {x: 13, y: 13}
  - {x: 4, y: 4}
  - {x: 2, y: 3}
  - {x: 5, y: 6}
  - {x: 17, y: 18}
  - {x: 8, y: 8}
  - {x: 7, y: 7}
  - {x: 19, y: 19}
  - {x: 9, y: 9}
  - {x: 10, y: 10}
  - {x: 16, y: 16}
  startTiles: 0d000000
  startIsNumerical: 00
  startValues: 00000000
  goalTiles: 13000000
  goalValues: 14000000
  goalsLock: 00
  goalKeyTiles: []
  lockedTiles: 
  lockedTValues: 
  lockedTTypes: 
  lockedOperatorTypes: 
  forbiddenNumbers: 
  forbiddenOperators: 
  enemies: 
  sinkTiles: 
  sinkTilesTime: 
  maximumMoves: 0
  targetMoves: {x: 3, y: 2, z: 1}
