%YAML 1.1
%TAG !u! tag:unity3d.com,2011:
--- !u!1 &8818126066900425008
GameObject:
  m_ObjectHideFlags: 0
  m_CorrespondingSourceObject: {fileID: 0}
  m_PrefabInstance: {fileID: 0}
  m_PrefabAsset: {fileID: 0}
  serializedVersion: 6
  m_Component:
  - component: {fileID: 8818126066900425009}
  m_Layer: 0
  m_Name: OrderGameSlot_01
  m_TagString: Untagged
  m_Icon: {fileID: 0}
  m_NavMeshLayer: 0
  m_StaticEditorFlags: 0
  m_IsActive: 1
--- !u!224 &8818126066900425009
RectTransform:
  m_ObjectHideFlags: 0
  m_CorrespondingSourceObject: {fileID: 0}
  m_PrefabInstance: {fileID: 0}
  m_PrefabAsset: {fileID: 0}
  m_GameObject: {fileID: 8818126066900425008}
  m_LocalRotation: {x: 0, y: 0, z: 0, w: 1}
  m_LocalPosition: {x: 0, y: 0, z: 0}
  m_LocalScale: {x: 1, y: 1, z: 1}
  m_Children:
  - {fileID: 404000995335602527}
  m_Father: {fileID: 0}
  m_RootOrder: 0
  m_LocalEulerAnglesHint: {x: 0, y: 0, z: 0}
  m_AnchorMin: {x: 0.1, y: 0.6}
  m_AnchorMax: {x: 0.2, y: 0.78}
  m_AnchoredPosition: {x: 0, y: 0}
  m_SizeDelta: {x: 0, y: 0}
  m_Pivot: {x: 0.5, y: 0.5}
--- !u!1001 &4275173115556068407
PrefabInstance:
  m_ObjectHideFlags: 0
  serializedVersion: 2
  m_Modification:
    m_TransformParent: {fileID: 8818126066900425009}
    m_Modifications:
    - target: {fileID: 4525901640156773737, guid: 6359d133e9d1b7244bc7c9607c3d83b5,
        type: 3}
      propertyPath: m_Name
      value: OG_Outline
      objectReference: {fileID: 0}
    - target: {fileID: 4525901640156773737, guid: 6359d133e9d1b7244bc7c9607c3d83b5,
        type: 3}
      propertyPath: m_IsActive
      value: 0
      objectReference: {fileID: 0}
    - target: {fileID: 4525901640156773736, guid: 6359d133e9d1b7244bc7c9607c3d83b5,
        type: 3}
      propertyPath: m_LocalPosition.x
      value: 0
      objectReference: {fileID: 0}
    - target: {fileID: 4525901640156773736, guid: 6359d133e9d1b7244bc7c9607c3d83b5,
        type: 3}
      propertyPath: m_LocalPosition.y
      value: 0
      objectReference: {fileID: 0}
    - target: {fileID: 4525901640156773736, guid: 6359d133e9d1b7244bc7c9607c3d83b5,
        type: 3}
      propertyPath: m_LocalPosition.z
      value: 0
      objectReference: {fileID: 0}
    - target: {fileID: 4525901640156773736, guid: 6359d133e9d1b7244bc7c9607c3d83b5,
        type: 3}
      propertyPath: m_LocalRotation.x
      value: 0
      objectReference: {fileID: 0}
    - target: {fileID: 4525901640156773736, guid: 6359d133e9d1b7244bc7c9607c3d83b5,
        type: 3}
      propertyPath: m_LocalRotation.y
      value: 0
      objectReference: {fileID: 0}
    - target: {fileID: 4525901640156773736, guid: 6359d133e9d1b7244bc7c9607c3d83b5,
        type: 3}
      propertyPath: m_LocalRotation.z
      value: 0
      objectReference: {fileID: 0}
    - target: {fileID: 4525901640156773736, guid: 6359d133e9d1b7244bc7c9607c3d83b5,
        type: 3}
      propertyPath: m_LocalRotation.w
      value: 1
      objectReference: {fileID: 0}
    - target: {fileID: 4525901640156773736, guid: 6359d133e9d1b7244bc7c9607c3d83b5,
        type: 3}
      propertyPath: m_RootOrder
      value: 0
      objectReference: {fileID: 0}
    - target: {fileID: 4525901640156773736, guid: 6359d133e9d1b7244bc7c9607c3d83b5,
        type: 3}
      propertyPath: m_LocalEulerAnglesHint.x
      value: 0
      objectReference: {fileID: 0}
    - target: {fileID: 4525901640156773736, guid: 6359d133e9d1b7244bc7c9607c3d83b5,
        type: 3}
      propertyPath: m_LocalEulerAnglesHint.y
      value: 0
      objectReference: {fileID: 0}
    - target: {fileID: 4525901640156773736, guid: 6359d133e9d1b7244bc7c9607c3d83b5,
        type: 3}
      propertyPath: m_LocalEulerAnglesHint.z
      value: 0
      objectReference: {fileID: 0}
    - target: {fileID: 4525901640156773736, guid: 6359d133e9d1b7244bc7c9607c3d83b5,
        type: 3}
      propertyPath: m_AnchoredPosition.x
      value: 0
      objectReference: {fileID: 0}
    - target: {fileID: 4525901640156773736, guid: 6359d133e9d1b7244bc7c9607c3d83b5,
        type: 3}
      propertyPath: m_AnchoredPosition.y
      value: 0
      objectReference: {fileID: 0}
    - target: {fileID: 4525901640156773736, guid: 6359d133e9d1b7244bc7c9607c3d83b5,
        type: 3}
      propertyPath: m_SizeDelta.x
      value: 0
      objectReference: {fileID: 0}
    - target: {fileID: 4525901640156773736, guid: 6359d133e9d1b7244bc7c9607c3d83b5,
        type: 3}
      propertyPath: m_SizeDelta.y
      value: 0
      objectReference: {fileID: 0}
    - target: {fileID: 4525901640156773736, guid: 6359d133e9d1b7244bc7c9607c3d83b5,
        type: 3}
      propertyPath: m_AnchorMin.x
      value: 0
      objectReference: {fileID: 0}
    - target: {fileID: 4525901640156773736, guid: 6359d133e9d1b7244bc7c9607c3d83b5,
        type: 3}
      propertyPath: m_AnchorMin.y
      value: 0
      objectReference: {fileID: 0}
    - target: {fileID: 4525901640156773736, guid: 6359d133e9d1b7244bc7c9607c3d83b5,
        type: 3}
      propertyPath: m_AnchorMax.x
      value: 1
      objectReference: {fileID: 0}
    - target: {fileID: 4525901640156773736, guid: 6359d133e9d1b7244bc7c9607c3d83b5,
        type: 3}
      propertyPath: m_AnchorMax.y
      value: 1
      objectReference: {fileID: 0}
    - target: {fileID: 4525901640156773736, guid: 6359d133e9d1b7244bc7c9607c3d83b5,
        type: 3}
      propertyPath: m_Pivot.x
      value: 0.5
      objectReference: {fileID: 0}
    - target: {fileID: 4525901640156773736, guid: 6359d133e9d1b7244bc7c9607c3d83b5,
        type: 3}
      propertyPath: m_Pivot.y
      value: 0.5
      objectReference: {fileID: 0}
    - target: {fileID: 4525901640156773736, guid: 6359d133e9d1b7244bc7c9607c3d83b5,
        type: 3}
      propertyPath: m_LocalScale.x
      value: 1.3
      objectReference: {fileID: 0}
    - target: {fileID: 4525901640156773736, guid: 6359d133e9d1b7244bc7c9607c3d83b5,
        type: 3}
      propertyPath: m_LocalScale.y
      value: 1.15
      objectReference: {fileID: 0}
    - target: {fileID: 4525901640156773736, guid: 6359d133e9d1b7244bc7c9607c3d83b5,
        type: 3}
      propertyPath: m_LocalScale.z
      value: 1.2
      objectReference: {fileID: 0}
    m_RemovedComponents: []
  m_SourcePrefab: {fileID: 100100000, guid: 6359d133e9d1b7244bc7c9607c3d83b5, type: 3}
--- !u!224 &404000995335602527 stripped
RectTransform:
  m_CorrespondingSourceObject: {fileID: 4525901640156773736, guid: 6359d133e9d1b7244bc7c9607c3d83b5,
    type: 3}
  m_PrefabInstance: {fileID: 4275173115556068407}
  m_PrefabAsset: {fileID: 0}
