%YAML 1.1
%TAG !u! tag:unity3d.com,2011:
--- !u!1001 &6652560439683073192
PrefabInstance:
  m_ObjectHideFlags: 0
  serializedVersion: 2
  m_Modification:
    m_TransformParent: {fileID: 0}
    m_Modifications:
    - target: {fileID: 5792791388511253470, guid: b9691063c5242cc4591ac3a16f8a063a,
        type: 3}
      propertyPath: m_Name
      value: PathFragment (8)
      objectReference: {fileID: 0}
    - target: {fileID: 8504717110940781799, guid: b9691063c5242cc4591ac3a16f8a063a,
        type: 3}
      propertyPath: m_LocalPosition.x
      value: 16.91
      objectReference: {fileID: 0}
    - target: {fileID: 8504717110940781799, guid: b9691063c5242cc4591ac3a16f8a063a,
        type: 3}
      propertyPath: m_LocalPosition.y
      value: 0
      objectReference: {fileID: 0}
    - target: {fileID: 8504717110940781799, guid: b9691063c5242cc4591ac3a16f8a063a,
        type: 3}
      propertyPath: m_LocalPosition.z
      value: -2.96
      objectReference: {fileID: 0}
    - target: {fileID: 8504717110940781799, guid: b9691063c5242cc4591ac3a16f8a063a,
        type: 3}
      propertyPath: m_LocalRotation.x
      value: 0
      objectReference: {fileID: 0}
    - target: {fileID: 8504717110940781799, guid: b9691063c5242cc4591ac3a16f8a063a,
        type: 3}
      propertyPath: m_LocalRotation.y
      value: 0
      objectReference: {fileID: 0}
    - target: {fileID: 8504717110940781799, guid: b9691063c5242cc4591ac3a16f8a063a,
        type: 3}
      propertyPath: m_LocalRotation.z
      value: 0
      objectReference: {fileID: 0}
    - target: {fileID: 8504717110940781799, guid: b9691063c5242cc4591ac3a16f8a063a,
        type: 3}
      propertyPath: m_LocalRotation.w
      value: 1
      objectReference: {fileID: 0}
    - target: {fileID: 8504717110940781799, guid: b9691063c5242cc4591ac3a16f8a063a,
        type: 3}
      propertyPath: m_RootOrder
      value: 0
      objectReference: {fileID: 0}
    - target: {fileID: 8504717110940781799, guid: b9691063c5242cc4591ac3a16f8a063a,
        type: 3}
      propertyPath: m_LocalEulerAnglesHint.x
      value: 0
      objectReference: {fileID: 0}
    - target: {fileID: 8504717110940781799, guid: b9691063c5242cc4591ac3a16f8a063a,
        type: 3}
      propertyPath: m_LocalEulerAnglesHint.y
      value: 0
      objectReference: {fileID: 0}
    - target: {fileID: 8504717110940781799, guid: b9691063c5242cc4591ac3a16f8a063a,
        type: 3}
      propertyPath: m_LocalEulerAnglesHint.z
      value: 0
      objectReference: {fileID: 0}
    - target: {fileID: 2144103523889906719, guid: b9691063c5242cc4591ac3a16f8a063a,
        type: 3}
      propertyPath: m_IsActive
      value: 0
      objectReference: {fileID: 0}
    - target: {fileID: 3602804084492560074, guid: b9691063c5242cc4591ac3a16f8a063a,
        type: 3}
      propertyPath: m_LocalPosition.x
      value: -0.38
      objectReference: {fileID: 0}
    - target: {fileID: 3602804084492560074, guid: b9691063c5242cc4591ac3a16f8a063a,
        type: 3}
      propertyPath: m_LocalPosition.z
      value: 0.31
      objectReference: {fileID: 0}
    - target: {fileID: 3602804084492560074, guid: b9691063c5242cc4591ac3a16f8a063a,
        type: 3}
      propertyPath: m_LocalScale.x
      value: 0.74838
      objectReference: {fileID: 0}
    - target: {fileID: 3602804084492560074, guid: b9691063c5242cc4591ac3a16f8a063a,
        type: 3}
      propertyPath: m_LocalScale.y
      value: 0.74838
      objectReference: {fileID: 0}
    - target: {fileID: 3602804084492560074, guid: b9691063c5242cc4591ac3a16f8a063a,
        type: 3}
      propertyPath: m_LocalScale.z
      value: 0.74838
      objectReference: {fileID: 0}
    - target: {fileID: 7080239278072632448, guid: b9691063c5242cc4591ac3a16f8a063a,
        type: 3}
      propertyPath: m_LocalRotation.y
      value: 0.7305127
      objectReference: {fileID: 0}
    - target: {fileID: 7080239278072632448, guid: b9691063c5242cc4591ac3a16f8a063a,
        type: 3}
      propertyPath: m_LocalRotation.w
      value: 0.6828991
      objectReference: {fileID: 0}
    - target: {fileID: 7080239278072632448, guid: b9691063c5242cc4591ac3a16f8a063a,
        type: 3}
      propertyPath: m_LocalPosition.x
      value: 1.5
      objectReference: {fileID: 0}
    - target: {fileID: 7080239278072632448, guid: b9691063c5242cc4591ac3a16f8a063a,
        type: 3}
      propertyPath: m_LocalPosition.z
      value: 0.33
      objectReference: {fileID: 0}
    - target: {fileID: 7080239278072632448, guid: b9691063c5242cc4591ac3a16f8a063a,
        type: 3}
      propertyPath: m_LocalScale.x
      value: 1.1637
      objectReference: {fileID: 0}
    - target: {fileID: 7080239278072632448, guid: b9691063c5242cc4591ac3a16f8a063a,
        type: 3}
      propertyPath: m_LocalScale.y
      value: 1.1637
      objectReference: {fileID: 0}
    - target: {fileID: 7080239278072632448, guid: b9691063c5242cc4591ac3a16f8a063a,
        type: 3}
      propertyPath: m_LocalScale.z
      value: 0.98531646
      objectReference: {fileID: 0}
    - target: {fileID: 7080239278072632448, guid: b9691063c5242cc4591ac3a16f8a063a,
        type: 3}
      propertyPath: m_LocalEulerAnglesHint.y
      value: 93.859
      objectReference: {fileID: 0}
    - target: {fileID: 9107724798199485035, guid: b9691063c5242cc4591ac3a16f8a063a,
        type: 3}
      propertyPath: m_LocalRotation.y
      value: 0.46151006
      objectReference: {fileID: 0}
    - target: {fileID: 9107724798199485035, guid: b9691063c5242cc4591ac3a16f8a063a,
        type: 3}
      propertyPath: m_LocalRotation.w
      value: 0.887135
      objectReference: {fileID: 0}
    - target: {fileID: 9107724798199485035, guid: b9691063c5242cc4591ac3a16f8a063a,
        type: 3}
      propertyPath: m_LocalPosition.x
      value: 0.45
      objectReference: {fileID: 0}
    - target: {fileID: 9107724798199485035, guid: b9691063c5242cc4591ac3a16f8a063a,
        type: 3}
      propertyPath: m_LocalPosition.z
      value: 0.89
      objectReference: {fileID: 0}
    - target: {fileID: 9107724798199485035, guid: b9691063c5242cc4591ac3a16f8a063a,
        type: 3}
      propertyPath: m_LocalScale.x
      value: 1.034505
      objectReference: {fileID: 0}
    - target: {fileID: 9107724798199485035, guid: b9691063c5242cc4591ac3a16f8a063a,
        type: 3}
      propertyPath: m_LocalScale.y
      value: 0.79
      objectReference: {fileID: 0}
    - target: {fileID: 9107724798199485035, guid: b9691063c5242cc4591ac3a16f8a063a,
        type: 3}
      propertyPath: m_LocalScale.z
      value: 0.79
      objectReference: {fileID: 0}
    - target: {fileID: 9107724798199485035, guid: b9691063c5242cc4591ac3a16f8a063a,
        type: 3}
      propertyPath: m_LocalEulerAnglesHint.y
      value: 54.969
      objectReference: {fileID: 0}
    m_RemovedComponents: []
  m_SourcePrefab: {fileID: 100100000, guid: b9691063c5242cc4591ac3a16f8a063a, type: 3}
