%YAML 1.1
%TAG !u! tag:unity3d.com,2011:
--- !u!1 &7711413155022581241
GameObject:
  m_ObjectHideFlags: 0
  m_CorrespondingSourceObject: {fileID: 0}
  m_PrefabInstance: {fileID: 0}
  m_PrefabAsset: {fileID: 0}
  serializedVersion: 6
  m_Component:
  - component: {fileID: 8659697539314729200}
  - component: {fileID: -3846772712613141138}
  m_Layer: 0
  m_Name: GameSet_Hard 4
  m_TagString: Untagged
  m_Icon: {fileID: 0}
  m_NavMeshLayer: 0
  m_StaticEditorFlags: 0
  m_IsActive: 1
--- !u!4 &8659697539314729200
Transform:
  m_ObjectHideFlags: 0
  m_CorrespondingSourceObject: {fileID: 0}
  m_PrefabInstance: {fileID: 0}
  m_PrefabAsset: {fileID: 0}
  m_GameObject: {fileID: 7711413155022581241}
  m_LocalRotation: {x: 0, y: 0, z: 0, w: 1}
  m_LocalPosition: {x: 0, y: 0, z: 0}
  m_LocalScale: {x: 1, y: 1, z: 1}
  m_Children: []
  m_Father: {fileID: 0}
  m_RootOrder: 0
  m_LocalEulerAnglesHint: {x: 0, y: 0, z: 0}
--- !u!114 &-3846772712613141138
MonoBehaviour:
  m_ObjectHideFlags: 0
  m_CorrespondingSourceObject: {fileID: 0}
  m_PrefabInstance: {fileID: 0}
  m_PrefabAsset: {fileID: 0}
  m_GameObject: {fileID: 7711413155022581241}
  m_Enabled: 1
  m_EditorHideFlags: 0
  m_Script: {fileID: 11500000, guid: cc4b4989cbef3b14d8fcf40af0a3af50, type: 3}
  m_Name: 
  m_EditorClassIdentifier: 
  showAddItems: 0
  showDelete: 0
  showRestart: 1
  resources: 0
  freezeItems: 1
  availableItems: []
  levelItems:
  - item: {fileID: 6785612804638485481, guid: 6b77d658db0c3d249bca4a87b5d89c65, type: 3}
    coordinates:
    - {x: 4, y: 0, z: 0}
    - {x: 2, y: 0, z: 0}
    - {x: -2, y: 0, z: 0}
    - {x: -4, y: 0, z: 0}
    - {x: -3, y: 0, z: -2}
    - {x: 3, y: 0, z: -2}
    rotations: 000000000000000000000000000000000000000000000000
    isDestroyable: 1
    isStatic: 0
    isBlocker: 0
  - item: {fileID: 7950409491447369654, guid: 06f7280b07338eb4abe24a55973fe64a, type: 3}
    coordinates:
    - {x: 0, y: 0, z: -2}
    - {x: 0, y: 0, z: 0}
    - {x: 0, y: 0, z: 2}
    rotations: 020000000200000002000000
    isDestroyable: 1
    isStatic: 0
    isBlocker: 0
  goals:
  - reward: 100
    position: {x: 0, y: 3.5, z: -4}
  treasures:
  - reward: 200
    position: {x: 1, y: 3, z: -4}
  bonusLimits: {x: 100, y: 75, z: 50}
