%YAML 1.1
%TAG !u! tag:unity3d.com,2011:
--- !u!1 &7711413155022581241
GameObject:
  m_ObjectHideFlags: 0
  m_CorrespondingSourceObject: {fileID: 0}
  m_PrefabInstance: {fileID: 0}
  m_PrefabAsset: {fileID: 0}
  serializedVersion: 6
  m_Component:
  - component: {fileID: 8659697539314729200}
  - component: {fileID: -3846772712613141138}
  m_Layer: 0
  m_Name: GameSet_Normal 1
  m_TagString: Untagged
  m_Icon: {fileID: 0}
  m_NavMeshLayer: 0
  m_StaticEditorFlags: 0
  m_IsActive: 1
--- !u!4 &8659697539314729200
Transform:
  m_ObjectHideFlags: 0
  m_CorrespondingSourceObject: {fileID: 0}
  m_PrefabInstance: {fileID: 0}
  m_PrefabAsset: {fileID: 0}
  m_GameObject: {fileID: 7711413155022581241}
  m_LocalRotation: {x: 0, y: 0, z: 0, w: 1}
  m_LocalPosition: {x: 0, y: 0, z: 0}
  m_LocalScale: {x: 1, y: 1, z: 1}
  m_Children: []
  m_Father: {fileID: 0}
  m_RootOrder: 0
  m_LocalEulerAnglesHint: {x: 0, y: 0, z: 0}
--- !u!114 &-3846772712613141138
MonoBehaviour:
  m_ObjectHideFlags: 0
  m_CorrespondingSourceObject: {fileID: 0}
  m_PrefabInstance: {fileID: 0}
  m_PrefabAsset: {fileID: 0}
  m_GameObject: {fileID: 7711413155022581241}
  m_Enabled: 1
  m_EditorHideFlags: 0
  m_Script: {fileID: 11500000, guid: cc4b4989cbef3b14d8fcf40af0a3af50, type: 3}
  m_Name: 
  m_EditorClassIdentifier: 
  showAddItems: 0
  showDelete: 0
  showRestart: 1
  resources: 0
  freezeItems: 1
  availableItems: []
  levelItems: []
  goals:
  - reward: 300
    position: {x: 0, y: 2, z: 0}
  treasures: []
  bonusLimits: {x: 100, y: 75, z: 50}
