%YAML 1.1
%TAG !u! tag:unity3d.com,2011:
--- !u!1 &3070591746609972402
GameObject:
  m_ObjectHideFlags: 0
  m_CorrespondingSourceObject: {fileID: 0}
  m_PrefabInstance: {fileID: 0}
  m_PrefabAsset: {fileID: 0}
  serializedVersion: 6
  m_Component:
  - component: {fileID: 8247458422783585208}
  - component: {fileID: 6410817308927166808}
  m_Layer: 0
  m_Name: OrderGameSet_Hard_7
  m_TagString: Untagged
  m_Icon: {fileID: 0}
  m_NavMeshLayer: 0
  m_StaticEditorFlags: 0
  m_IsActive: 1
--- !u!4 &8247458422783585208
Transform:
  m_ObjectHideFlags: 0
  m_CorrespondingSourceObject: {fileID: 0}
  m_PrefabInstance: {fileID: 0}
  m_PrefabAsset: {fileID: 0}
  m_GameObject: {fileID: 3070591746609972402}
  m_LocalRotation: {x: 0, y: 0, z: 0, w: 1}
  m_LocalPosition: {x: 0, y: 0, z: 0}
  m_LocalScale: {x: 1, y: 1, z: 1}
  m_Children: []
  m_Father: {fileID: 0}
  m_RootOrder: 0
  m_LocalEulerAnglesHint: {x: 0, y: 0, z: 0}
--- !u!114 &6410817308927166808
MonoBehaviour:
  m_ObjectHideFlags: 0
  m_CorrespondingSourceObject: {fileID: 0}
  m_PrefabInstance: {fileID: 0}
  m_PrefabAsset: {fileID: 0}
  m_GameObject: {fileID: 3070591746609972402}
  m_Enabled: 1
  m_EditorHideFlags: 0
  m_Script: {fileID: 11500000, guid: 26e7513da3313ec46b44002a4f041cba, type: 3}
  m_Name: 
  m_EditorClassIdentifier: 
  interval: 4
  startNum: -2
  showStart: 1
  numberOfCorrects: 1
  shuffle: 0
  shuffleAfterWrong: 0
  setSlots: 0000000001000000020000000300000004000000
  unknownValues: 02000000060000000a000000
  setModifiers: []
  maxCountModifiers: 0
  allowModifySlot: 0
  wildValueRange: {x: 0, y: 10}
